digraph superioritygraph {

overlap=scale;

labelloc = t


"RT alone; 60 in 30-33"->"Tem2" [label = "TEst1 nonStatSig" labelURL = "./RT alone; 60 in 30-33Tem2.html",  color="red"];
"Tem alone"->"RT alone; 60 in 30-33" [label = "WickWLancetOncol2012 nonStatSig" labelURL = "./Tem aloneRT alone; 60 in 30-33.html",  color="red"];

}
