digraph superioritygraph {

overlap=scale;

labelloc = t


"IndAdj TMZ ACNU Cis; 60-62"->"Adj TMZ; 60-62" [label = "KimlHJNeurooncol2011 " labelURL = "./Adj TMZ; 60-62IndAdj TMZ ACNU Cis; 60-62.html",  color="red"];
"Adj TMZ; LessThan60Gy"->"Adj mCCNU; LessThan60Gy" [label = "WangXAnnSurgOncol2014 Grade_NotGood" labelURL = "./Adj TMZ; LessThan60GyAdj mCCNU; LessThan60Gy.html",  dir = "both"  color="blue"];
"Conc TMZ; 60-62"->"Conc TMZ; 60-62" [label = "GaberMCancerManagRes2013 " labelURL = "./Conc TMZ; 60-62Conc TMZ; 60-62.html",  dir = "both"  color="blue"];
"Conc TMZ; 60-62"->"RT alone; 60-62" [label = "KocherMStrahlentherapieundOnkol2008 Grade_NotGood" labelURL = "./Conc TMZ; 60-62RT alone; 60-62.html",  dir = "both"  color="blue"];
"Conc Tamox; LessThan60Gy"->"Conc TMZ; LessThan60Gy" [label = "ZhouSBAsianPacJCancerPrev2015 Grade_NotGood" labelURL = "./Conc Tamox; LessThan60GyConc TMZ; LessThan60Gy.html",  dir = "both"  color="blue"];
"ConcAdj TMZ Bev; 60-62"->"ConcAdj TMZ; 60-62" [label = "ChinotOLNEnglJMed2014, GilbertMRJClinOncol2014 Grade_NotGood" labelURL = "./ConcAdj TMZ Bev; 60-62ConcAdj TMZ; 60-62.html",  color="red"];
"ConcAdj TMZ Cil; 60-62"->"ConcAdj TMZ Cil; 60-62" [label = "NaborsLBCancer2012 " labelURL = "./ConcAdj TMZ Cil; 60-62ConcAdj TMZ Cil; 60-62.html",  color="red"];
"ConcAdj TMZ DCV; 60-62"->"ConcAdj TMZ; 60-62" [label = "ChoDYWorldNeurosurg2012 " labelURL = "./ConcAdj TMZ DCV; 60-62ConcAdj TMZ; 60-62.html",  color="red"];
"ConcAdj TMZ DD CRA Cel Thal; 60-62"->"ConcAdj TMZ DD CRA Cel; 60-62" [label = "Penas-PradoMNeuroOncol2015_DG Grade_NotGood" labelURL = "./ConcAdj TMZ DD CRA Cel Thal; 60-62ConcAdj TMZ DD CRA Cel; 60-62.html",  dir = "both"  color="blue"];
"ConcAdj TMZ DD CRA Cel Thal; 60-62"->"ConcAdj TMZ DD CRA Thal; 60-62" [label = "Penas-PradoMNeuroOncol2015_FG, Penas-PradoMNeuroOncol2015_EG Grade_NotGood" labelURL = "./ConcAdj TMZ DD CRA Cel Thal; 60-62ConcAdj TMZ DD CRA Thal; 60-62.html",  dir = "both"  color="blue"];
"ConcAdj TMZ DD CRA Cel Thal; 60-62"->"ConcAdj TMZ DD CRA; 60-62" [label = "Penas-PradoMNeuroOncol2015_AG Grade_NotGood" labelURL = "./ConcAdj TMZ DD CRA Cel Thal; 60-62ConcAdj TMZ DD CRA; 60-62.html",  dir = "both"  color="blue"];
"ConcAdj TMZ DD CRA Cel Thal; 60-62"->"ConcAdj TMZ DD Cel; 60-62" [label = "Penas-PradoMNeuroOncol2015_BG Grade_NotGood" labelURL = "./ConcAdj TMZ DD CRA Cel Thal; 60-62ConcAdj TMZ DD Cel; 60-62.html",  dir = "both"  color="blue"];
"ConcAdj TMZ DD CRA Cel Thal; 60-62"->"ConcAdj TMZ DD Thal; 60-62" [label = "Penas-PradoMNeuroOncol2015_CG Grade_NotGood" labelURL = "./ConcAdj TMZ DD CRA Cel Thal; 60-62ConcAdj TMZ DD Thal; 60-62.html",  dir = "both"  color="blue"];
"ConcAdj TMZ DD CRA Cel Thal; 60-62"->"ConcAdj TMZ DD; 60-62" [label = "Penas-PradoMNeuroOncol2015_GH Grade_NotGood" labelURL = "./ConcAdj TMZ DD CRA Cel Thal; 60-62ConcAdj TMZ DD; 60-62.html",  dir = "both"  color="blue"];
"ConcAdj TMZ DD CRA Cel; 60-62"->"ConcAdj TMZ DD CRA; 60-62" [label = "Penas-PradoMNeuroOncol2015_AD Grade_NotGood" labelURL = "./ConcAdj TMZ DD CRA Cel; 60-62ConcAdj TMZ DD CRA; 60-62.html",  dir = "both"  color="blue"];
"ConcAdj TMZ DD CRA Cel; 60-62"->"ConcAdj TMZ DD Cel Thal; 60-62" [label = "Penas-PradoMNeuroOncol2015_DF Grade_NotGood" labelURL = "./ConcAdj TMZ DD CRA Cel; 60-62ConcAdj TMZ DD Cel Thal; 60-62.html",  dir = "both"  color="blue"];
"ConcAdj TMZ DD CRA Cel; 60-62"->"ConcAdj TMZ DD Cel; 60-62" [label = "Penas-PradoMNeuroOncol2015_BD Grade_NotGood" labelURL = "./ConcAdj TMZ DD CRA Cel; 60-62ConcAdj TMZ DD Cel; 60-62.html",  dir = "both"  color="blue"];
"ConcAdj TMZ DD CRA Cel; 60-62"->"ConcAdj TMZ DD Thal; 60-62" [label = "Penas-PradoMNeuroOncol2015_CD Grade_NotGood" labelURL = "./ConcAdj TMZ DD CRA Cel; 60-62ConcAdj TMZ DD Thal; 60-62.html",  dir = "both"  color="blue"];
"ConcAdj TMZ DD CRA Cel; 60-62"->"ConcAdj TMZ DD; 60-62" [label = "Penas-PradoMNeuroOncol2015_DH Grade_NotGood" labelURL = "./ConcAdj TMZ DD CRA Cel; 60-62ConcAdj TMZ DD; 60-62.html",  dir = "both"  color="blue"];
"ConcAdj TMZ DD CRA Thal; 60-62"->"ConcAdj TMZ DD CRA Cel; 60-62" [label = "Penas-PradoMNeuroOncol2015_DE Grade_NotGood" labelURL = "./ConcAdj TMZ DD CRA Thal; 60-62ConcAdj TMZ DD CRA Cel; 60-62.html",  dir = "both"  color="blue"];
"ConcAdj TMZ DD CRA Thal; 60-62"->"ConcAdj TMZ DD CRA; 60-62" [label = "Penas-PradoMNeuroOncol2015_AE Grade_NotGood" labelURL = "./ConcAdj TMZ DD CRA Thal; 60-62ConcAdj TMZ DD CRA; 60-62.html",  dir = "both"  color="blue"];
"ConcAdj TMZ DD CRA Thal; 60-62"->"ConcAdj TMZ DD Cel Thal; 60-62" [label = "Penas-PradoMNeuroOncol2015_EF Grade_NotGood" labelURL = "./ConcAdj TMZ DD CRA Thal; 60-62ConcAdj TMZ DD Cel Thal; 60-62.html",  dir = "both"  color="blue"];
"ConcAdj TMZ DD CRA Thal; 60-62"->"ConcAdj TMZ DD Cel; 60-62" [label = "Penas-PradoMNeuroOncol2015_BE Grade_NotGood" labelURL = "./ConcAdj TMZ DD CRA Thal; 60-62ConcAdj TMZ DD Cel; 60-62.html",  dir = "both"  color="blue"];
"ConcAdj TMZ DD CRA Thal; 60-62"->"ConcAdj TMZ DD Thal; 60-62" [label = "Penas-PradoMNeuroOncol2015_CE Grade_NotGood" labelURL = "./ConcAdj TMZ DD CRA Thal; 60-62ConcAdj TMZ DD Thal; 60-62.html",  dir = "both"  color="blue"];
"ConcAdj TMZ DD CRA Thal; 60-62"->"ConcAdj TMZ DD; 60-62" [label = "Penas-PradoMNeuroOncol2015_EH Grade_NotGood" labelURL = "./ConcAdj TMZ DD CRA Thal; 60-62ConcAdj TMZ DD; 60-62.html",  dir = "both"  color="blue"];
"ConcAdj TMZ DD CRA; 60-62"->"ConcAdj TMZ DD Cel; 60-62" [label = "Penas-PradoMNeuroOncol2015_AB Grade_NotGood" labelURL = "./ConcAdj TMZ DD CRA; 60-62ConcAdj TMZ DD Cel; 60-62.html",  dir = "both"  color="blue"];
"ConcAdj TMZ DD CRA; 60-62"->"ConcAdj TMZ DD Thal; 60-62" [label = "Penas-PradoMNeuroOncol2015_AC Grade_NotGood" labelURL = "./ConcAdj TMZ DD CRA; 60-62ConcAdj TMZ DD Thal; 60-62.html",  dir = "both"  color="blue"];
"ConcAdj TMZ DD CRA; 60-62"->"ConcAdj TMZ DD; 60-62" [label = "Penas-PradoMNeuroOncol2015_AH Grade_NotGood" labelURL = "./ConcAdj TMZ DD CRA; 60-62ConcAdj TMZ DD; 60-62.html",  dir = "both"  color="blue"];
"ConcAdj TMZ DD CRA; 60-62"->"RT alone; 60-62" [label = "AthanassiouHJClinOncol2005 Grade_NotGood" labelURL = "./ConcAdj TMZ DD CRA; 60-62RT alone; 60-62.html",  dir = "both"  color="blue"];
"ConcAdj TMZ DD Cel Thal; 60-62"->"ConcAdj TMZ DD CRA; 60-62" [label = "Penas-PradoMNeuroOncol2015_AF Grade_NotGood" labelURL = "./ConcAdj TMZ DD Cel Thal; 60-62ConcAdj TMZ DD CRA; 60-62.html",  dir = "both"  color="blue"];
"ConcAdj TMZ DD Cel Thal; 60-62"->"ConcAdj TMZ DD Cel; 60-62" [label = "Penas-PradoMNeuroOncol2015_BF Grade_NotGood" labelURL = "./ConcAdj TMZ DD Cel Thal; 60-62ConcAdj TMZ DD Cel; 60-62.html",  dir = "both"  color="blue"];
"ConcAdj TMZ DD Cel Thal; 60-62"->"ConcAdj TMZ DD Thal; 60-62" [label = "Penas-PradoMNeuroOncol2015_CF Grade_NotGood" labelURL = "./ConcAdj TMZ DD Cel Thal; 60-62ConcAdj TMZ DD Thal; 60-62.html",  dir = "both"  color="blue"];
"ConcAdj TMZ DD Cel Thal; 60-62"->"ConcAdj TMZ DD; 60-62" [label = "Penas-PradoMNeuroOncol2015_FH Grade_NotGood" labelURL = "./ConcAdj TMZ DD Cel Thal; 60-62ConcAdj TMZ DD; 60-62.html",  dir = "both"  color="blue"];
"ConcAdj TMZ DD Cel; 60-62"->"ConcAdj TMZ DD; 60-62" [label = "Penas-PradoMNeuroOncol2015_BH Grade_NotGood" labelURL = "./ConcAdj TMZ DD Cel; 60-62ConcAdj TMZ DD; 60-62.html",  dir = "both"  color="blue"];
"ConcAdj TMZ DD Thal; 60-62"->"ConcAdj TMZ DD Cel; 60-62" [label = "Penas-PradoMNeuroOncol2015_BC Grade_NotGood" labelURL = "./ConcAdj TMZ DD Thal; 60-62ConcAdj TMZ DD Cel; 60-62.html",  dir = "both"  color="blue"];
"ConcAdj TMZ DD Thal; 60-62"->"ConcAdj TMZ DD; 60-62" [label = "Penas-PradoMNeuroOncol2015_CH Grade_NotGood" labelURL = "./ConcAdj TMZ DD Thal; 60-62ConcAdj TMZ DD; 60-62.html",  dir = "both"  color="blue"];
"ConcAdj TMZ DD; 60-62"->"ConcAdj TMZ Val; 60-62" [label = "StragliottoGIntJCancer2013 Grade_NotGood" labelURL = "./ConcAdj TMZ DD; 60-62ConcAdj TMZ Val; 60-62.html",  dir = "both"  color="blue"];
"ConcAdj TMZ; 60-62"->"ConcAdj TMZ DD; 60-62" [label = "GilbertMRJClinOncol2013 " labelURL = "./ConcAdj TMZ DD; 60-62ConcAdj TMZ; 60-62.html",  color="red"];
"ConcAdj TMZ Nimo; 60-62"->"ConcAdj TMZ; 60-62" [label = "WestphalMEurJCancer2015 Grade_NotGood" labelURL = "./ConcAdj TMZ Nimo; 60-62ConcAdj TMZ; 60-62.html",  dir = "both"  color="blue"];
"ConcAdj TMZ Nimo; LessThan60Gy"->"ConcAdj TMZ; LessThan60Gy" [label = "HongJExpTherMed2012 Grade_NotGood" labelURL = "./ConcAdj TMZ Nimo; LessThan60GyConcAdj TMZ; LessThan60Gy.html",  dir = "both"  color="blue"];
"ConcAdj TMZ TTF; 60-62"->"ConcAdj TMZ; 60-62" [label = "StuppRJAMA2015 " labelURL = "./ConcAdj TMZ TTF; 60-62ConcAdj TMZ; 60-62.html",  color="red"];
"ConcAdj TMZ; 60-62"->"IndConcAdj TMZ Bev Iri; 60-62" [label = "ChauffertBAnnOncol2014 " labelURL = "./ConcAdj TMZ; 60-62IndConcAdj TMZ Bev Iri; 60-62.html",  dir = "both"  color="blue"];
"ConcAdj TMZ; 60-62"->"IndConcAdj TMZ Van; 60-62" [label = "LeeEQClinCancerRes2015 Grade_NotGood" labelURL = "./ConcAdj TMZ; 60-62IndConcAdj TMZ Van; 60-62.html",  dir = "both"  color="blue"];
"IndConcAdj TMZ; 60-62"->"ConcAdj TMZ; 60-62" [label = "MaoYChinMedJ(Engl)2015 " labelURL = "./ConcAdj TMZ; 60-62IndConcAdj TMZ; 60-62.html",  color="red"];
"ConcAdj TMZ; 60-62"->"RT alone; 60-62" [label = "StuppRLancetOncol2009, StuppRNEnglJMed2005 " labelURL = "./ConcAdj TMZ; 60-62RT alone; 60-62.html",  color="red"];
"IndConcAdj Bev Iri; 60-62"->"IndConcAdj TMZ Bev; 60-62" [label = "HoflandKFActaOncol2014 Grade_NotGood" labelURL = "./IndConcAdj Bev Iri; 60-62IndConcAdj TMZ Bev; 60-62.html",  dir = "both"  color="blue"];
"IndConcAdj TMZ; 60-62"->"RT alone; 60-62" [label = "SzczepanekDNeurolNeurochirPol2013 " labelURL = "./RT alone; 60-62IndConcAdj TMZ; 60-62.html",  color="red"];

}
