ArmID,Number,NoOfArms,Phase,ConcRT,PMID,TrialID,GradeInfo,AgeInfo,% male,% MGMTKnown,% MGMTPos,MGMTSubgroup,RecruitmentArea,YearStarted,YearStopped,TrialDesign,RCT,ArmA_TotalShort,ArmA_TotalShort_GroupA1,ArmA_TotalShort_GroupA2,ArmA_TotalShort_GroupB,ArmA_TotalShort_GroupC,ArmA_ChemoYN,Grd3Neutropenia_A,Grd3OesTox_A,Grd3PneumoTox_A,Gr3NauseaVom_A,Gr3Fatigue_A,Gr3Infection_A,ToxicDeathRate_A,ResponseRate_A,MedianOS_A,1yrOS_A,2yrOS_A,3yrOS_A,5YrOS_A,MedianPFS_A,1YrPFS_A,2YrPFS_A,3YrPFS_A,5YrPFS_A,ArmB_TotalShort,ArmB_TotalShort_GroupA1,ArmB_TotalShort_GroupA2,ArmB_TotalShort_GroupB,ArmB_TotalShort_GroupC,ArmB_ChemoYN,Grd3Neutropenia_B,Grd3OesTox_B,Grd3PneumoTox_B,Gr3NauseaVom_B,Gr3Fatigue_B,Gr3Infection_B,ToxicDeathRate_B,ResponseRate_B,MedianOS_B,1yrOS_B,2yrOS_B,3yrOS_B,5YrOS_B,MedianPFS_B,1YrPFS_B,2YrPFS_B,3YrPFS_B,5YrPFS_B,RR_SS,HR_OS,HR_pvalue,HR_SS,MedOS_SS,OS_1_SS,OS_2_SS,OS_3_SS,OS_5_SS,HR_PFS,HRPFS_pvalue,HRPFS_SS,MedPFS_SS,1YrPFS_SS,2YrPFS_SS,3YrPFS_SS,5YrPFS_SS,Limitations*,PoorAllocation,NoBlinding,LossToFollow-up,StoppedEarly,Indirectness*,NonDirectArmComp,OtherPatientGrp,Imprecision*,PubBias*,Heterogeneity*,LargeEffect,NonConfounded,DRGradient,OverallGRADE,Xchecked,Notes
19269895,573,2,3,1,19269895,StuppRLancetOncol2009,4,18-70,0.62,0.36,0.45,Both,Europe/North America,2000,2002,ConcAdj C(Tem)/RTvs RT,1,Conc TMZ Adj TMZ; 60 in 30,ConcAdj TMZ; 60-62,ConcAdj TMZ; HD RT,TMZ; HD RT,TMZ; HD RT,1,0.007,NA,NA,NA,NA,NA,0,NA,14.6,NA,0.27,0.16,0.1,NA,NA,0.11,0.06,0.04,RT alone; 60 in 30,RT alone; 60-62,RT alone; HD RT,HD RT,HD RT,0,0.003,NA,NA,NA,NA,NA,0,NA,12.1,NA,0.11,0.04,0.02,NA,NA,0.02,0.01,0.01,NA,0.63,<0.0001,1,1,NA,1,1,1,0.56,<0.0001,1,NA,NA,1,1,0,1,0,1,0,0,0,0,0,0,0,0,0,0,0,Good,1,
25163906,545,2,3,1,25163906,StuppRLancetOncol2014,4,50-65,0.53,1,1,Pos,Europe/North America/Asia,2008,2011,ConcAdj C(Cil+Tem)/RT vs ConcAdj C(Tem)/RT,1,Conc TMZ Cil 2000 Adj TMZ Cil 2000; 60 in 30,ConcAdj TMZ Cil; 60-62,ConcAdj TMZ Cil; HD RT,TMZ Cil; HD RT,TMZ combined; HD RT,1,NA,0.21,0.43,0.02,0.08,0.04,0.04,NA,26.3,NA,0.56,NA,NA,10.6,NA,NA,NA,NA,Conc TMZ Adj TMZ; 60 in 30,ConcAdj TMZ; 60-62,ConcAdj TMZ; HD RT,TMZ; HD RT,TMZ; HD RT,1,NA,0.14,0.5,0.05,0.04,0.02,0.03,NA,26.3,NA,0.56,NA,NA,7.9,NA,NA,NA,NA,NA,1.02,0.86,0,0,NA,0,NA,NA,0.92,0.41,0,NA,NA,NA,NA,NA,1,0,1,0,0,0,0,0,0,0,0,0,0,0,Good,1,
25616647,142,2,3,1,25616647,WestphalMEurJCancer2015,4,18-70,0.61,0.68,0.32,Both,Europe,2007,2010,ConcAdj C(Nimo+Tem)/RT vs ConcAdj C(Tem)/RT,1,Conc TMZ Nimo 400 Adj TMZ Nimo 400; 60 in 30,ConcAdj TMZ Nimo; 60-62,ConcAdj TMZ Nimo; HD RT,TMZ Nimo; HD RT,TMZ combined; HD RT,1,NA,0,0.24,0,NA,0.01,NA,NA,22.3,0.77,NA,NA,NA,7.7,0.23,NA,NA,NA,Conc TMZ Adj TMZ; 60 in 30,ConcAdj TMZ; 60-62,ConcAdj TMZ; HD RT,TMZ; HD RT,TMZ; HD RT,1,NA,0.01,0.03,0.03,NA,0.03,NA,NA,19.6,0.72,NA,NA,NA,5.8,0.18,NA,NA,NA,NA,0.86,0.486,0,0,0,NA,NA,NA,0.95,0.7898,0,0,0,NA,NA,NA,1,0,1,1,0,0,0,0,0,0,0,0,0,0,Moderate,1,
15758009,573,2,3,1,15758009,StuppRNEnglJMed2005,4,18-70,0.62,0,NA,Both,Europe/North America,2000,2002,ConcAdj C(Tem)/RTvs RT,1,Conc TMZ Adj TMZ; 60 in 30,ConcAdj TMZ; 60-62,ConcAdj TMZ; HD RT,TMZ; HD RT,TMZ; HD RT,1,NA,NA,0.21,NA,NA,0.08,0.01,NA,14.6,0.61,0.27,NA,NA,6.9,0.27,0.11,NA,NA,RT alone; 60 in 30,RT alone; 60-62,RT alone; HD RT,HD RT,HD RT,0,NA,NA,0,NA,NA,0.02,NA,NA,12.1,0.51,0.1,NA,NA,5,0.09,0.02,NA,NA,NA,0.63,<0.0001,1,1,NA,1,NA,NA,0.54,<0.0001,1,1,1,1,NA,NA,1,0,1,0,0,0,0,0,0,0,0,0,0,0,Good,1,
15800329,110,2,2,1,15800329,AthanassiouHJClinOncol2005,4,>=18,0.64,0,NA,Both,Europe,2000,2002,ConcAdj C(Tem)/RT vs RT,1,Conc TMZ Adj TMZ DD 150 CRA 100; 60 in 30,ConcAdj TMZ DD CRA; 60-62,ConcAdj TMZ DD CRA; HD RT,TMZ CRA; HD RT,TMZ combined; HD RT,1,NA,NA,0.09,NA,NA,NA,0.02,NA,13.4,0.56,NA,NA,NA,10.8,0.37,NA,NA,NA,RT alone; 60 in 30,RT alone; 60-62,RT alone; HD RT,HD RT,HD RT,0,NA,NA,NA,NA,NA,NA,NA,NA,7.7,0.16,NA,NA,NA,5.2,0.08,NA,NA,NA,NA,0.66,0.0003,1,1,1,NA,NA,NA,0.68,0.0008,1,1,1,NA,NA,NA,1,0,1,1,0,0,0,0,0,0,0,0,0,0,Moderate,1,
24723487,120,2,2,1,24723487,ChauffertBAnnOncol2014,4,18-70 ,0.59,0,NA,Both,Europe,2009,2011,Ind C(Bev+Iri) Conc C (Bev+Tem) Adj C(Bev+Iri)/RT vs ConcAdj C(Tem)/RT,1,Ind Bev Iri 125 Conc TMZ Bev (A) Adj Bev Iri 125; 60 in 30,IndConcAdj TMZ Bev Iri; 60-62,IndConcAdj TMZ Bev Iri; HD RT,TMZ Bev Iri; HD RT,TMZ combined; HD RT,1,NA,0.05,0.42,NA,NA,0.09,0.07,NA,11.1,NA,NA,NA,NA,7.1,NA,NA,NA,NA,Conc TMZ Adj TMZ; 60 in 30,ConcAdj TMZ; 60-62,ConcAdj TMZ; HD RT,TMZ; HD RT,TMZ; HD RT,1,NA,0.02,0.36,NA,NA,0.04,0.04,NA,11.1,NA,NA,NA,NA,5.2,NA,NA,NA,NA,NA,1,NA,0,0,NA,NA,NA,NA,0.82,NA,0,NA,NA,NA,NA,NA,1,0,1,0,0,0,0,0,0,0,0,0,0,0,Good,1,
24552318,921,2,3,1,24552318,ChinotOLNEnglJMed2014,4,>=18,0.63,0.76,0.34,Both,Europe/North America,2009,2011,ConcAdj C(Bev+Tem)/RT vs ConcAdj C(Tem+Placebo)/RT,1,Conc TMZ Bev (A) Adj TMZ Bev (A); 60 in 30,ConcAdj TMZ Bev; 60-62,ConcAdj TMZ Bev; HD RT,TMZ Bev; HD RT,TMZ combined; HD RT,1,NA,0.02,0.15,NA,0.07,NA,0.04,NA,16.8,0.72,0.34,NA,NA,10.6,NA,NA,NA,NA,Conc TMZ Adj TMZ; 60 in 30,ConcAdj TMZ; 60-62,ConcAdj TMZ; HD RT,TMZ; HD RT,TMZ; HD RT,1,NA,0.01,0.1,NA,0.05,NA,0.03,NA,16.7,0.66,0.3,NA,NA,6.2,NA,NA,NA,NA,NA,0.88,0.1,0,NA,1,0,NA,NA,0.64,<0.001,1,NA,NA,NA,NA,NA,0,0,0,0,0,0,0,0,0,0,0,0,0,0,Good,1,
22120301,34,2,2,1,22120301,ChoDYWorldNeurosurg2012,4,14-70,0.47,1,0.56,Both,Asia,2007,2012,ConcAdj C(Tem)/RT/DCV vs ConcAdj C(Tem)/RT,1,Conc TMZ 100 Adj Ext TMZ (B) DCV; 60 in 30,ConcAdj TMZ DCV; 60-62,ConcAdj TMZ DCV; HD RT,TMZ DCV; HD RT,TMZ combined; HD RT,1,NA,NA,NA,NA,NA,NA,NA,NA,31.9,0.89,0.44,0.17,NA,8.5,NA,NA,NA,NA,Conc TMZ 100 Adj Ext TMZ (B); 60 in 30,ConcAdj TMZ; 60-62,ConcAdj TMZ; HD RT,TMZ; HD RT,TMZ; HD RT,1,NA,NA,NA,NA,NA,NA,NA,NA,15,0.75,0.19,0,NA,8,NA,NA,NA,NA,NA,NA,NA,NA,1,0,1,1,NA,NA,NA,NA,0,NA,NA,NA,NA,1,0,1,0,0,0,0,0,0,0,0,1,0,0,Good,1,
19506159,85,2,2,1,19506159,ClarkeJLJClinOncol2009,4,18-70,0.66,0.56,0.19,Both,North America,2005,2007,Conc C(Tem) Adj C(TemDD+RA)/RT vs Conc C(Tem) Adj C(TemM+RA)/RT,1,Conc TMZ Adj TMZ DD 150 CRA 100; 60 in 30,ConcAdj TMZ DD CRA; 60-62,ConcAdj TMZ DD CRA; HD RT,TMZ CRA; HD RT,TMZ combined; HD RT,1,NA,NA,1,NA,0.1,NA,NA,NA,17.1,0.8,0.35,NA,NA,6.6,NA,NA,NA,NA,Conc TMZ Adj TMZ DD 50 CRA 100; 60 in 30,ConcAdj TMZ DD CRA; 60-62,ConcAdj TMZ DD CRA; HD RT,TMZ CRA; HD RT,TMZ combined; HD RT,1,NA,NA,0.89,NA,0.04,NA,NA,NA,15.1,0.69,0.28,NA,NA,5,NA,NA,NA,NA,NA,NA,NA,NA,NA,NA,NA,NA,NA,NA,NA,NA,NA,NA,NA,NA,NA,1,0,1,0,0,0,0,0,0,0,0,0,0,0,Good,1,
26658237,63,2,2,1,26658237,ElinzanoHAmJClinOncol2015,4,21-82,0.62,1,0,Neg,North America,2011,2014,Conc C(Pac) Adj C(Tem)/RT vs ConcAdj C(Tem)/RT,1,Conc Pac Adj TMZ; 60 in 30,ConcAdj TMZ Pac; 60-62,ConcAdj TMZ Pac; HD RT,TMZ Pac; HD RT,TMZ combined; HD RT,1,NA,0.34,0.17,0,0,0.07,0,NA,16,NA,NA,NA,NA,9,NA,NA,NA,NA,Conc TMZ Adj TMZ; 60 in 30,ConcAdj TMZ; 60-62,ConcAdj TMZ; HD RT,TMZ; HD RT,TMZ; HD RT,1,NA,0.06,0.11,0,0.11,0,0,NA,14.8,NA,NA,NA,NA,9.5,NA,NA,NA,NA,NA,1.44,0.27,0,NA,NA,NA,NA,NA,1.1,0.75,0,NA,NA,NA,NA,NA,1,0,1,1,0,0,0,0,0,0,0,0,0,0,Moderate,1,
24133376,60,2,NA,1,24133376,GaberMCancerManagRes2013,4,18-70,0.57,0,NA,Both,North Africa,2009,2012,Conc C(Tem)/RT vs Conc C(TemLD)/RT,1,Conc TMZ; 60 in 30,Conc TMZ; 60-62,Conc TMZ; HD RT,TMZ; HD RT,TMZ; HD RT,1,NA,0.13,NA,NA,NA,NA,NA,0.4,12.3,NA,NA,NA,NA,8.8,0.32,NA,NA,NA,Conc TMZ Int; 60 in 30,Conc TMZ; 60-62,Conc TMZ; HD RT,TMZ; HD RT,TMZ; HD RT,1,NA,0,NA,NA,NA,NA,NA,0.33,14.3,NA,NA,NA,NA,11.5,0.3,NA,NA,NA,NA,NA,NA,NA,0,NA,NA,NA,NA,NA,NA,NA,0,NA,NA,NA,NA,1,0,1,0,0,0,0,0,0,0,0,0,0,0,Good,1,
24101040,833,2,3,1,24101040,GilbertMRJClinOncol2013,4,>=18,0.57,0.91,0.33,Both,Europe/North America,2006,2008,ConcAdj C(Tem)/RT vs Conc C(Tem) Adj C(TemDD)/RT,1,Conc TMZ Adj Ext TMZ (A); 60 in 30,ConcAdj TMZ; 60-62,ConcAdj TMZ; HD RT,TMZ; HD RT,TMZ; HD RT,1,NA,NA,0.39,0.01,0.03,NA,NA,NA,16.6,NA,0.34,NA,NA,5.5,NA,NA,NA,NA,Conc TMZ Adj TMZ DD 75-100; 60 in 30,ConcAdj TMZ DD; 60-62,ConcAdj TMZ DD; HD RT,TMZ; HD RT,TMZ; HD RT,1,NA,NA,0.57,0.02,0.09,NA,NA,NA,14.9,NA,0.34,NA,NA,6.7,NA,NA,NA,NA,NA,1.03,0.63,0,NA,NA,NA,NA,NA,0.87,0.06,0,1,NA,NA,NA,NA,1,0,1,0,0,0,0,0,0,0,0,0,0,0,Good,1,
24552317,637,2,3,1,24552317,GilbertMRJClinOncol2014,4,>=18,0.6,1,NA,Both,North America,2009,2011,ConcAdj C(Bev+Tem)/RT vs ConcAdj C(Tem+Placebo)/RT,1,Conc TMZ Bev (B) Adj TMZ Bev (B); 60 in 30,ConcAdj TMZ Bev; 60-62,ConcAdj TMZ Bev; HD RT,TMZ Bev; HD RT,TMZ combined; HD RT,1,NA,NA,0.79,0.05,0.15,NA,NA,NA,15.7,NA,NA,NA,NA,10.7,NA,NA,NA,NA,Conc TMZ Adj Ext TMZ (A); 60 in 30,ConcAdj TMZ; 60-62,ConcAdj TMZ; HD RT,TMZ; HD RT,TMZ; HD RT,1,NA,NA,0.61,0.02,0.12,NA,NA,NA,16.1,NA,NA,NA,NA,7.3,NA,NA,NA,NA,NA,1.13,0.21,0,NA,NA,NA,NA,NA,0.79,0.007,1,1,NA,NA,NA,NA,1,0,0,1,0,0,0,0,0,0,0,0,0,0,Moderate,1,
24456504,65,2,2,1,24456504,HoflandKFActaOncol2014,4,>=18,0.62,0,NA,Both,Europe,2008,2010,IndConcAdj C(Bev+Tem)/RT vs IndConcAdj C(Bev+Iri)/RT,1,Ind TMZ Bev Conc TMZ Bev (A) Adj TMZ Bev (C); 60 in 30,IndConcAdj TMZ Bev; 60-62,IndConcAdj TMZ Bev; HD RT,TMZ Bev; HD RT,TMZ combined; HD RT,1,NA,NA,0.25,0,0.06,NA,0.03,0.68,11.8,NA,NA,NA,NA,7.7,0.06,NA,NA,NA,Ind Bev Iri 340-125 Conc Bev Iri 340-125 Adj Bev Iri 340-125; 60 in 30,IndConcAdj Bev Iri; 60-62,IndConcAdj Bev Iri; HD RT,Bev Iri; HD RT,Other; HD RT,1,NA,NA,0.1,0,0,NA,0,0.5,15.1,NA,NA,NA,NA,7.3,0.1,NA,NA,NA,0,NA,NA,NA,NA,NA,NA,NA,NA,NA,NA,NA,0,NA,NA,NA,NA,1,0,1,1,0,0,0,0,0,0,0,0,0,0,Moderate,1,
23060940,41,2,1;2,1,23060940,HongJExpTherMed2012,3;4,>=18,0.63,0,NA,Both,Asia,2008,2011,Conc C(Nimo+Tem) Adj C(Tem)/RT vs Conc C(Tem+Placebo) Adj C(Tem)/RT,1,Conc TMZ Nimo 200 Adj TMZ; 46-66 in 26-30,ConcAdj TMZ Nimo; <60,ConcAdj TMZ Nimo; HD RT,TMZ Nimo; HD RT,TMZ combined; HD RT,1,NA,NA,NA,NA,NA,NA,NA,0.7,16.5,0.81,NA,NA,NA,NA,NA,NA,NA,NA,Conc TMZ Adj TMZ; 44-66 in 26-30,ConcAdj TMZ; <60,ConcAdj TMZ; HD RT,TMZ; HD RT,TMZ; HD RT,1,NA,NA,NA,NA,NA,NA,NA,0.52,10.5,0.69,NA,NA,NA,NA,NA,NA,NA,NA,0,NA,NA,NA,0,NA,NA,NA,NA,NA,NA,NA,NA,NA,NA,NA,NA,1,1,1,0,0,0,0,0,1,0,0,0,0,0,Poor,1,
21052775,76,2,3,0,21052775,KimlHJNeurooncol2011,4,15-70,0.32,0,NA,Both,Asia,2005,2007,Ind C(ACNU+Cis) Adj C(Tem)/RT vs Adj C(Tem)/RT,1,Ind ACNU Cis Adj TMZ; 60-61.2 in 30-34,IndAdj TMZ ACNU Cis; 60-62,IndAdj TMZ ACNU Cis; HD RT,TMZ ACNU Cis; HD RT,TMZ combined; HD RT,1,NA,0,0.66,NA,NA,NA,0.03,NA,28.4,0.72,0.51,NA,NA,6.6,NA,NA,NA,NA,Adj TMZ; 60-61.2 in 30-34,Adj TMZ; 60-62,Adj TMZ; HD RT,TMZ; HD RT,TMZ; HD RT,1,NA,0.03,0.03,NA,NA,NA,0,NA,18.9,0.82,0.28,NA,NA,5.1,NA,NA,NA,NA,NA,NA,NA,NA,0,NA,NA,NA,NA,NA,NA,NA,0,NA,NA,NA,NA,1,0,1,0,1,0,0,0,0,0,0,0,0,0,Good,1,
19016015,62,2,3,1,19016015,KocherMStrahlentherapieundOnkol2008,4,18-70,0.66,0,NA,Both,Europe,2002,2004,RT vs Conc C(Tem)/RT,1,RT alone; 60 in 30,RT alone; 60-62,RT alone; HD RT,HD RT,HD RT,0,NA,0.03,0.06,0.03,NA,NA,0.03,NA,17.1,NA,NA,NA,NA,7.6,NA,NA,NA,NA,Conc TMZ; 60 in 30,Conc TMZ; 60-62,Conc TMZ; HD RT,TMZ; HD RT,TMZ; HD RT,1,NA,0.21,0.33,0.04,NA,NA,0.07,NA,14.6,NA,NA,NA,NA,6.3,NA,NA,NA,NA,NA,NA,NA,NA,0,NA,NA,NA,NA,NA,NA,NA,0,NA,NA,NA,NA,1,0,1,1,1,0,0,0,0,0,0,0,0,0,Moderate,1,
25910950,106,2,2,1,25910950,LeeEQClinCancerRes2015,4,>=18,0.58,0,NA,Both,North America,2009,2011,ConcAdj C(Tem)/RT vs Ind C(Van) ConcAdj C(Van+Tem)/RT,1,Conc TMZ Adj Ext TMZ (C); 60 in 30-33,ConcAdj TMZ; 60-62,ConcAdj TMZ; HD RT,TMZ; HD RT,TMZ; HD RT,1,NA,0,0.62,NA,0.03,0.07,0,0.18,15.9,0.56,NA,NA,NA,6.2,0.39,NA,NA,NA,Ind Van Conc TMZ Van Adj TMZ Van; 60 in 30-33,IndConcAdj TMZ Van; 60-62,IndConcAdj TMZ Van; HD RT,TMZ Van; HD RT,TMZ combined; HD RT,1,NA,0.04,0.77,NA,0.06,0.03,0.01,0.25,16.6,0.68,NA,NA,NA,7.7,0.25,NA,NA,NA,NA,NA,NA,NA,0,NA,NA,NA,NA,NA,NA,NA,0,NA,NA,NA,NA,1,0,1,1,1,0,0,0,0,0,0,0,0,0,Moderate,1,
26481741,99,2,2,1,26481741,MaoYChinMedJ(Engl)2015,4,18-70,0.67,0.9,0.39,Both,Asia,2008,2012,IndConcAdj C(Tem)/RT vs ConcAdj C(Tem)/RT,1,Ind TMZ 75 Conc TMZ Adj TMZ; 60 in 30,IndConcAdj TMZ; 60-62,IndConcAdj TMZ; HD RT,TMZ; HD RT,TMZ; HD RT,1,NA,NA,0.1,NA,NA,NA,NA,NA,17.6,0.83,0.24,NA,NA,8.74,0.49,0.21,NA,NA,Conc TMZ Adj TMZ; 60 in 30,ConcAdj TMZ; 60-62,ConcAdj TMZ; HD RT,TMZ; HD RT,TMZ; HD RT,1,NA,NA,0.17,NA,NA,NA,NA,NA,13.2,0.6,NA,NA,NA,10.4,0.46,NA,NA,NA,NA,NA,NA,NA,1,NA,NA,NA,NA,NA,NA,NA,0,NA,NA,NA,NA,1,0,1,0,0,0,0,0,0,0,0,0,0,0,Good,,
22517399,94,2,2,1,22517399,NaborsLBCancer2012,4,>=18,0.61,0.61,0.31,Both,North America/Europe,2005,2007,ConcAdj C(Cil+Tem)/RT vs ConcAdj C(CilLD+Tem)/RT,1,Conc TMZ Cil 2000 Adj TMZ Cil 2000; 60 in 30,ConcAdj TMZ Cil; 60-62,ConcAdj TMZ Cil; HD RT,TMZ Cil; HD RT,TMZ combined; HD RT,1,NA,0,0.22,0.02,0.02,NA,NA,NA,20.8,NA,0.44,NA,NA,9.3,NA,NA,NA,NA,Conc TMZ Cil 500 Adj TMZ Cil 500; 60 in 30,ConcAdj TMZ Cil; 60-62,ConcAdj TMZ Cil; HD RT,TMZ Cil; HD RT,TMZ combined; HD RT,1,NA,0.02,0.54,0.04,0.06,NA,NA,NA,17.4,NA,0.28,NA,NA,9.5,NA,NA,NA,NA,NA,0.8,NA,0,NA,NA,NA,NA,NA,1.07,NA,0,NA,NA,NA,NA,NA,1,0,1,0,0,0,0,0,0,0,0,0,0,0,Good,,
25762461_AC,265,3,2,1,25762461,NaborsLBNeuroOncol2015_AC,4,>=18,0.58,1,0,Neg,North America/Europe,2009,2013,ConcAdj C(Cil+Tem)/RT vs Conc C(CilHD+Tem) Adj C(Cil+Tem)/RT vs ConcAdj C(Tem)/RT,1,Conc TMZ Cil 2000 Adj TMZ Cil 2000; 60 in 30,ConcAdj TMZ Cil; 60-62,ConcAdj TMZ Cil; HD RT,TMZ Cil; HD RT,TMZ combined; HD RT,1,NA,0.29,0.22,0.02,0.08,0.07,0.09,NA,16.3,NA,NA,NA,NA,5.6,NA,NA,NA,NA,Conc TMZ Adj TMZ; 60 in 30,ConcAdj TMZ; 60-62,ConcAdj TMZ; HD RT,TMZ; HD RT,TMZ; HD RT,1,NA,0.24,0.23,0.01,0.08,0.02,0.06,NA,13.4,NA,NA,NA,NA,4.1,NA,NA,NA,NA,NA,0.69,0.0328,1,NA,NA,NA,NA,NA,0.82,NA,0,NA,NA,NA,NA,NA,1,0,1,0,0,0,0,0,0,0,0,0,0,0,Good,,
25762461_BC,265,3,2,1,25762461,NaborsLBNeuroOncol2015_BC,4,>=18,0.58,1,0,Neg,North America/Europe,2009,2013,ConcAdj C(Cil+Tem)/RT vs Conc C(CilHD+Tem) Adj C(Cil+Tem)/RT vs ConcAdj C(Tem)/RT,1,Conc TMZ Cil DD 2000 Adj TMZ Cil 2000; 60 in 30,ConcAdj TMZ Cil; 60-62,ConcAdj TMZ Cil; HD RT,TMZ Cil; HD RT,TMZ combined; HD RT,1,NA,0.33,0.16,0.02,0.07,0.03,0.1,NA,14.5,NA,NA,NA,NA,5.9,NA,NA,NA,NA,Conc TMZ Adj TMZ; 60 in 30,ConcAdj TMZ; 60-62,ConcAdj TMZ; HD RT,TMZ; HD RT,TMZ; HD RT,1,NA,0.24,0.23,0.01,0.08,0.02,0.06,NA,13.4,NA,NA,NA,NA,4.1,NA,NA,NA,NA,NA,0.86,0.3771,0,NA,NA,NA,NA,NA,0.79,NA,0,NA,NA,NA,NA,NA,1,0,1,0,0,0,0,0,0,0,0,0,0,0,Good,,
25762461_AB,265,3,2,1,25762461,NaborsLBNeuroOncol2015_AB,4,>=18,0.58,1,0,Neg,North America/Europe,2009,2013,ConcAdj C(Cil+Tem)/RT vs Conc C(CilHD+Tem) Adj C(Cil+Tem)/RT vs ConcAdj C(Tem)/RT,1,Conc TMZ Cil 2000 Adj TMZ Cil 2000; 60 in 30,ConcAdj TMZ Cil; 60-62,ConcAdj TMZ Cil; HD RT,TMZ Cil; HD RT,TMZ combined; HD RT,1,NA,0.29,0.22,0.02,0.08,0.07,0.09,NA,16.3,NA,NA,NA,NA,5.6,NA,NA,NA,NA,Conc TMZ Cil DD 2000 Adj TMZ Cil 2000; 60 in 30,ConcAdj TMZ Cil; 60-62,ConcAdj TMZ Cil; HD RT,TMZ Cil; HD RT,TMZ combined; HD RT,1,NA,0.33,0.16,0.02,0.07,0.03,0.1,NA,14.5,NA,NA,NA,NA,5.9,NA,NA,NA,NA,NA,NA,NA,NA,NA,NA,NA,NA,NA,NA,NA,NA,NA,NA,NA,NA,NA,1,0,1,0,0,0,0,0,0,0,0,0,0,0,Good,,
26670971,315,2,3,1,26670971,StuppRJAMA2015,4,>=18,0.66,0.61,0.39,Both,North America/Europe,2009,2014,ConcAdj C(Tem)/RT/TTF vs ConcAdj C(Tem)/RT,1,Conc TMZ Adj Ext TMZ (A) TTF; 60 in 30,ConcAdj TMZ TTF; 60-62,ConcAdj TMZ TTF; HD RT,TMZ TTF; HD RT,TMZ combined; HD RT,1,NA,0.22,0.12,0.01,0.04,0.05,NA,NA,19.6,NA,0.43,NA,NA,7.1,NA,NA,NA,NA,Conc TMZ Adj Ext TMZ (A); 60 in 30,ConcAdj TMZ; 60-62,ConcAdj TMZ; HD RT,TMZ; HD RT,TMZ; HD RT,1,NA,0.25,0.09,0.01,0.04,0.05,NA,NA,16.6,NA,0.29,NA,NA,4,NA,NA,NA,NA,NA,0.74,0.03,1,NA,NA,1,NA,NA,0.62,0.001,1,NA,NA,NA,NA,NA,1,0,1,0,1,0,0,0,0,0,0,0,0,0,Good,,
