ArmID,Number,NoOfArms,Phase,ConcRT,PMID,TrialID,GradeInfo,AgeInfo,% male,% MGMTKnown,% MGMTPos,MGMTSubgroup,RecruitmentArea,YearStarted,YearStopped,TrialDesign,RCT,ArmA_TotalShort_ORIG,OLD_A,ArmA_TotalShort_GroupA1,ArmA_TotalShort_GroupA2,ArmA_TotalShort_GroupB,ArmA_TotalShort_GroupC,ArmA_TotalShort,ArmA_OverallChemoRegime,RTRegime_A,Grd3Neutropenia_A,Grd3OesTox_A,Grd3PneumoTox_A,Gr3NauseaVom_A,Gr3Fatigue_A,Gr3Infection_A,ToxicDeathRate_A,ResponseRate_A,MedianOS_A,1yrOS_A,2yrOS_A,3yrOS_A,5YrOS_A,MedianPFS_A,1YrPFS_A,2YrPFS_A,3YrPFS_A,5YrPFS_A,ArmB_TotalShort_ORIG,OLD_B,ArmB_TotalShort_GroupA1,ArmB_TotalShort_GroupA2,ArmB_TotalShort_GroupB,ArmB_TotalShort_GroupC,ArmB_TotalShort,ArmB_OverallChemoRegime,RTRegime_B,Grd3Neutropenia_B,Grd3OesTox_B,Grd3PneumoTox_B,Gr3NauseaVom_B,Gr3Fatigue_B,Gr3Infection_B,ToxicDeathRate_B,ResponseRate_B,MedianOS_B,1yrOS_B,2yrOS_B,3yrOS_B,5YrOS_B,MedianPFS_B,1YrPFS_B,2YrPFS_B,3YrPFS_B,5YrPFS_B,RR_SS,HR_OS,HR_pvalue,HR_SS,MedOS_SS,OS_1_SS,OS_2_SS,OS_3_SS,OS_5_SS,HR_PFS,HRPFS_pvalue,HRPFS_SS,MedPFS_SS,1YrPFS_SS,2YrPFS_SS,3YrPFS_SS,5YrPFS_SS,Limitations*,PoorAllocation,NoBlinding,LossToFollow-up,StoppedEarly,Indirectness*,NonDirectArmComp,OtherPatientGrp,Imprecision*,PubBias*,Heterogeneity*,LargeEffect,NonConfounded,DRGradient,OverallGRADE,Xchecked,Notes
19269895,573,2,3,1,19269895,StuppRLancetOncol2009,4,18-70,0.62,0.36,0.45,Both,Europe/North America,2000,2002,ConcAdj C(Tem)/RTvs RT,1,NC_1RT_1C_2,Conc TMZ Adj TMZ; 60 in 30,ConcAdj TMZ; 60-62,ConcAdj TMZ; HD RT,TMZ; HD RT,TMZ; HD RT,1,C_1C_2,RT_1,0.007,NA,NA,NA,NA,NA,0,NA,14.6,NA,0.27,0.16,0.1,NA,NA,0.11,0.06,0.04,NNRT_1N,RT alone; 60 in 30,RT alone; 60-62,RT alone; HD RT,HD RT,HD RT,0,None,RT_1,0.003,NA,NA,NA,NA,NA,0,NA,12.1,NA,0.11,0.04,0.02,NA,NA,0.02,0.01,0.01,NA,0.63,<0.0001,1,1,NA,1,1,1,0.56,<0.0001,1,NA,NA,1,1,0,1,0,1,0,0,0,0,0,0,0,0,0,0,0,Good,1,
15758009,573,2,3,1,15758009,StuppRNEnglJMed2005,4,18-70,0.62,0,NA,Both,Europe/North America,2000,2002,ConcAdj C(Tem)/RTvs RT,1,NC_1RT_1C_2,Conc TMZ Adj TMZ; 60 in 30,ConcAdj TMZ; 60-62,ConcAdj TMZ; HD RT,TMZ; HD RT,TMZ; HD RT,1,C_1C_2,RT_1,NA,NA,0.21,NA,NA,0.08,0.01,NA,14.6,0.61,0.27,NA,NA,6.9,0.27,0.11,NA,NA,NNRT_1N,RT alone; 60 in 30,RT alone; 60-62,RT alone; HD RT,HD RT,HD RT,0,None,RT_1,NA,NA,0,NA,NA,0.02,NA,NA,12.1,0.51,0.1,NA,NA,5,0.09,0.02,NA,NA,NA,0.63,<0.0001,1,1,NA,1,NA,NA,0.54,<0.0001,1,1,1,1,NA,NA,1,0,1,0,0,0,0,0,0,0,0,0,0,0,Good,1,
15800329,110,2,2,1,15800329,AthanassiouHJClinOncol2005,4,>=18,0.64,0,NA,Both,Europe,2000,2002,ConcAdj C(Tem)/RT vs RT,1,NC_1RT_1C_7,Conc TMZ Adj TMZ DD 150 CRA 100; 60 in 30,ConcAdj TMZ DD CRA; 60-62,ConcAdj TMZ DD CRA; HD RT,TMZ CRA; HD RT,TMZ combined; HD RT,1,C_1C_7,RT_1,NA,NA,0.09,NA,NA,NA,0.02,NA,13.4,0.56,NA,NA,NA,10.8,0.37,NA,NA,NA,NNRT_1N,RT alone; 60 in 30,RT alone; 60-62,RT alone; HD RT,HD RT,HD RT,0,None,RT_1,NA,NA,NA,NA,NA,NA,NA,NA,7.7,0.16,NA,NA,NA,5.2,0.08,NA,NA,NA,NA,0.66,0.0003,1,1,1,NA,NA,NA,0.68,0.0008,1,1,1,NA,NA,NA,1,0,1,1,0,0,0,0,0,0,0,0,0,0,Moderate,1,
19016015,62,2,3,1,19016015,KocherMStrahlentherapieundOnkol2008,4,18-70,0.66,0,NA,Both,Europe,2002,2004,RT vs Conc C(Tem)/RT,1,NNRT_1N,RT alone; 60 in 30,RT alone; 60-62,RT alone; HD RT,HD RT,HD RT,0,None,RT_1,NA,0.03,0.06,0.03,NA,NA,0.03,NA,17.1,NA,NA,NA,NA,7.6,NA,NA,NA,NA,NC_1RT_1N,Conc TMZ; 60 in 30,Conc TMZ; 60-62,Conc TMZ; HD RT,TMZ; HD RT,TMZ; HD RT,1,C_1,RT_1,NA,0.21,0.33,0.04,NA,NA,0.07,NA,14.6,NA,NA,NA,NA,6.3,NA,NA,NA,NA,NA,NA,NA,NA,0,NA,NA,NA,NA,NA,NA,NA,0,NA,NA,NA,NA,1,0,1,1,1,0,0,0,0,0,0,0,0,0,Moderate,1,
23649997,58,2,NA,1,23649997,SzczepanekDNeurolNeurochirPol2013,4,17-70,0.59,0,NA,Both,Europe,2003,2005,IndConcAdj C(Tem)/RT vs RT,1,C_14C_1RT_1C_15,Ind TMZ 200 Conc TMZ Adj TMZ (C); 60 in 30,IndConcAdj TMZ; 60-62,IndConcAdj TMZ; HD RT,TMZ; HD RT,TMZ; HD RT,1,C_14C_1C_15,RT_1,NA,NA,0.1,NA,NA,0,NA,NA,16,0.65,0.23,NA,NA,7.5,NA,NA,NA,NA,NNRT_1N,RT alone; 60 in 30,RT alone; 60-62,RT alone; HD RT,HD RT,HD RT,0,None,RT_1,NA,NA,0,NA,NA,0,NA,NA,12.5,0.63,0.07,NA,NA,5,NA,NA,NA,NA,NA,NA,NA,NA,1,NA,NA,NA,NA,NA,NA,NA,NA,NA,NA,NA,NA,1,0,1,0,0,0,0,0,0,0,0,0,0,0,Good,,
