ArmID,Number,NoOfArms,Phase,ConcRT,PMID,TrialID,GradeInfo,AgeInfo,% male,% MGMTKnown,% MGMTPos,MGMTSubgroup,RecruitmentArea,YearStarted,YearStopped,TrialDesign,RCT,ArmA_TotalShort_ORIG,OLD_A,ArmA_TotalShort_GroupA1,ArmA_TotalShort_GroupA2,ArmA_TotalShort_GroupB,ArmA_TotalShort,ArmA_ChemoYN,ArmA_OverallChemoRegime,RTRegime_A,Grd3Neutropenia_A,Grd3OesTox_A,Grd3PneumoTox_A,Gr3NauseaVom_A,Gr3Fatigue_A,Gr3Infection_A,ToxicDeathRate_A,ResponseRate_A,MedianOS_A,1yrOS_A,2yrOS_A,3yrOS_A,5YrOS_A,MedianPFS_A,1YrPFS_A,2YrPFS_A,3YrPFS_A,5YrPFS_A,ArmB_TotalShort_ORIG,OLD_B,ArmB_TotalShort_GroupA1,ArmB_TotalShort_GroupA2,ArmB_TotalShort_GroupB,ArmB_TotalShort,ArmB_ChemoYN,ArmB_OverallChemoRegime,RTRegime_B,Grd3Neutropenia_B,Grd3OesTox_B,Grd3PneumoTox_B,Gr3NauseaVom_B,Gr3Fatigue_B,Gr3Infection_B,ToxicDeathRate_B,ResponseRate_B,MedianOS_B,1yrOS_B,2yrOS_B,3yrOS_B,5YrOS_B,MedianPFS_B,1YrPFS_B,2YrPFS_B,3YrPFS_B,5YrPFS_B,RR_SS,HR_OS,HR_pvalue,HR_SS,MedOS_SS,OS_1_SS,OS_2_SS,OS_3_SS,OS_5_SS,HR_PFS,HRPFS_pvalue,HRPFS_SS,MedPFS_SS,1YrPFS_SS,2YrPFS_SS,3YrPFS_SS,5YrPFS_SS,Limitations*,PoorAllocation,NoBlinding,LossToFollow-up,StoppedEarly,Indirectness*,NonDirectArmComp,OtherPatientGrp,Imprecision*,PubBias*,Heterogeneity*,LargeEffect,NonConfounded,DRGradient,OverallGRADE,Xchecked,Notes
19269895,573,2,3,1,19269895,StuppRLancetOncol2009,4,18-70,0.62,0.36,0.45,Both,Europe/North America,2000,2002,ConcAdj C(Tem)/RTvs RT,1,NC_1RT_1C_2,Conc TMZ Adj TMZ; 60 in 30,ConcAdj TMZ; 60-62,ConcAdj TMZ; HD RT,TMZ; HD RT,TMZ; HD RT,1,C_1C_2,RT_1,0.007,NA,NA,NA,NA,NA,0,NA,14.6,NA,0.27,0.16,0.1,NA,NA,0.11,0.06,0.04,NNRT_1N,RT alone; 60 in 30,RT alone; 60-62,RT alone; HD RT,HD RT,HD RT,0,None,RT_1,0.003,NA,NA,NA,NA,NA,0,NA,12.1,NA,0.11,0.04,0.02,NA,NA,0.02,0.01,0.01,NA,0.63,<0.0001,1,1,NA,1,1,1,0.56,<0.0001,1,NA,NA,1,1,0,1,0,1,0,0,0,0,0,0,0,0,0,0,0,Good,1,
25163906,545,2,3,1,25163906,StuppRLancetOncol2014,4,50-65,0.53,1,1,Pos,Europe/North America/Asia,2008,2011,ConcAdj C(Cil+Tem)/RT vs ConcAdj C(Tem)/RT,1,NCilTem_1RT_3CilTem_2,Conc TMZ Cil 2000 Adj TMZ Cil 2000; 60 in 30,ConcAdj TMZ Cil; 60-62,ConcAdj TMZ Cil; HD RT,TMZ Cil; HD RT,TMZ combined; HD RT,1,CilTem_1CilTem_2,RT_3,NA,0.21,0.43,0.02,0.08,0.04,0.04,NA,26.3,NA,0.56,NA,NA,10.6,NA,NA,NA,NA,NC_1RT_3C_2,Conc TMZ Adj TMZ; 60 in 30,ConcAdj TMZ; 60-62,ConcAdj TMZ; HD RT,TMZ; HD RT,TMZ; HD RT,1,C_1C_2,RT_3,NA,0.14,0.5,0.05,0.04,0.02,0.03,NA,26.3,NA,0.56,NA,NA,7.9,NA,NA,NA,NA,NA,1.02,0.86,0,0,NA,0,NA,NA,0.92,0.41,0,NA,NA,NA,NA,NA,1,0,1,0,0,0,0,0,0,0,0,0,0,0,Good,1,
25616647,142,2,3,1,25616647,WestphalMEurJCancer2015,4,18-70,0.61,0.68,0.32,Both,Europe,2007,2010,ConcAdj C(Nimo+Tem)/RT vs ConcAdj C(Tem)/RT,1,NNimoTem_1RT_1NimoTem_2,Conc TMZ Nimo 400 Adj TMZ Nimo 400; 60 in 30,ConcAdj TMZ Nimo; 60-62,ConcAdj TMZ Nimo; HD RT,TMZ Nimo; HD RT,TMZ combined; HD RT,1,NimoTem_1NimoTem_2,RT_1,NA,0,0.24,0,NA,0.01,NA,NA,22.3,0.77,NA,NA,NA,7.7,0.23,NA,NA,NA,NC_1RT_1C_2,Conc TMZ Adj TMZ; 60 in 30,ConcAdj TMZ; 60-62,ConcAdj TMZ; HD RT,TMZ; HD RT,TMZ; HD RT,1,C_1C_2,RT_1,NA,0.01,0.03,0.03,NA,0.03,NA,NA,19.6,0.72,NA,NA,NA,5.8,0.18,NA,NA,NA,NA,0.86,0.486,0,0,0,NA,NA,NA,0.95,0.7898,0,0,0,NA,NA,NA,1,0,1,1,0,0,0,0,0,0,0,0,0,0,Moderate,1,
15758009,573,2,3,1,15758009,StuppRNEnglJMed2005,4,18-70,0.62,0,NA,Both,Europe/North America,2000,2002,ConcAdj C(Tem)/RTvs RT,1,NC_1RT_1C_2,Conc TMZ Adj TMZ; 60 in 30,ConcAdj TMZ; 60-62,ConcAdj TMZ; HD RT,TMZ; HD RT,TMZ; HD RT,1,C_1C_2,RT_1,NA,NA,0.21,NA,NA,0.08,0.01,NA,14.6,0.61,0.27,NA,NA,6.9,0.27,0.11,NA,NA,NNRT_1N,RT alone; 60 in 30,RT alone; 60-62,RT alone; HD RT,HD RT,HD RT,0,None,RT_1,NA,NA,0,NA,NA,0.02,NA,NA,12.1,0.51,0.1,NA,NA,5,0.09,0.02,NA,NA,NA,0.63,<0.0001,1,1,NA,1,NA,NA,0.54,<0.0001,1,1,1,1,NA,NA,1,0,1,0,0,0,0,0,0,0,0,0,0,0,Good,1,
15800329,110,2,2,1,15800329,AthanassiouHJClinOncol2005,4,>=18,0.64,0,NA,Both,Europe,2000,2002,ConcAdj C(Tem)/RT vs RT,1,NC_1RT_1C_7,Conc TMZ Adj TMZ DD 150 CRA 100; 60 in 30,ConcAdj TMZ DD CRA; 60-62,ConcAdj TMZ DD CRA; HD RT,TMZ CRA; HD RT,TMZ combined; HD RT,1,C_1C_7,RT_1,NA,NA,0.09,NA,NA,NA,0.02,NA,13.4,0.56,NA,NA,NA,10.8,0.37,NA,NA,NA,NNRT_1N,RT alone; 60 in 30,RT alone; 60-62,RT alone; HD RT,HD RT,HD RT,0,None,RT_1,NA,NA,NA,NA,NA,NA,NA,NA,7.7,0.16,NA,NA,NA,5.2,0.08,NA,NA,NA,NA,0.66,0.0003,1,1,1,NA,NA,NA,0.68,0.0008,1,1,1,NA,NA,NA,1,0,1,1,0,0,0,0,0,0,0,0,0,0,Moderate,1,
24723487,120,2,2,1,24723487,ChauffertBAnnOncol2014,4,18-70 ,0.59,0,NA,Both,Europe,2009,2011,Ind C(Bev+Iri) Conc C (Bev+Tem) Adj C(Bev+Iri)/RT vs ConcAdj C(Tem)/RT,1,BevIri_1BevTem_1RT_1BevIri_2,Ind Bev Iri 125 Conc TMZ Bev (A) Adj Bev Iri 125; 60 in 30,IndConcAdj TMZ Bev Iri; 60-62,IndConcAdj TMZ Bev Iri; HD RT,TMZ Bev Iri; HD RT,TMZ combined; HD RT,1,BevIri_1BevTem_1BevIri_2,RT_1,NA,0.05,0.42,NA,NA,0.09,0.07,NA,11.1,NA,NA,NA,NA,7.1,NA,NA,NA,NA,NC_1RT_1C_2,Conc TMZ Adj TMZ; 60 in 30,ConcAdj TMZ; 60-62,ConcAdj TMZ; HD RT,TMZ; HD RT,TMZ; HD RT,1,C_1C_2,RT_1,NA,0.02,0.36,NA,NA,0.04,0.04,NA,11.1,NA,NA,NA,NA,5.2,NA,NA,NA,NA,NA,1,NA,0,0,NA,NA,NA,NA,0.82,NA,0,NA,NA,NA,NA,NA,1,0,1,0,0,0,0,0,0,0,0,0,0,0,Good,1,
24552318,921,2,3,1,24552318,ChinotOLNEnglJMed2014,4,>=18,0.63,0.76,0.34,Both,Europe/North America,2009,2011,ConcAdj C(Bev+Tem)/RT vs ConcAdj C(Tem+Placebo)/RT,1,NBevTem_1RT_1BevTem_2,Conc TMZ Bev (A) Adj TMZ Bev (A); 60 in 30,ConcAdj TMZ Bev; 60-62,ConcAdj TMZ Bev; HD RT,TMZ Bev; HD RT,TMZ combined; HD RT,1,BevTem_1BevTem_2,RT_1,NA,0.02,0.15,NA,0.07,NA,0.04,NA,16.8,0.72,0.34,NA,NA,10.6,NA,NA,NA,NA,NC_1RT_1C_2,Conc TMZ Adj TMZ; 60 in 30,ConcAdj TMZ; 60-62,ConcAdj TMZ; HD RT,TMZ; HD RT,TMZ; HD RT,1,C_1C_2,RT_1,NA,0.01,0.1,NA,0.05,NA,0.03,NA,16.7,0.66,0.3,NA,NA,6.2,NA,NA,NA,NA,NA,0.88,0.1,0,NA,1,0,NA,NA,0.64,<0.001,1,NA,NA,NA,NA,NA,0,0,0,0,0,0,0,0,0,0,0,0,0,0,Good,1,
22120301,34,2,2,1,22120301,ChoDYWorldNeurosurg2012,4,14-70,0.47,1,0.56,Both,Asia,2007,2012,ConcAdj C(Tem)/RT/DCV vs ConcAdj C(Tem)/RT,1,NC_5RT_1C_6DCV_1,Conc TMZ 100 Adj Ext TMZ (B) DCV; 60 in 30,ConcAdj TMZ DCV; 60-62,ConcAdj TMZ DCV; HD RT,TMZ DCV; HD RT,TMZ combined; HD RT,1,C_5C_6,RT_1,NA,NA,NA,NA,NA,NA,NA,NA,31.9,0.89,0.44,0.17,NA,8.5,NA,NA,NA,NA,NC_5RT_1C_6,Conc TMZ 100 Adj Ext TMZ (B); 60 in 30,ConcAdj TMZ; 60-62,ConcAdj TMZ; HD RT,TMZ; HD RT,TMZ; HD RT,1,C_5C_6,RT_1,NA,NA,NA,NA,NA,NA,NA,NA,15,0.75,0.19,0,NA,8,NA,NA,NA,NA,NA,NA,NA,NA,1,0,1,1,NA,NA,NA,NA,0,NA,NA,NA,NA,1,0,1,0,0,0,0,0,0,0,0,1,0,0,Good,1,
26658237,63,2,2,1,26658237,ElinzanoHAmJClinOncol2015,4,21-82,0.62,1,0,Neg,North America,2011,2014,Conc C(Pac) Adj C(Tem)/RT vs ConcAdj C(Tem)/RT,1,NPac_1RT_1C_2,Conc Pac Adj TMZ; 60 in 30,ConcAdj TMZ Pac; 60-62,ConcAdj TMZ Pac; HD RT,TMZ Pac; HD RT,TMZ combined; HD RT,1,Pac_1C_2,RT_1,NA,0.34,0.17,0,0,0.07,0,NA,16,NA,NA,NA,NA,9,NA,NA,NA,NA,NC_1RT_1C_2,Conc TMZ Adj TMZ; 60 in 30,ConcAdj TMZ; 60-62,ConcAdj TMZ; HD RT,TMZ; HD RT,TMZ; HD RT,1,C_1C_2,RT_1,NA,0.06,0.11,0,0.11,0,0,NA,14.8,NA,NA,NA,NA,9.5,NA,NA,NA,NA,NA,1.44,0.27,0,NA,NA,NA,NA,NA,1.1,0.75,0,NA,NA,NA,NA,NA,1,0,1,1,0,0,0,0,0,0,0,0,0,0,Moderate,1,
24552317,637,2,3,1,24552317,GilbertMRJClinOncol2014,4,>=18,0.6,1,NA,Both,North America,2009,2011,ConcAdj C(Bev+Tem)/RT vs ConcAdj C(Tem+Placebo)/RT,1,NBevTem_3RT_1BevTem_4,Conc TMZ Bev (B) Adj TMZ Bev (B); 60 in 30,ConcAdj TMZ Bev; 60-62,ConcAdj TMZ Bev; HD RT,TMZ Bev; HD RT,TMZ combined; HD RT,1,BevTem_3BevTem_4,RT_1,NA,NA,0.79,0.05,0.15,NA,NA,NA,15.7,NA,NA,NA,NA,10.7,NA,NA,NA,NA,NC_1RT_1C_4,Conc TMZ Adj Ext TMZ (A); 60 in 30,ConcAdj TMZ; 60-62,ConcAdj TMZ; HD RT,TMZ; HD RT,TMZ; HD RT,1,C_1C_4,RT_1,NA,NA,0.61,0.02,0.12,NA,NA,NA,16.1,NA,NA,NA,NA,7.3,NA,NA,NA,NA,NA,1.13,0.21,0,NA,NA,NA,NA,NA,0.79,0.007,1,1,NA,NA,NA,NA,1,0,0,1,0,0,0,0,0,0,0,0,0,0,Moderate,1,
24456504,65,2,2,1,24456504,HoflandKFActaOncol2014,4,>=18,0.62,0,NA,Both,Europe,2008,2010,IndConcAdj C(Bev+Tem)/RT vs IndConcAdj C(Bev+Iri)/RT,1,BevTem_5BevTem_1RT_1BevTem_6,Ind TMZ Bev Conc TMZ Bev (A) Adj TMZ Bev (C); 60 in 30,IndConcAdj TMZ Bev; 60-62,IndConcAdj TMZ Bev; HD RT,TMZ Bev; HD RT,TMZ combined; HD RT,1,BevTem_5BevTem_1BevTem_6,RT_1,NA,NA,0.25,0,0.06,NA,0.03,0.68,11.8,NA,NA,NA,NA,7.7,0.06,NA,NA,NA,BevIri_3BevIri_4RT_1BevIri_5,Ind Bev Iri 340-125 Conc Bev Iri 340-125 Adj Bev Iri 340-125; 60 in 30,IndConcAdj Bev Iri; 60-62,IndConcAdj Bev Iri; HD RT,Bev Iri; HD RT,Other; HD RT,1,BevIri_3BevIri_4BevIri_5,RT_1,NA,NA,0.1,0,0,NA,0,0.5,15.1,NA,NA,NA,NA,7.3,0.1,NA,NA,NA,0,NA,NA,NA,NA,NA,NA,NA,NA,NA,NA,NA,0,NA,NA,NA,NA,1,0,1,1,0,0,0,0,0,0,0,0,0,0,Moderate,1,
23060940,41,2,1;2,1,23060940,HongJExpTherMed2012,3;4,>=18,0.63,0,NA,Both,Asia,2008,2011,Conc C(Nimo+Tem) Adj C(Tem)/RT vs Conc C(Tem+Placebo) Adj C(Tem)/RT,1,NNimoTem_3RT_6C_2,Conc TMZ Nimo 200 Adj TMZ; 46-66 in 26-30,ConcAdj TMZ Nimo; <60,ConcAdj TMZ Nimo; HD RT,TMZ Nimo; HD RT,TMZ combined; HD RT,1,NimoTem_3C_2,RT_6,NA,NA,NA,NA,NA,NA,NA,0.7,16.5,0.81,NA,NA,NA,NA,NA,NA,NA,NA,NC_1RT_6C_2,Conc TMZ Adj TMZ; 44-66 in 26-30,ConcAdj TMZ; <60,ConcAdj TMZ; HD RT,TMZ; HD RT,TMZ; HD RT,1,C_1C_2,RT_6,NA,NA,NA,NA,NA,NA,NA,0.52,10.5,0.69,NA,NA,NA,NA,NA,NA,NA,NA,0,NA,NA,NA,0,NA,NA,NA,NA,NA,NA,NA,NA,NA,NA,NA,NA,1,1,1,0,0,0,0,0,1,0,0,0,0,0,Poor,1,
21052775,76,2,3,0,21052775,KimlHJNeurooncol2011,4,15-70,0.32,0,NA,Both,Asia,2005,2007,Ind C(ACNU+Cis) Adj C(Tem)/RT vs Adj C(Tem)/RT,1,ACNU_2NRT_7C_2,Ind ACNU Cis Adj TMZ; 60-61.2 in 30-34,IndAdj TMZ ACNU Cis; 60-62,IndAdj TMZ ACNU Cis; HD RT,TMZ ACNU Cis; HD RT,TMZ combined; HD RT,1,ACNU_2C_2,RT_7,NA,0,0.66,NA,NA,NA,0.03,NA,28.4,0.72,0.51,NA,NA,6.6,NA,NA,NA,NA,NNRT_7C_2,Adj TMZ; 60-61.2 in 30-34,Adj TMZ; 60-62,Adj TMZ; HD RT,TMZ; HD RT,TMZ; HD RT,1,C_2,RT_7,NA,0.03,0.03,NA,NA,NA,0,NA,18.9,0.82,0.28,NA,NA,5.1,NA,NA,NA,NA,NA,NA,NA,NA,0,NA,NA,NA,NA,NA,NA,NA,0,NA,NA,NA,NA,1,0,1,0,1,0,0,0,0,0,0,0,0,0,Good,1,
19016015,62,2,3,1,19016015,KocherMStrahlentherapieundOnkol2008,4,18-70,0.66,0,NA,Both,Europe,2002,2004,RT vs Conc C(Tem)/RT,1,NNRT_1N,RT alone; 60 in 30,RT alone; 60-62,RT alone; HD RT,HD RT,HD RT,0,None,RT_1,NA,0.03,0.06,0.03,NA,NA,0.03,NA,17.1,NA,NA,NA,NA,7.6,NA,NA,NA,NA,NC_1RT_1N,Conc TMZ; 60 in 30,Conc TMZ; 60-62,Conc TMZ; HD RT,TMZ; HD RT,TMZ; HD RT,1,C_1,RT_1,NA,0.21,0.33,0.04,NA,NA,0.07,NA,14.6,NA,NA,NA,NA,6.3,NA,NA,NA,NA,NA,NA,NA,NA,0,NA,NA,NA,NA,NA,NA,NA,0,NA,NA,NA,NA,1,0,1,1,1,0,0,0,0,0,0,0,0,0,Moderate,1,
25910950,106,2,2,1,25910950,LeeEQClinCancerRes2015,4,>=18,0.58,0,NA,Both,North America,2009,2011,ConcAdj C(Tem)/RT vs Ind C(Van) ConcAdj C(Van+Tem)/RT,1,NC_1RT_8C_11,Conc TMZ Adj Ext TMZ (C); 60 in 30-33,ConcAdj TMZ; 60-62,ConcAdj TMZ; HD RT,TMZ; HD RT,TMZ; HD RT,1,C_1C_11,RT_8,NA,0,0.62,NA,0.03,0.07,0,0.18,15.9,0.56,NA,NA,NA,6.2,0.39,NA,NA,NA,Van_1VanTem_1RT_8VanTem_2,Ind Van Conc TMZ Van Adj TMZ Van; 60 in 30-33,IndConcAdj TMZ Van; 60-62,IndConcAdj TMZ Van; HD RT,TMZ Van; HD RT,TMZ combined; HD RT,1,Van_1VanTem_1VanTem_2,RT_8,NA,0.04,0.77,NA,0.06,0.03,0.01,0.25,16.6,0.68,NA,NA,NA,7.7,0.25,NA,NA,NA,NA,NA,NA,NA,0,NA,NA,NA,NA,NA,NA,NA,0,NA,NA,NA,NA,1,0,1,1,1,0,0,0,0,0,0,0,0,0,Moderate,1,
25762461_AC,265,3,2,1,25762461,NaborsLBNeuroOncol2015_AC,4,>=18,0.58,1,0,Neg,North America/Europe,2009,2013,ConcAdj C(Cil+Tem)/RT vs Conc C(CilHD+Tem) Adj C(Cil+Tem)/RT vs ConcAdj C(Tem)/RT,1,NCilTem_1RT_1CilTem_3,Conc TMZ Cil 2000 Adj TMZ Cil 2000; 60 in 30,ConcAdj TMZ Cil; 60-62,ConcAdj TMZ Cil; HD RT,TMZ Cil; HD RT,TMZ combined; HD RT,1,CilTem_1CilTem_3,RT_1,NA,0.29,0.22,0.02,0.08,0.07,0.09,NA,16.3,NA,NA,NA,NA,5.6,NA,NA,NA,NA,NC_1RT_1C_2,Conc TMZ Adj TMZ; 60 in 30,ConcAdj TMZ; 60-62,ConcAdj TMZ; HD RT,TMZ; HD RT,TMZ; HD RT,1,C_1C_2,RT_1,NA,0.24,0.23,0.01,0.08,0.02,0.06,NA,13.4,NA,NA,NA,NA,4.1,NA,NA,NA,NA,NA,0.69,0.0328,1,NA,NA,NA,NA,NA,0.82,NA,0,NA,NA,NA,NA,NA,1,0,1,0,0,0,0,0,0,0,0,0,0,0,Good,,
25762461_BC,265,3,2,1,25762461,NaborsLBNeuroOncol2015_BC,4,>=18,0.58,1,0,Neg,North America/Europe,2009,2013,ConcAdj C(Cil+Tem)/RT vs Conc C(CilHD+Tem) Adj C(Cil+Tem)/RT vs ConcAdj C(Tem)/RT,1,NCilTem_6RT_1CilTem_3,Conc TMZ Cil DD 2000 Adj TMZ Cil 2000; 60 in 30,ConcAdj TMZ Cil; 60-62,ConcAdj TMZ Cil; HD RT,TMZ Cil; HD RT,TMZ combined; HD RT,1,CilTem_6CilTem_3,RT_1,NA,0.33,0.16,0.02,0.07,0.03,0.1,NA,14.5,NA,NA,NA,NA,5.9,NA,NA,NA,NA,NC_1RT_1C_2,Conc TMZ Adj TMZ; 60 in 30,ConcAdj TMZ; 60-62,ConcAdj TMZ; HD RT,TMZ; HD RT,TMZ; HD RT,1,C_1C_2,RT_1,NA,0.24,0.23,0.01,0.08,0.02,0.06,NA,13.4,NA,NA,NA,NA,4.1,NA,NA,NA,NA,NA,0.86,0.3771,0,NA,NA,NA,NA,NA,0.79,NA,0,NA,NA,NA,NA,NA,1,0,1,0,0,0,0,0,0,0,0,0,0,0,Good,,
26670971,315,2,3,1,26670971,StuppRJAMA2015,4,>=18,0.66,0.61,0.39,Both,North America/Europe,2009,2014,ConcAdj C(Tem)/RT/TTF vs ConcAdj C(Tem)/RT,1,NC_1RT_1C_4TTF_1,Conc TMZ Adj Ext TMZ (A) TTF; 60 in 30,ConcAdj TMZ TTF; 60-62,ConcAdj TMZ TTF; HD RT,TMZ TTF; HD RT,TMZ combined; HD RT,1,C_1C_4,RT_1,NA,0.22,0.12,0.01,0.04,0.05,NA,NA,19.6,NA,0.43,NA,NA,7.1,NA,NA,NA,NA,NC_1RT_1C_4,Conc TMZ Adj Ext TMZ (A); 60 in 30,ConcAdj TMZ; 60-62,ConcAdj TMZ; HD RT,TMZ; HD RT,TMZ; HD RT,1,C_1C_4,RT_1,NA,0.25,0.09,0.01,0.04,0.05,NA,NA,16.6,NA,0.29,NA,NA,4,NA,NA,NA,NA,NA,0.74,0.03,1,NA,NA,1,NA,NA,0.62,0.001,1,NA,NA,NA,NA,NA,1,0,1,0,1,0,0,0,0,0,0,0,0,0,Good,,
23649997,58,2,NA,1,23649997,SzczepanekDNeurolNeurochirPol2013,4,17-70,0.59,0,NA,Both,Europe,2003,2005,IndConcAdj C(Tem)/RT vs RT,1,C_14C_1RT_1C_15,Ind TMZ 200 Conc TMZ Adj TMZ (C); 60 in 30,IndConcAdj TMZ; 60-62,IndConcAdj TMZ; HD RT,TMZ; HD RT,TMZ; HD RT,1,C_14C_1C_15,RT_1,NA,NA,0.1,NA,NA,0,NA,NA,16,0.65,0.23,NA,NA,7.5,NA,NA,NA,NA,NNRT_1N,RT alone; 60 in 30,RT alone; 60-62,RT alone; HD RT,HD RT,HD RT,0,None,RT_1,NA,NA,0,NA,NA,0,NA,NA,12.5,0.63,0.07,NA,NA,5,NA,NA,NA,NA,NA,NA,NA,NA,1,NA,NA,NA,NA,NA,NA,NA,NA,NA,NA,NA,NA,1,0,1,0,0,0,0,0,0,0,0,0,0,0,Good,,
25773819,60,2,NA,1,25773819,ZhouSBAsianPacJCancerPrev2015,3;4,14-75,0.57,0,NA,Both,Asia,2006,2011,Conc C(Tamox)/RT vs Conc C(Tem)/RT,1,NTamox_1RT_10N,Conc Tamox; 56-60 in 28-30,Conc Tamox; <60,Conc Tamox; HD RT,Tamox; HD RT,Other; HD RT,1,Tamox_1,RT_10,NA,NA,NA,NA,NA,NA,NA,0.63,16.1,0.63,0.3,0.23,NA,NA,NA,NA,NA,NA,NC_1RT_10N,Conc TMZ; 56-60 in 28-30,Conc TMZ; <60,Conc TMZ; HD RT,TMZ; HD RT,TMZ; HD RT,1,C_1,RT_10,NA,NA,NA,NA,NA,NA,NA,0.73,18.2,0.7,0.33,0.27,NA,NA,NA,NA,NA,NA,0,NA,NA,NA,NA,0,0,0,NA,NA,NA,NA,NA,NA,NA,NA,NA,1,0,1,0,0,0,0,0,1,0,0,0,0,0,Moderate,,
24248532,68,2,NA,1,24248532,WangXAnnSurgOncol2014,4,>=18,0.56,1,0.37,Both,Asia,2004,2006,Adj C(Tem)/RT vs Adj C(mCCNU)/RT,1,NNRT_11C_2,Adj TMZ; 45-60 in 23-33,Adj TMZ; <60,Adj TMZ; HD RT,TMZ; HD RT,TMZ; HD RT,1,C_2,RT_11,NA,NA,NA,NA,NA,NA,NA,0.49,NA,NA,0.34,0.23,0.09,NA,0.4,0.11,0.09,NA,NNRT_11mCCNU_1,Adj mCCNU; 45-60 in 23-33,Adj mCCNU; <60,Adj mCCNU; HD RT,mCCNU; HD RT,Other; HD RT,1,mCCNU_1,RT_11,NA,NA,NA,NA,NA,NA,NA,0.21,NA,NA,0.18,0.12,0,NA,0.21,0.06,0.03,0,1,NA,NA,NA,NA,NA,1,1,1,NA,NA,NA,NA,1,1,1,NA,1,1,1,0,0,0,0,0,0,0,0,0,0,0,Moderate,,
23404447,42,2,1;2,1,23404447,StragliottoGIntJCancer2013,4,>=18,0.69,0.88,0.22,Both,Europe,2006,2008,Conc C(Tem)/RT/Val vs Conc C(Tem)/RT,1,NC_1RT_1NVal_1,Conc TMZ Adj Val; 60 in 30,ConcAdj TMZ Val; 60-62,ConcAdj TMZ Val; HD RT,TMZ Val; HD RT,TMZ combined; HD RT,1,C_1,RT_1,NA,NA,NA,NA,NA,NA,NA,NA,NA,NA,NA,NA,NA,5.6,NA,NA,NA,NA,NC_1RT_1N,Conc TMZ; 60 in 30,ConcAdj TMZ DD; 60-62,ConcAdj TMZ DD; HD RT,TMZ; HD RT,TMZ; HD RT,1,C_1,RT_1,NA,NA,NA,NA,NA,NA,NA,NA,NA,NA,NA,NA,NA,5.5,NA,NA,NA,NA,NA,NA,NA,NA,NA,NA,NA,NA,NA,1.4,0.3099,0,0,NA,NA,NA,NA,1,1,0,0,0,0,0,0,0,0,0,0,0,0,Moderate,,
25239666_AH,155,8,2,1,25239666,Penas-PradoMNeuroOncol2015_AH,4,>=18,0.79,0,NA,Both,North America,2005,2010,8 arm comparison,1,NC_1RT_1TemRA_1,Conc TMZ Adj TMZ DD 150 CRA 40; 60 in 30,ConcAdj TMZ DD CRA; 60-62,ConcAdj TMZ DD CRA; HD RT,TMZ CRA; HD RT,TMZ combined; HD RT,1,C_1TemRA_1,RT_1,NA,0,1.95,NA,0.05,0,NA,NA,11.7,NA,NA,NA,NA,6.5,NA,NA,NA,NA,NC_1RT_1C_16,Conc TMZ Adj TMZ DD 150; 60 in 30,ConcAdj TMZ DD; 60-62,ConcAdj TMZ DD; HD RT,TMZ; HD RT,TMZ; HD RT,1,C_1C_16,RT_1,NA,0,3.45,NA,0.05,0,NA,NA,21.2,NA,NA,NA,NA,10.5,NA,NA,NA,NA,NA,2.2,0.037,1,NA,NA,NA,NA,NA,2,0.043,1,NA,NA,NA,NA,NA,1,0,1,0,0,0,0,0,1,0,0,0,0,0,Moderate,1,
25239666_BH,155,8,2,1,25239666,Penas-PradoMNeuroOncol2015_BH,4,>=18,0.79,0,NA,Both,North America,2005,2010,8 arm comparison,1,NC_1RT_1TemCel_1,Conc TMZ Adj TMZ DD 150 Cel; 60 in 30,ConcAdj TMZ DD Cel; 60-62,ConcAdj TMZ DD Cel; HD RT,TMZ Cel; HD RT,TMZ combined; HD RT,1,C_1TemCel_1,RT_1,NA,0,2.81,NA,0,0,NA,NA,18.1,NA,NA,NA,NA,13.4,NA,NA,NA,NA,NC_1RT_1C_16,Conc TMZ Adj TMZ DD 150; 60 in 30,ConcAdj TMZ DD; 60-62,ConcAdj TMZ DD; HD RT,TMZ; HD RT,TMZ; HD RT,1,C_1C_16,RT_1,NA,0,3.45,NA,0.05,0,NA,NA,21.2,NA,NA,NA,NA,10.5,NA,NA,NA,NA,NA,1.2,0.72,0,NA,NA,NA,NA,NA,1,0.97,0,NA,NA,NA,NA,NA,1,0,1,0,0,0,0,0,1,0,0,0,0,0,Moderate,1,
25239666_CH,155,8,2,1,25239666,Penas-PradoMNeuroOncol2015_CH,4,>=18,0.79,0,NA,Both,North America,2005,2010,8 arm comparison,1,NC_1RT_1TemThal_1,Conc TMZ Adj TMZ DD 150 Thal; 60 in 30,ConcAdj TMZ DD Thal; 60-62,ConcAdj TMZ DD Thal; HD RT,TMZ Thal; HD RT,TMZ combined; HD RT,1,C_1TemThal_1,RT_1,NA,0.06,2.56,NA,0,0,NA,NA,17.4,NA,NA,NA,NA,7.7,NA,NA,NA,NA,NC_1RT_1C_16,Conc TMZ Adj TMZ DD 150; 60 in 30,ConcAdj TMZ DD; 60-62,ConcAdj TMZ DD; HD RT,TMZ; HD RT,TMZ; HD RT,1,C_1C_16,RT_1,NA,0,3.45,NA,0.05,0,NA,NA,21.2,NA,NA,NA,NA,10.5,NA,NA,NA,NA,NA,1.7,0.16,0,NA,NA,NA,NA,NA,1.6,0.21,0,NA,NA,NA,NA,NA,1,0,1,0,0,0,0,0,1,0,0,0,0,0,Moderate,1,
25239666_DH,155,8,2,1,25239666,Penas-PradoMNeuroOncol2015_DH,4,>=18,0.79,0,NA,Both,North America,2005,2010,8 arm comparison,1,NC_1RT_1TemRACel_1,Conc TMZ Adj TMZ DD 150 CRA Cel; 60 in 30,ConcAdj TMZ DD CRA Cel; 60-62,ConcAdj TMZ DD CRA Cel; HD RT,TMZ CRA Cel; HD RT,TMZ combined; HD RT,1,C_1TemRACel_1,RT_1,NA,0,1.95,NA,0,0,0.05,NA,23.1,NA,NA,NA,NA,11.6,NA,NA,NA,NA,NC_1RT_1C_16,Conc TMZ Adj TMZ DD 150; 60 in 30,ConcAdj TMZ DD; 60-62,ConcAdj TMZ DD; HD RT,TMZ; HD RT,TMZ; HD RT,1,C_1C_16,RT_1,NA,0,3.45,NA,0.05,0,NA,NA,21.2,NA,NA,NA,NA,10.5,NA,NA,NA,NA,NA,1.1,0.62,0,NA,NA,NA,NA,NA,1.1,0.8,0,NA,NA,NA,NA,NA,1,0,1,0,0,0,0,0,1,0,0,0,0,0,Moderate,1,
25239666_EH,155,8,2,1,25239666,Penas-PradoMNeuroOncol2015_EH,4,>=18,0.79,0,NA,Both,North America,2005,2010,8 arm comparison,1,NC_1RT_1TemRAThal_1,Conc TMZ Adj TMZ DD 150 CRA Thal; 60 in 30,ConcAdj TMZ DD CRA Thal; 60-62,ConcAdj TMZ DD CRA Thal; HD RT,TMZ CRA Thal; HD RT,TMZ combined; HD RT,1,C_1TemRAThal_1,RT_1,NA,0,1.82,NA,0.06,0.06,NA,NA,17.9,NA,NA,NA,NA,6.2,NA,NA,NA,NA,NC_1RT_1C_16,Conc TMZ Adj TMZ DD 150; 60 in 30,ConcAdj TMZ DD; 60-62,ConcAdj TMZ DD; HD RT,TMZ; HD RT,TMZ; HD RT,1,C_1C_16,RT_1,NA,0,3.45,NA,0.05,0,NA,NA,21.2,NA,NA,NA,NA,10.5,NA,NA,NA,NA,NA,1.3,0.5,0,NA,NA,NA,NA,NA,1.4,0.39,0,NA,NA,NA,NA,NA,1,0,1,0,0,0,0,0,1,0,0,0,0,0,Moderate,1,
25239666_FH,155,8,2,1,25239666,Penas-PradoMNeuroOncol2015_FH,4,>=18,0.79,0,NA,Both,North America,2005,2010,8 arm comparison,1,NC_1RT_1TemCelThal_1,Conc TMZ Adj TMZ DD 150 Cel Thal; 60 in 30,ConcAdj TMZ DD Cel Thal; 60-62,ConcAdj TMZ DD Cel Thal; HD RT,TMZ Cel Thal; HD RT,TMZ combined; HD RT,1,C_1TemCelThal_1,RT_1,NA,0,3.3,NA,0,0,NA,NA,20.2,NA,NA,NA,NA,7.9,NA,NA,NA,NA,NC_1RT_1C_16,Conc TMZ Adj TMZ DD 150; 60 in 30,ConcAdj TMZ DD; 60-62,ConcAdj TMZ DD; HD RT,TMZ; HD RT,TMZ; HD RT,1,C_1C_16,RT_1,NA,0,3.45,NA,0.05,0,NA,NA,21.2,NA,NA,NA,NA,10.5,NA,NA,NA,NA,NA,1.1,0.87,0,NA,NA,NA,NA,NA,1.2,0.54,0,NA,NA,NA,NA,NA,1,0,1,0,0,0,0,0,1,0,0,0,0,0,Moderate,1,
25239666_GH,155,8,2,1,25239666,Penas-PradoMNeuroOncol2015_GH,4,>=18,0.79,0,NA,Both,North America,2005,2010,8 arm comparison,1,NC_1RT_1TemRACelThal_1,Conc TMZ Adj TMZ DD 150 CRA Cel Thal; 60 in 30,ConcAdj TMZ DD CRA Cel Thal; 60-62,ConcAdj TMZ DD CRA Cel Thal; HD RT,TMZ CRA Cel Thal; HD RT,TMZ combined; HD RT,1,C_1TemRACelThal_1,RT_1,NA,0,1.6,NA,0.07,0,NA,NA,18.5,NA,NA,NA,NA,5.8,NA,NA,NA,NA,NC_1RT_1C_16,Conc TMZ Adj TMZ DD 150; 60 in 30,ConcAdj TMZ DD; 60-62,ConcAdj TMZ DD; HD RT,TMZ; HD RT,TMZ; HD RT,1,C_1C_16,RT_1,NA,0,3.45,NA,0.05,0,NA,NA,21.2,NA,NA,NA,NA,10.5,NA,NA,NA,NA,NA,1.4,0.42,0,NA,NA,NA,NA,NA,1.7,0.16,0,NA,NA,NA,NA,NA,1,0,1,0,0,0,0,0,1,0,0,0,0,0,Moderate,1,
