<?xml version="1.0" encoding="UTF-8" standalone="no"?>
<!DOCTYPE svg PUBLIC "-//W3C//DTD SVG 1.1//EN"
 "http://www.w3.org/Graphics/SVG/1.1/DTD/svg11.dtd">
<!-- Generated by graphviz version 2.36.0 (20140111.2315)
 -->
<!-- Title: superioritygraph Pages: 1 -->
<svg width="1934pt" height="1586pt"
 viewBox="0.00 0.00 1933.90 1585.68" xmlns="http://www.w3.org/2000/svg" xmlns:xlink="http://www.w3.org/1999/xlink">
<g id="graph0" class="graph" transform="scale(1 1) rotate(0) translate(4 1581.68)">
<title>superioritygraph</title>
<polygon fill="white" stroke="none" points="-4,4 -4,-1581.68 1929.9,-1581.68 1929.9,4 -4,4"/>
<!-- 60 in 30; Cons cis&#45;vin (E) -->
<g id="node1" class="node"><title>60 in 30; Cons cis&#45;vin (E)</title>
<ellipse fill="none" stroke="black" cx="283.408" cy="-1140" rx="103.982" ry="18"/>
<text text-anchor="middle" x="283.408" y="-1136.3" font-family="Times New Roman,serif" font-size="14.00">60 in 30; Cons cis&#45;vin (E)</text>
</g>
<!-- Conc cis&#45;vin (D); 60 in 30 -->
<g id="node2" class="node"><title>Conc cis&#45;vin (D); 60 in 30</title>
<ellipse fill="none" stroke="black" cx="327.809" cy="-1196.68" rx="105.082" ry="18"/>
<text text-anchor="middle" x="327.809" y="-1192.98" font-family="Times New Roman,serif" font-size="14.00">Conc cis&#45;vin (D); 60 in 30</text>
</g>
<!-- 60 in 30; Cons cis&#45;vin (E)&#45;&gt;Conc cis&#45;vin (D); 60 in 30 -->
<g id="edge1" class="edge"><title>60 in 30; Cons cis&#45;vin (E)&#45;&gt;Conc cis&#45;vin (D); 60 in 30</title>
<path fill="none" stroke="blue" d="M303.764,-1165.98C304.918,-1167.46 306.08,-1168.94 307.235,-1170.42"/>
<polygon fill="blue" stroke="blue" points="306.379,-1163.65 297.457,-1157.93 300.868,-1167.96 306.379,-1163.65"/>
<polygon fill="blue" stroke="blue" points="304.777,-1172.95 313.699,-1178.67 310.288,-1168.64 304.777,-1172.95"/>
<g id="a_edge1&#45;label"><a xlink:href="./60 in 30; Cons cis-vin (E)Conc cis-vin (D); 60 in 30.html" xlink:title="WuCJLC2006 Grade_NotGood">
<text text-anchor="middle" x="395.999" y="-1157" font-family="Times New Roman,serif" font-size="14.00">WuCJLC2006 Grade_NotGood</text>
</a>
</g>
</g>
<!-- Conc Cis&#45;Etop; RT 60 in 30 -->
<g id="node3" class="node"><title>Conc Cis&#45;Etop; RT 60 in 30</title>
<ellipse fill="none" stroke="black" cx="1712.81" cy="-480" rx="114.28" ry="18"/>
<text text-anchor="middle" x="1712.81" y="-476.3" font-family="Times New Roman,serif" font-size="14.00">Conc Cis&#45;Etop; RT 60 in 30</text>
</g>
<!-- Conc cis&#45;etop 60 in 40 bd (split) -->
<g id="node4" class="node"><title>Conc cis&#45;etop 60 in 40 bd (split)</title>
<ellipse fill="none" stroke="black" cx="1757.21" cy="-536.679" rx="129.177" ry="18"/>
<text text-anchor="middle" x="1757.21" y="-532.979" font-family="Times New Roman,serif" font-size="14.00">Conc cis&#45;etop 60 in 40 bd (split)</text>
</g>
<!-- Conc Cis&#45;Etop; RT 60 in 30&#45;&gt;Conc cis&#45;etop 60 in 40 bd (split) -->
<g id="edge2" class="edge"><title>Conc Cis&#45;Etop; RT 60 in 30&#45;&gt;Conc cis&#45;etop 60 in 40 bd (split)</title>
<path fill="none" stroke="blue" d="M1733.16,-505.985C1734.32,-507.458 1735.48,-508.941 1736.63,-510.415"/>
<polygon fill="blue" stroke="blue" points="1735.78,-503.647 1726.86,-497.934 1730.27,-507.964 1735.78,-503.647"/>
<polygon fill="blue" stroke="blue" points="1734.18,-512.954 1743.1,-518.667 1739.69,-508.637 1734.18,-512.954"/>
<g id="a_edge2&#45;label"><a xlink:href="./Conc Cis-Etop; RT 60 in 30Conc cis-etop 60 in 40 bd (split).html" xlink:title="SchildRedJ2002 Grade_NotGood">
<text text-anchor="middle" x="1830.4" y="-497" font-family="Times New Roman,serif" font-size="14.00">SchildRedJ2002 Grade_NotGood</text>
</a>
</g>
</g>
<!-- Conc carbo (daily); 60 in 30 -->
<g id="node5" class="node"><title>Conc carbo (daily); 60 in 30</title>
<ellipse fill="none" stroke="black" cx="475.345" cy="-1040.72" rx="113.18" ry="18"/>
<text text-anchor="middle" x="475.345" y="-1037.02" font-family="Times New Roman,serif" font-size="14.00">Conc carbo (daily); 60 in 30</text>
</g>
<!-- RT alone; 60 in 30 -->
<g id="node6" class="node"><title>RT alone; 60 in 30</title>
<ellipse fill="none" stroke="black" cx="842.048" cy="-713.692" rx="77.9862" ry="18"/>
<text text-anchor="middle" x="842.048" y="-709.992" font-family="Times New Roman,serif" font-size="14.00">RT alone; 60 in 30</text>
</g>
<!-- Conc carbo (daily); 60 in 30&#45;&gt;RT alone; 60 in 30 -->
<g id="edge3" class="edge"><title>Conc carbo (daily); 60 in 30&#45;&gt;RT alone; 60 in 30</title>
<path fill="none" stroke="blue" d="M502.987,-1016.07C571.125,-955.304 746.526,-798.879 814.531,-738.231"/>
<polygon fill="blue" stroke="blue" points="500.454,-1013.64 495.321,-1022.91 505.113,-1018.86 500.454,-1013.64"/>
<polygon fill="blue" stroke="blue" points="817.144,-740.591 822.278,-731.323 812.485,-735.367 817.144,-740.591"/>
<g id="a_edge3&#45;label"><a xlink:href="./Conc carbo (daily); 60 in 30RT alone; 60 in 30.html" xlink:title="AtagiLancetOnc2012, AtagiJJCO2005 Grade_NotGood">
<text text-anchor="middle" x="502.259" y="-880.951" font-family="Times New Roman,serif" font-size="14.00">AtagiLancetOnc2012, AtagiJJCO2005 Grade_NotGood</text>
</a>
</g>
</g>
<!-- RT alone; 60 in 40 (BD) -->
<g id="node21" class="node"><title>RT alone; 60 in 40 (BD)</title>
<ellipse fill="none" stroke="black" cx="1022.87" cy="-1114.06" rx="98.5829" ry="18"/>
<text text-anchor="middle" x="1022.87" y="-1110.36" font-family="Times New Roman,serif" font-size="14.00">RT alone; 60 in 40 (BD)</text>
</g>
<!-- RT alone; 60 in 30&#45;&gt;RT alone; 60 in 40 (BD) -->
<g id="edge51" class="edge"><title>RT alone; 60 in 30&#45;&gt;RT alone; 60 in 40 (BD)</title>
<path fill="none" stroke="blue" d="M854.43,-741.108C887.395,-814.099 977.04,-1012.59 1010.26,-1086.15"/>
<polygon fill="blue" stroke="blue" points="857.475,-739.345 850.169,-731.672 851.095,-742.227 857.475,-739.345"/>
<polygon fill="blue" stroke="blue" points="1007.26,-1088 1014.56,-1095.67 1013.64,-1085.12 1007.26,-1088"/>
<g id="a_edge51&#45;label"><a xlink:href="./RT alone; 60 in 30RT alone; 60 in 40 (BD).html" xlink:title="BonnerCancer1998 Grade_NotGood">
<text text-anchor="middle" x="828.345" y="-917.428" font-family="Times New Roman,serif" font-size="14.00">BonnerCancer1998 Grade_NotGood</text>
</a>
</g>
</g>
<!-- RT alone; 60 in 30 (BD) -->
<g id="node58" class="node"><title>RT alone; 60 in 30 (BD)</title>
<ellipse fill="none" stroke="black" cx="987.924" cy="-344.777" rx="98.5829" ry="18"/>
<text text-anchor="middle" x="987.924" y="-341.077" font-family="Times New Roman,serif" font-size="14.00">RT alone; 60 in 30 (BD)</text>
</g>
<!-- RT alone; 60 in 30&#45;&gt;RT alone; 60 in 30 (BD) -->
<g id="edge50" class="edge"><title>RT alone; 60 in 30&#45;&gt;RT alone; 60 in 30 (BD)</title>
<path fill="none" stroke="blue" d="M853.032,-685.914C880.131,-617.38 949.936,-440.846 976.987,-372.437"/>
<polygon fill="blue" stroke="blue" points="849.605,-685.062 849.183,-695.648 856.115,-687.636 849.605,-685.062"/>
<polygon fill="blue" stroke="blue" points="980.38,-373.372 980.803,-362.785 973.871,-370.798 980.38,-373.372"/>
<g id="a_edge50&#45;label"><a xlink:href="./RT alone; 60 in 30RT alone; 60 in 30 (BD).html" xlink:title="BallRTOnc1999 Grade_NotGood">
<text text-anchor="middle" x="819.509" y="-517.975" font-family="Times New Roman,serif" font-size="14.00">BallRTOnc1999 Grade_NotGood</text>
</a>
</g>
</g>
<!-- Conc carbo&#45;etop (A); 64.8 in 54 (BD) -->
<g id="node7" class="node"><title>Conc carbo&#45;etop (A); 64.8 in 54 (BD)</title>
<ellipse fill="none" stroke="black" cx="1384.25" cy="-1107" rx="148.674" ry="18"/>
<text text-anchor="middle" x="1384.25" y="-1103.3" font-family="Times New Roman,serif" font-size="14.00">Conc carbo&#45;etop (A); 64.8 in 54 (BD)</text>
</g>
<!-- Conc carbo&#45;etop (B); &#160;64.8 in 54 (BD) -->
<g id="node8" class="node"><title>Conc carbo&#45;etop (B); &#160;64.8 in 54 (BD)</title>
<ellipse fill="none" stroke="black" cx="1511.01" cy="-1335.02" rx="150.574" ry="18"/>
<text text-anchor="middle" x="1511.01" y="-1331.32" font-family="Times New Roman,serif" font-size="14.00">Conc carbo&#45;etop (B); &#160;64.8 in 54 (BD)</text>
</g>
<!-- Conc carbo&#45;etop (A); 64.8 in 54 (BD)&#45;&gt;Conc carbo&#45;etop (B); &#160;64.8 in 54 (BD) -->
<g id="edge4" class="edge"><title>Conc carbo&#45;etop (A); 64.8 in 54 (BD)&#45;&gt;Conc carbo&#45;etop (B); &#160;64.8 in 54 (BD)</title>
<path fill="none" stroke="blue" d="M1399.43,-1134.31C1423.88,-1178.29 1471.69,-1264.3 1496.02,-1308.06"/>
<polygon fill="blue" stroke="blue" points="1402.33,-1132.31 1394.41,-1125.27 1396.21,-1135.72 1402.33,-1132.31"/>
<polygon fill="blue" stroke="blue" points="1493.06,-1309.94 1500.98,-1316.98 1499.18,-1306.54 1493.06,-1309.94"/>
<g id="a_edge4&#45;label"><a xlink:href="./Conc carbo-etop (A); 64.8 in 54 (BD)Conc carbo-etop (B);  64.8 in 54 (BD).html" xlink:title="JeremicJCO1995 Grade_NotGood">
<text text-anchor="middle" x="1350.23" y="-1224.98" font-family="Times New Roman,serif" font-size="14.00">JeremicJCO1995 Grade_NotGood</text>
</a>
</g>
</g>
<!-- RT alone; 64.8 in 54 (BD) -->
<g id="node9" class="node"><title>RT alone; 64.8 in 54 (BD)</title>
<ellipse fill="none" stroke="black" cx="1646.38" cy="-1111.65" rx="105.082" ry="18"/>
<text text-anchor="middle" x="1646.38" y="-1107.95" font-family="Times New Roman,serif" font-size="14.00">RT alone; 64.8 in 54 (BD)</text>
</g>
<!-- Conc carbo&#45;etop (A); 64.8 in 54 (BD)&#45;&gt;RT alone; 64.8 in 54 (BD) -->
<g id="edge5" class="edge"><title>Conc carbo&#45;etop (A); 64.8 in 54 (BD)&#45;&gt;RT alone; 64.8 in 54 (BD)</title>
<path fill="none" stroke="blue" d="M1541.22,-1109.79C1541.27,-1109.79 1541.32,-1109.79 1541.37,-1109.79"/>
<polygon fill="blue" stroke="blue" points="1541.85,-1106.3 1531.79,-1109.62 1541.73,-1113.3 1541.85,-1106.3"/>
<polygon fill="blue" stroke="blue" points="1531.46,-1113.11 1541.52,-1109.79 1531.58,-1106.11 1531.46,-1113.11"/>
<g id="a_edge5&#45;label"><a xlink:href="./Conc carbo-etop (A); 64.8 in 54 (BD)RT alone; 64.8 in 54 (BD).html" xlink:title="JeremicJCO1995 Grade_NotGood">
<text text-anchor="middle" x="1443.79" y="-1113.59" font-family="Times New Roman,serif" font-size="14.00">JeremicJCO1995 Grade_NotGood</text>
</a>
</g>
</g>
<!-- Conc carbo&#45;etop (B); &#160;64.8 in 54 (BD)&#45;&gt;RT alone; 64.8 in 54 (BD) -->
<g id="edge6" class="edge"><title>Conc carbo&#45;etop (B); &#160;64.8 in 54 (BD)&#45;&gt;RT alone; 64.8 in 54 (BD)</title>
<path fill="none" stroke="blue" d="M1527.29,-1308.16C1553.37,-1265.13 1604.22,-1181.22 1630.23,-1138.31"/>
<polygon fill="blue" stroke="blue" points="1524.27,-1306.38 1522.09,-1316.74 1530.26,-1310 1524.27,-1306.38"/>
<polygon fill="blue" stroke="blue" points="1633.34,-1139.93 1635.53,-1129.56 1627.35,-1136.3 1633.34,-1139.93"/>
<g id="a_edge6&#45;label"><a xlink:href="./Conc carbo-etop (B);  64.8 in 54 (BD)RT alone; 64.8 in 54 (BD).html" xlink:title="JeremicJCO1995 Grade_NotGood">
<text text-anchor="middle" x="1578.76" y="-1212.04" font-family="Times New Roman,serif" font-size="14.00">JeremicJCO1995 Grade_NotGood</text>
</a>
</g>
</g>
<!-- Conc carbo&#45;etop; 69.6 in 58 (BD) -->
<g id="node10" class="node"><title>Conc carbo&#45;etop; 69.6 in 58 (BD)</title>
<ellipse fill="none" stroke="black" cx="445.305" cy="-1404" rx="133.776" ry="18"/>
<text text-anchor="middle" x="445.305" y="-1400.3" font-family="Times New Roman,serif" font-size="14.00">Conc carbo&#45;etop; 69.6 in 58 (BD)</text>
</g>
<!-- RT alone; 69.6 in 58 (BD) -->
<g id="node11" class="node"><title>RT alone; 69.6 in 58 (BD)</title>
<ellipse fill="none" stroke="black" cx="489.707" cy="-1460.68" rx="105.082" ry="18"/>
<text text-anchor="middle" x="489.707" y="-1456.98" font-family="Times New Roman,serif" font-size="14.00">RT alone; 69.6 in 58 (BD)</text>
</g>
<!-- Conc carbo&#45;etop; 69.6 in 58 (BD)&#45;&gt;RT alone; 69.6 in 58 (BD) -->
<g id="edge7" class="edge"><title>Conc carbo&#45;etop; 69.6 in 58 (BD)&#45;&gt;RT alone; 69.6 in 58 (BD)</title>
<path fill="none" stroke="blue" d="M465.661,-1429.98C466.816,-1431.46 467.977,-1432.94 469.132,-1434.42"/>
<polygon fill="blue" stroke="blue" points="468.276,-1427.65 459.354,-1421.93 462.766,-1431.96 468.276,-1427.65"/>
<polygon fill="blue" stroke="blue" points="466.675,-1436.95 475.597,-1442.67 472.185,-1432.64 466.675,-1436.95"/>
<g id="a_edge7&#45;label"><a xlink:href="./Conc carbo-etop; 69.6 in 58 (BD)RT alone; 69.6 in 58 (BD).html" xlink:title="JeremicJCO1996 Grade_NotGood">
<text text-anchor="middle" x="369.897" y="-1436" font-family="Times New Roman,serif" font-size="14.00">JeremicJCO1996 Grade_NotGood</text>
</a>
</g>
</g>
<!-- Conc carbo&#45;paclitaxel; 60 in 30 -->
<g id="node12" class="node"><title>Conc carbo&#45;paclitaxel; 60 in 30</title>
<ellipse fill="none" stroke="black" cx="1328.72" cy="-799.347" rx="124.278" ry="18"/>
<text text-anchor="middle" x="1328.72" y="-795.647" font-family="Times New Roman,serif" font-size="14.00">Conc carbo&#45;paclitaxel; 60 in 30</text>
</g>
<!-- Conc carbo&#45;paclitaxel; 60 in 30&#45;&gt;RT alone; 60 in 30 -->
<g id="edge9" class="edge"><title>Conc carbo&#45;paclitaxel; 60 in 30&#45;&gt;RT alone; 60 in 30</title>
<path fill="none" stroke="blue" d="M1239.61,-783.664C1146.13,-767.211 1001,-741.667 914.36,-726.419"/>
<polygon fill="blue" stroke="blue" points="1239.26,-787.155 1249.71,-785.442 1240.47,-780.261 1239.26,-787.155"/>
<polygon fill="blue" stroke="blue" points="914.806,-722.943 904.351,-724.657 913.593,-729.837 914.806,-722.943"/>
<g id="a_edge9&#45;label"><a xlink:href="./Conc carbo-paclitaxel; 60 in 30RT alone; 60 in 30.html" xlink:title="GoudaJENCI2006 Grade_NotGood">
<text text-anchor="middle" x="975.486" y="-758.841" font-family="Times New Roman,serif" font-size="14.00">GoudaJENCI2006 Grade_NotGood</text>
</a>
</g>
</g>
<!-- Ind carbo&#45;paclitaxel; Conc carbo&#45;paclitaxel; 60 in 30 -->
<g id="node13" class="node"><title>Ind carbo&#45;paclitaxel; Conc carbo&#45;paclitaxel; 60 in 30</title>
<ellipse fill="none" stroke="black" cx="1206.21" cy="-1000.43" rx="201.464" ry="18"/>
<text text-anchor="middle" x="1206.21" y="-996.733" font-family="Times New Roman,serif" font-size="14.00">Ind carbo&#45;paclitaxel; Conc carbo&#45;paclitaxel; 60 in 30</text>
</g>
<!-- Conc carbo&#45;paclitaxel; 60 in 30&#45;&gt;Ind carbo&#45;paclitaxel; Conc carbo&#45;paclitaxel; 60 in 30 -->
<g id="edge8" class="edge"><title>Conc carbo&#45;paclitaxel; 60 in 30&#45;&gt;Ind carbo&#45;paclitaxel; Conc carbo&#45;paclitaxel; 60 in 30</title>
<path fill="none" stroke="blue" d="M1312.28,-826.331C1288.76,-864.928 1245.79,-935.464 1222.41,-973.842"/>
<polygon fill="blue" stroke="blue" points="1315.42,-827.907 1317.63,-817.546 1309.44,-824.265 1315.42,-827.907"/>
<polygon fill="blue" stroke="blue" points="1219.4,-972.059 1217.18,-982.42 1225.38,-975.701 1219.4,-972.059"/>
<g id="a_edge8&#45;label"><a xlink:href="./Conc carbo-paclitaxel; 60 in 30Ind carbo-paclitaxel; Conc carbo-paclitaxel; 60 in 30.html" xlink:title="GoudaJENCI2006 Grade_NotGood">
<text text-anchor="middle" x="1165.84" y="-903.887" font-family="Times New Roman,serif" font-size="14.00">GoudaJENCI2006 Grade_NotGood</text>
</a>
</g>
</g>
<!-- Ind carbo&#45;paclitaxel; Conc carbo&#45;paclitaxel; 60 in 30&#45;&gt;RT alone; 60 in 30 -->
<g id="edge37" class="edge"><title>Ind carbo&#45;paclitaxel; Conc carbo&#45;paclitaxel; 60 in 30&#45;&gt;RT alone; 60 in 30</title>
<path fill="none" stroke="blue" d="M1175.2,-976.016C1106.28,-921.749 941.082,-791.671 872.596,-737.745"/>
<polygon fill="blue" stroke="blue" points="1173.41,-979.06 1183.43,-982.496 1177.74,-973.56 1173.41,-979.06"/>
<polygon fill="blue" stroke="blue" points="874.377,-734.692 864.355,-731.256 870.046,-740.192 874.377,-734.692"/>
<g id="a_edge37&#45;label"><a xlink:href="./Ind carbo-paclitaxel; Conc carbo-paclitaxel; 60 in 30RT alone; 60 in 30.html" xlink:title="GoudaJENCI2006 Grade_NotGood">
<text text-anchor="middle" x="922.397" y="-860.68" font-family="Times New Roman,serif" font-size="14.00">GoudaJENCI2006 Grade_NotGood</text>
</a>
</g>
</g>
<!-- Conc carbo; 60 in 30 -->
<g id="node14" class="node"><title>Conc carbo; 60 in 30</title>
<ellipse fill="none" stroke="black" cx="1278.41" cy="-595.172" rx="87.9851" ry="18"/>
<text text-anchor="middle" x="1278.41" y="-591.472" font-family="Times New Roman,serif" font-size="14.00">Conc carbo; 60 in 30</text>
</g>
<!-- Conc carbo; 60 in 30&#45;&gt;RT alone; 60 in 30 -->
<g id="edge10" class="edge"><title>Conc carbo; 60 in 30&#45;&gt;RT alone; 60 in 30</title>
<path fill="none" stroke="blue" d="M1215.59,-612.235C1131.91,-634.963 984.886,-674.896 902.452,-697.286"/>
<polygon fill="blue" stroke="blue" points="1216.61,-615.585 1225.34,-609.586 1214.78,-608.83 1216.61,-615.585"/>
<polygon fill="blue" stroke="blue" points="901.46,-693.928 892.727,-699.927 903.295,-700.683 901.46,-693.928"/>
<g id="a_edge10&#45;label"><a xlink:href="./Conc carbo; 60 in 30RT alone; 60 in 30.html" xlink:title="GroenAnnOnc2004 Grade_NotGood">
<text text-anchor="middle" x="954.02" y="-658.561" font-family="Times New Roman,serif" font-size="14.00">GroenAnnOnc2004 Grade_NotGood</text>
</a>
</g>
</g>
<!-- Conc cis (daily); 45 in 15 -->
<g id="node15" class="node"><title>Conc cis (daily); 45 in 15</title>
<ellipse fill="none" stroke="black" cx="1107.11" cy="-1470" rx="102.882" ry="18"/>
<text text-anchor="middle" x="1107.11" y="-1466.3" font-family="Times New Roman,serif" font-size="14.00">Conc cis (daily); 45 in 15</text>
</g>
<!-- RT alone; 45 in 15 -->
<g id="node16" class="node"><title>RT alone; 45 in 15</title>
<ellipse fill="none" stroke="black" cx="1151.51" cy="-1526.68" rx="77.9862" ry="18"/>
<text text-anchor="middle" x="1151.51" y="-1522.98" font-family="Times New Roman,serif" font-size="14.00">RT alone; 45 in 15</text>
</g>
<!-- Conc cis (daily); 45 in 15&#45;&gt;RT alone; 45 in 15 -->
<g id="edge11" class="edge"><title>Conc cis (daily); 45 in 15&#45;&gt;RT alone; 45 in 15</title>
<path fill="none" stroke="blue" d="M1127.46,-1495.98C1128.62,-1497.46 1129.78,-1498.94 1130.94,-1500.42"/>
<polygon fill="blue" stroke="blue" points="1130.08,-1493.65 1121.16,-1487.93 1124.57,-1497.96 1130.08,-1493.65"/>
<polygon fill="blue" stroke="blue" points="1128.48,-1502.95 1137.4,-1508.67 1133.99,-1498.64 1128.48,-1502.95"/>
<g id="a_edge11&#45;label"><a xlink:href="./Conc cis (daily); 45 in 15RT alone; 45 in 15.html" xlink:title="TrovoRedJ1992 Grade_NotGood">
<text text-anchor="middle" x="1033.7" y="-1502" font-family="Times New Roman,serif" font-size="14.00">TrovoRedJ1992 Grade_NotGood</text>
</a>
</g>
</g>
<!-- Conc cis (daily); 55 in 20 (split) -->
<g id="node17" class="node"><title>Conc cis (daily); 55 in 20 (split)</title>
<ellipse fill="none" stroke="black" cx="1328.51" cy="-216" rx="126.178" ry="18"/>
<text text-anchor="middle" x="1328.51" y="-212.3" font-family="Times New Roman,serif" font-size="14.00">Conc cis (daily); 55 in 20 (split)</text>
</g>
<!-- Conc cis; 55 in 20 (split) -->
<g id="node18" class="node"><title>Conc cis; 55 in 20 (split)</title>
<ellipse fill="none" stroke="black" cx="1442.37" cy="-420.841" rx="100.983" ry="18"/>
<text text-anchor="middle" x="1442.37" y="-417.141" font-family="Times New Roman,serif" font-size="14.00">Conc cis; 55 in 20 (split)</text>
</g>
<!-- Conc cis (daily); 55 in 20 (split)&#45;&gt;Conc cis; 55 in 20 (split) -->
<g id="edge12" class="edge"><title>Conc cis (daily); 55 in 20 (split)&#45;&gt;Conc cis; 55 in 20 (split)</title>
<path fill="none" stroke="blue" d="M1343.58,-243.112C1365.42,-282.414 1405.65,-354.783 1427.43,-393.956"/>
<polygon fill="blue" stroke="blue" points="1346.53,-241.218 1338.61,-234.178 1340.41,-244.619 1346.53,-241.218"/>
<polygon fill="blue" stroke="blue" points="1424.37,-395.664 1432.29,-402.704 1430.49,-392.263 1424.37,-395.664"/>
<g id="a_edge12&#45;label"><a xlink:href="./Conc cis (daily); 55 in 20 (split)Conc cis; 55 in 20 (split).html" xlink:title="Schaake&#45;KoningNEJM1992 Grade_NotGood">
<text text-anchor="middle" x="1258.5" y="-322.334" font-family="Times New Roman,serif" font-size="14.00">Schaake&#45;KoningNEJM1992 Grade_NotGood</text>
</a>
</g>
</g>
<!-- RT alone; 55 in 20 (split) -->
<g id="node19" class="node"><title>RT alone; 55 in 20 (split)</title>
<ellipse fill="none" stroke="black" cx="1563.99" cy="-220.18" rx="101.282" ry="18"/>
<text text-anchor="middle" x="1563.99" y="-216.48" font-family="Times New Roman,serif" font-size="14.00">RT alone; 55 in 20 (split)</text>
</g>
<!-- Conc cis (daily); 55 in 20 (split)&#45;&gt;RT alone; 55 in 20 (split) -->
<g id="edge13" class="edge"><title>Conc cis (daily); 55 in 20 (split)&#45;&gt;RT alone; 55 in 20 (split)</title>
<path fill="none" stroke="blue" d="M1462.74,-218.383C1462.79,-218.384 1462.84,-218.384 1462.88,-218.385"/>
<polygon fill="blue" stroke="blue" points="1463.89,-214.903 1453.83,-218.225 1463.77,-221.902 1463.89,-214.903"/>
<polygon fill="blue" stroke="blue" points="1452.96,-221.703 1463.03,-218.388 1453.09,-214.704 1452.96,-221.703"/>
<g id="a_edge13&#45;label"><a xlink:href="./Conc cis (daily); 55 in 20 (split)RT alone; 55 in 20 (split).html" xlink:title="Schaake&#45;KoningNEJM1992 Grade_NotGood">
<text text-anchor="middle" x="1589.81" y="-222.184" font-family="Times New Roman,serif" font-size="14.00">Schaake&#45;KoningNEJM1992 Grade_NotGood</text>
</a>
</g>
</g>
<!-- Conc cis; 55 in 20 (split)&#45;&gt;RT alone; 55 in 20 (split) -->
<g id="edge25" class="edge"><title>Conc cis; 55 in 20 (split)&#45;&gt;RT alone; 55 in 20 (split)</title>
<path fill="none" stroke="blue" d="M1458.69,-393.914C1482.04,-355.398 1524.69,-285.012 1547.9,-246.715"/>
<polygon fill="blue" stroke="blue" points="1455.57,-392.314 1453.38,-402.68 1461.56,-395.942 1455.57,-392.314"/>
<polygon fill="blue" stroke="blue" points="1550.9,-248.522 1553.09,-238.156 1544.92,-244.893 1550.9,-248.522"/>
<g id="a_edge25&#45;label"><a xlink:href="./Conc cis; 55 in 20 (split)RT alone; 55 in 20 (split).html" xlink:title="Schaake&#45;KoningNEJM1992 Grade_NotGood">
<text text-anchor="middle" x="1439.8" y="-309.114" font-family="Times New Roman,serif" font-size="14.00">Schaake&#45;KoningNEJM1992 Grade_NotGood</text>
</a>
</g>
</g>
<!-- Conc cis&#45;etop; 60 in 40 (BD) -->
<g id="node20" class="node"><title>Conc cis&#45;etop; 60 in 40 (BD)</title>
<ellipse fill="none" stroke="black" cx="712.774" cy="-1072.29" rx="116.18" ry="18"/>
<text text-anchor="middle" x="712.774" y="-1068.59" font-family="Times New Roman,serif" font-size="14.00">Conc cis&#45;etop; 60 in 40 (BD)</text>
</g>
<!-- Conc cis&#45;etop; 60 in 40 (BD)&#45;&gt;RT alone; 60 in 30 -->
<g id="edge14" class="edge"><title>Conc cis&#45;etop; 60 in 40 (BD)&#45;&gt;RT alone; 60 in 30</title>
<path fill="none" stroke="blue" d="M722.798,-1044.48C746.92,-977.569 807.988,-808.171 832.067,-741.378"/>
<polygon fill="blue" stroke="blue" points="719.462,-1043.42 719.363,-1054.01 726.047,-1045.79 719.462,-1043.42"/>
<polygon fill="blue" stroke="blue" points="835.374,-742.525 835.473,-731.931 828.789,-740.151 835.374,-742.525"/>
<g id="a_edge14&#45;label"><a xlink:href="./Conc cis-etop; 60 in 40 (BD)RT alone; 60 in 30.html" xlink:title="BonnerCancer1998 Grade_NotGood">
<text text-anchor="middle" x="673.433" y="-896.731" font-family="Times New Roman,serif" font-size="14.00">BonnerCancer1998 Grade_NotGood</text>
</a>
</g>
</g>
<!-- Conc cis&#45;etop; 60 in 40 (BD)&#45;&gt;RT alone; 60 in 40 (BD) -->
<g id="edge15" class="edge"><title>Conc cis&#45;etop; 60 in 40 (BD)&#45;&gt;RT alone; 60 in 40 (BD)</title>
<path fill="none" stroke="blue" d="M810.937,-1085.51C850.132,-1090.79 894.956,-1096.83 933.257,-1101.99"/>
<polygon fill="blue" stroke="blue" points="811.183,-1082.01 800.805,-1084.15 810.248,-1088.95 811.183,-1082.01"/>
<polygon fill="blue" stroke="blue" points="932.982,-1105.48 943.36,-1103.35 933.917,-1098.55 932.982,-1105.48"/>
<g id="a_edge15&#45;label"><a xlink:href="./Conc cis-etop; 60 in 40 (BD)RT alone; 60 in 40 (BD).html" xlink:title="BonnerCancer1998 Grade_NotGood">
<text text-anchor="middle" x="768.097" y="-1097.55" font-family="Times New Roman,serif" font-size="14.00">BonnerCancer1998 Grade_NotGood</text>
</a>
</g>
</g>
<!-- Conc cis&#45;etop; 66 in 33; Cons cis&#45;vin -->
<g id="node22" class="node"><title>Conc cis&#45;etop; 66 in 33; Cons cis&#45;vin</title>
<ellipse fill="none" stroke="black" cx="1019.3" cy="-84" rx="146.774" ry="18"/>
<text text-anchor="middle" x="1019.3" y="-80.3" font-family="Times New Roman,serif" font-size="14.00">Conc cis&#45;etop; 66 in 33; Cons cis&#45;vin</text>
</g>
<!-- Ind cis&#45;vin (A); 66 in 33 -->
<g id="node23" class="node"><title>Ind cis&#45;vin (A); 66 in 33</title>
<ellipse fill="none" stroke="black" cx="1063.71" cy="-140.679" rx="97.4827" ry="18"/>
<text text-anchor="middle" x="1063.71" y="-136.979" font-family="Times New Roman,serif" font-size="14.00">Ind cis&#45;vin (A); 66 in 33</text>
</g>
<!-- Conc cis&#45;etop; 66 in 33; Cons cis&#45;vin&#45;&gt;Ind cis&#45;vin (A); 66 in 33 -->
<g id="edge16" class="edge"><title>Conc cis&#45;etop; 66 in 33; Cons cis&#45;vin&#45;&gt;Ind cis&#45;vin (A); 66 in 33</title>
<path fill="none" stroke="blue" d="M1039.66,-109.985C1040.81,-111.458 1041.98,-112.941 1043.13,-114.415"/>
<polygon fill="blue" stroke="blue" points="1042.28,-107.647 1033.35,-101.934 1036.76,-111.964 1042.28,-107.647"/>
<polygon fill="blue" stroke="blue" points="1040.67,-116.954 1049.6,-122.667 1046.18,-112.637 1040.67,-116.954"/>
<g id="a_edge16&#45;label"><a xlink:href="./Conc cis-etop; 66 in 33; Cons cis-vinInd cis-vin (A); 66 in 33.html" xlink:title="FournelJCO2005 Grade_NotGood">
<text text-anchor="middle" x="943.396" y="-116" font-family="Times New Roman,serif" font-size="14.00">FournelJCO2005 Grade_NotGood</text>
</a>
</g>
</g>
<!-- Conc cis&#45;vinB (A); 60 in 30 -->
<g id="node24" class="node"><title>Conc cis&#45;vinB (A); 60 in 30</title>
<ellipse fill="none" stroke="black" cx="1427.12" cy="-513" rx="111.28" ry="18"/>
<text text-anchor="middle" x="1427.12" y="-509.3" font-family="Times New Roman,serif" font-size="14.00">Conc cis&#45;vinB (A); 60 in 30</text>
</g>
<!-- Conc cis&#45;etop; 69.6 in 58 (BD) -->
<g id="node25" class="node"><title>Conc cis&#45;etop; 69.6 in 58 (BD)</title>
<ellipse fill="none" stroke="black" cx="1358.91" cy="-720.788" rx="123.478" ry="18"/>
<text text-anchor="middle" x="1358.91" y="-717.088" font-family="Times New Roman,serif" font-size="14.00">Conc cis&#45;etop; 69.6 in 58 (BD)</text>
</g>
<!-- Conc cis&#45;vinB (A); 60 in 30&#45;&gt;Conc cis&#45;etop; 69.6 in 58 (BD) -->
<g id="edge17" class="edge"><title>Conc cis&#45;vinB (A); 60 in 30&#45;&gt;Conc cis&#45;etop; 69.6 in 58 (BD)</title>
<path fill="none" stroke="red" d="M1421.19,-531.076C1409.24,-567.457 1382.24,-649.726 1368.03,-692.995"/>
<polygon fill="red" stroke="red" points="1364.67,-692.013 1364.88,-702.605 1371.32,-694.196 1364.67,-692.013"/>
<g id="a_edge17&#45;label"><a xlink:href="./Conc cis-etop; 69.6 in 58 (BD)Conc cis-vinB (A); 60 in 30.html" xlink:title="CurranJNCI2011 ">
<text text-anchor="middle" x="1444.11" y="-615.836" font-family="Times New Roman,serif" font-size="14.00">CurranJNCI2011 </text>
</a>
</g>
</g>
<!-- Ind cis&#45;vinB; 60 in 30 -->
<g id="node26" class="node"><title>Ind cis&#45;vinB; 60 in 30</title>
<ellipse fill="none" stroke="black" cx="1576.31" cy="-676.788" rx="89.0842" ry="18"/>
<text text-anchor="middle" x="1576.31" y="-673.088" font-family="Times New Roman,serif" font-size="14.00">Ind cis&#45;vinB; 60 in 30</text>
</g>
<!-- Conc cis&#45;vinB (A); 60 in 30&#45;&gt;Ind cis&#45;vinB; 60 in 30 -->
<g id="edge21" class="edge"><title>Conc cis&#45;vinB (A); 60 in 30&#45;&gt;Ind cis&#45;vinB; 60 in 30</title>
<path fill="none" stroke="red" d="M1443.37,-530.84C1469.94,-560.008 1522.76,-617.997 1553.21,-651.43"/>
<polygon fill="red" stroke="red" points="1550.76,-653.934 1560.08,-658.97 1555.93,-649.22 1550.76,-653.934"/>
<g id="a_edge21&#45;label"><a xlink:href="./Conc cis-vinB (A); 60 in 30Ind cis-vinB; 60 in 30.html" xlink:title="CurranJNCI2011 ">
<text text-anchor="middle" x="1448.79" y="-594.935" font-family="Times New Roman,serif" font-size="14.00">CurranJNCI2011 </text>
</a>
</g>
</g>
<!-- Conc cis&#45;etop; 69.6 in 58 (BD)&#45;&gt;Ind cis&#45;vinB; 60 in 30 -->
<g id="edge18" class="edge"><title>Conc cis&#45;etop; 69.6 in 58 (BD)&#45;&gt;Ind cis&#45;vinB; 60 in 30</title>
<path fill="none" stroke="red" d="M1431.3,-706.137C1454.54,-701.434 1480.27,-696.224 1503.54,-691.516"/>
<polygon fill="red" stroke="red" points="1504.24,-694.946 1513.34,-689.532 1502.85,-688.085 1504.24,-694.946"/>
<g id="a_edge18&#45;label"><a xlink:href="./Conc cis-etop; 69.6 in 58 (BD)Ind cis-vinB; 60 in 30.html" xlink:title="CurranJNCI2011 ">
<text text-anchor="middle" x="1417.92" y="-687.626" font-family="Times New Roman,serif" font-size="14.00">CurranJNCI2011 </text>
</a>
</g>
</g>
<!-- Ind cis&#45;vinB; Conc carbo; 60 in 30 -->
<g id="node64" class="node"><title>Ind cis&#45;vinB; Conc carbo; 60 in 30</title>
<ellipse fill="none" stroke="black" cx="1786.9" cy="-751.285" rx="137.276" ry="18"/>
<text text-anchor="middle" x="1786.9" y="-747.585" font-family="Times New Roman,serif" font-size="14.00">Ind cis&#45;vinB; Conc carbo; 60 in 30</text>
</g>
<!-- Ind cis&#45;vinB; 60 in 30&#45;&gt;Ind cis&#45;vinB; Conc carbo; 60 in 30 -->
<g id="edge46" class="edge"><title>Ind cis&#45;vinB; 60 in 30&#45;&gt;Ind cis&#45;vinB; Conc carbo; 60 in 30</title>
<path fill="none" stroke="blue" d="M1630.35,-695.906C1660.6,-706.606 1698.31,-719.947 1729.14,-730.853"/>
<polygon fill="blue" stroke="blue" points="1631.31,-692.531 1620.71,-692.496 1628.97,-699.131 1631.31,-692.531"/>
<polygon fill="blue" stroke="blue" points="1728.3,-734.266 1738.89,-734.302 1730.63,-727.667 1728.3,-734.266"/>
<g id="a_edge46&#45;label"><a xlink:href="./Ind cis-vinB; 60 in 30Ind cis-vinB; Conc carbo; 60 in 30.html" xlink:title="ClamonJCO1999 Grade_NotGood">
<text text-anchor="middle" x="1581.75" y="-717.179" font-family="Times New Roman,serif" font-size="14.00">ClamonJCO1999 Grade_NotGood</text>
</a>
</g>
</g>
<!-- Conc cis&#45;vin (C); 60 in 30 -->
<g id="node27" class="node"><title>Conc cis&#45;vin (C); 60 in 30</title>
<ellipse fill="none" stroke="black" cx="614.708" cy="-18" rx="105.082" ry="18"/>
<text text-anchor="middle" x="614.708" y="-14.3" font-family="Times New Roman,serif" font-size="14.00">Conc cis&#45;vin (C); 60 in 30</text>
</g>
<!-- Ind cis&#45;vin (C); 60 in 30 -->
<g id="node28" class="node"><title>Ind cis&#45;vin (C); 60 in 30</title>
<ellipse fill="none" stroke="black" cx="659.109" cy="-74.6788" rx="97.4827" ry="18"/>
<text text-anchor="middle" x="659.109" y="-70.9788" font-family="Times New Roman,serif" font-size="14.00">Ind cis&#45;vin (C); 60 in 30</text>
</g>
<!-- Conc cis&#45;vin (C); 60 in 30&#45;&gt;Ind cis&#45;vin (C); 60 in 30 -->
<g id="edge19" class="edge"><title>Conc cis&#45;vin (C); 60 in 30&#45;&gt;Ind cis&#45;vin (C); 60 in 30</title>
<path fill="none" stroke="blue" d="M635.064,-43.9847C636.218,-45.4584 637.38,-46.9407 638.535,-48.4154"/>
<polygon fill="blue" stroke="blue" points="637.679,-41.6472 628.757,-35.9335 632.168,-45.964 637.679,-41.6472"/>
<polygon fill="blue" stroke="blue" points="636.077,-50.9537 644.999,-56.6674 641.588,-46.6369 636.077,-50.9537"/>
<g id="a_edge19&#45;label"><a xlink:href="./Conc cis-vin (C); 60 in 30Ind cis-vin (C); 60 in 30.html" xlink:title="ZatloukalLungCa2004 Grade_NotGood">
<text text-anchor="middle" x="748.299" y="-35" font-family="Times New Roman,serif" font-size="14.00">ZatloukalLungCa2004 Grade_NotGood</text>
</a>
</g>
</g>
<!-- Conc cis&#45;vin; 70.2 in 39 -->
<g id="node29" class="node"><title>Conc cis&#45;vin; 70.2 in 39</title>
<ellipse fill="none" stroke="black" cx="210.908" cy="-1503" rx="97.4827" ry="18"/>
<text text-anchor="middle" x="210.908" y="-1499.3" font-family="Times New Roman,serif" font-size="14.00">Conc cis&#45;vin; 70.2 in 39</text>
</g>
<!-- Ind cis&#45;vin; 70.2 in 39 -->
<g id="node30" class="node"><title>Ind cis&#45;vin; 70.2 in 39</title>
<ellipse fill="none" stroke="black" cx="255.31" cy="-1559.68" rx="89.8845" ry="18"/>
<text text-anchor="middle" x="255.31" y="-1555.98" font-family="Times New Roman,serif" font-size="14.00">Ind cis&#45;vin; 70.2 in 39</text>
</g>
<!-- Conc cis&#45;vin; 70.2 in 39&#45;&gt;Ind cis&#45;vin; 70.2 in 39 -->
<g id="edge20" class="edge"><title>Conc cis&#45;vin; 70.2 in 39&#45;&gt;Ind cis&#45;vin; 70.2 in 39</title>
<path fill="none" stroke="blue" d="M231.264,-1528.98C232.419,-1530.46 233.58,-1531.94 234.736,-1533.42"/>
<polygon fill="blue" stroke="blue" points="233.879,-1526.65 224.957,-1520.93 228.369,-1530.96 233.879,-1526.65"/>
<polygon fill="blue" stroke="blue" points="232.278,-1535.95 241.2,-1541.67 237.788,-1531.64 232.278,-1535.95"/>
<g id="a_edge20&#45;label"><a xlink:href="./Conc cis-vin; 70.2 in 39Ind cis-vin; 70.2 in 39.html" xlink:title="ReinfussNowotory2005 Grade_NotGood">
<text text-anchor="middle" x="116.5" y="-1535" font-family="Times New Roman,serif" font-size="14.00">ReinfussNowotory2005 Grade_NotGood</text>
</a>
</g>
</g>
<!-- Conc cis&#45;vinB; 60 in 30 (B) -->
<g id="node31" class="node"><title>Conc cis&#45;vinB; 60 in 30 (B)</title>
<ellipse fill="none" stroke="black" cx="1210.49" cy="-378.908" rx="110.48" ry="18"/>
<text text-anchor="middle" x="1210.49" y="-375.208" font-family="Times New Roman,serif" font-size="14.00">Conc cis&#45;vinB; 60 in 30 (B)</text>
</g>
<!-- Conc cis&#45;vinB; 60 in 30 (B)&#45;&gt;RT alone; 60 in 30 -->
<g id="edge22" class="edge"><title>Conc cis&#45;vinB; 60 in 30 (B)&#45;&gt;RT alone; 60 in 30</title>
<path fill="none" stroke="blue" d="M1183.28,-403.632C1115.1,-465.582 937.555,-626.91 869.316,-688.915"/>
<polygon fill="blue" stroke="blue" points="1185.9,-405.986 1190.94,-396.671 1181.19,-400.806 1185.9,-405.986"/>
<polygon fill="blue" stroke="blue" points="866.598,-686.656 861.55,-695.971 871.305,-691.837 866.598,-686.656"/>
<g id="a_edge22&#45;label"><a xlink:href="./Conc cis-vinB; 60 in 30 (B)RT alone; 60 in 30.html" xlink:title="LuCJLC2005 Grade_NotGood">
<text text-anchor="middle" x="938.799" y="-550.074" font-family="Times New Roman,serif" font-size="14.00">LuCJLC2005 Grade_NotGood</text>
</a>
</g>
</g>
<!-- Conc cis; 50 in 25 -->
<g id="node32" class="node"><title>Conc cis; 50 in 25</title>
<ellipse fill="none" stroke="black" cx="223.76" cy="-249" rx="77.1866" ry="18"/>
<text text-anchor="middle" x="223.76" y="-245.3" font-family="Times New Roman,serif" font-size="14.00">Conc cis; 50 in 25</text>
</g>
<!-- RT alone; 50 in 25 -->
<g id="node33" class="node"><title>RT alone; 50 in 25</title>
<ellipse fill="none" stroke="black" cx="268.162" cy="-305.679" rx="77.9862" ry="18"/>
<text text-anchor="middle" x="268.162" y="-301.979" font-family="Times New Roman,serif" font-size="14.00">RT alone; 50 in 25</text>
</g>
<!-- Conc cis; 50 in 25&#45;&gt;RT alone; 50 in 25 -->
<g id="edge23" class="edge"><title>Conc cis; 50 in 25&#45;&gt;RT alone; 50 in 25</title>
<path fill="none" stroke="blue" d="M244.116,-274.985C245.271,-276.458 246.432,-277.941 247.587,-279.415"/>
<polygon fill="blue" stroke="blue" points="246.731,-272.647 237.809,-266.934 241.221,-276.964 246.731,-272.647"/>
<polygon fill="blue" stroke="blue" points="245.13,-281.954 254.052,-287.667 250.64,-277.637 245.13,-281.954"/>
<g id="a_edge23&#45;label"><a xlink:href="./Conc cis; 50 in 25RT alone; 50 in 25.html" xlink:title="YadavBPGI2005 Grade_NotGood">
<text text-anchor="middle" x="343.852" y="-266" font-family="Times New Roman,serif" font-size="14.00">YadavBPGI2005 Grade_NotGood</text>
</a>
</g>
</g>
<!-- Conc cis; 50.4 in 28 -->
<g id="node34" class="node"><title>Conc cis; 50.4 in 28</title>
<ellipse fill="none" stroke="black" cx="1748.26" cy="-1239" rx="83.6854" ry="18"/>
<text text-anchor="middle" x="1748.26" y="-1235.3" font-family="Times New Roman,serif" font-size="14.00">Conc cis; 50.4 in 28</text>
</g>
<!-- RT alone; 50.4 in 28 -->
<g id="node35" class="node"><title>RT alone; 50.4 in 28</title>
<ellipse fill="none" stroke="black" cx="1792.66" cy="-1295.68" rx="85.2851" ry="18"/>
<text text-anchor="middle" x="1792.66" y="-1291.98" font-family="Times New Roman,serif" font-size="14.00">RT alone; 50.4 in 28</text>
</g>
<!-- Conc cis; 50.4 in 28&#45;&gt;RT alone; 50.4 in 28 -->
<g id="edge24" class="edge"><title>Conc cis; 50.4 in 28&#45;&gt;RT alone; 50.4 in 28</title>
<path fill="none" stroke="blue" d="M1768.62,-1264.98C1769.77,-1266.46 1770.93,-1267.94 1772.09,-1269.42"/>
<polygon fill="blue" stroke="blue" points="1771.23,-1262.65 1762.31,-1256.93 1765.72,-1266.96 1771.23,-1262.65"/>
<polygon fill="blue" stroke="blue" points="1769.63,-1271.95 1778.55,-1277.67 1775.14,-1267.64 1769.63,-1271.95"/>
<g id="a_edge24&#45;label"><a xlink:href="./Conc cis; 50.4 in 28RT alone; 50.4 in 28.html" xlink:title="SoresiSemOnc1988 Grade_NotGood">
<text text-anchor="middle" x="1664.85" y="-1271" font-family="Times New Roman,serif" font-size="14.00">SoresiSemOnc1988 Grade_NotGood</text>
</a>
</g>
</g>
<!-- Conc cis; 60 in 30 -->
<g id="node36" class="node"><title>Conc cis; 60 in 30</title>
<ellipse fill="none" stroke="black" cx="457.409" cy="-398.037" rx="77.1866" ry="18"/>
<text text-anchor="middle" x="457.409" y="-394.337" font-family="Times New Roman,serif" font-size="14.00">Conc cis; 60 in 30</text>
</g>
<!-- Conc cis; 60 in 30&#45;&gt;RT alone; 60 in 30 -->
<g id="edge26" class="edge"><title>Conc cis; 60 in 30&#45;&gt;RT alone; 60 in 30</title>
<path fill="none" stroke="blue" d="M486.689,-422.066C558.21,-480.759 741.163,-630.9 812.726,-689.628"/>
<polygon fill="blue" stroke="blue" points="488.587,-419.095 478.636,-415.457 484.146,-424.507 488.587,-419.095"/>
<polygon fill="blue" stroke="blue" points="810.936,-692.687 820.886,-696.325 815.376,-687.275 810.936,-692.687"/>
<g id="a_edge26&#45;label"><a xlink:href="./Conc cis; 60 in 30RT alone; 60 in 30.html" xlink:title="BlankeJCO1995 Grade_NotGood">
<text text-anchor="middle" x="554.708" y="-559.647" font-family="Times New Roman,serif" font-size="14.00">BlankeJCO1995 Grade_NotGood</text>
</a>
</g>
</g>
<!-- Conc cis; 64 in 32 -->
<g id="node37" class="node"><title>Conc cis; 64 in 32</title>
<ellipse fill="none" stroke="black" cx="190.76" cy="-975" rx="77.1866" ry="18"/>
<text text-anchor="middle" x="190.76" y="-971.3" font-family="Times New Roman,serif" font-size="14.00">Conc cis; 64 in 32</text>
</g>
<!-- RT alone; 64 in 32 -->
<g id="node38" class="node"><title>RT alone; 64 in 32</title>
<ellipse fill="none" stroke="black" cx="235.162" cy="-1031.68" rx="77.9862" ry="18"/>
<text text-anchor="middle" x="235.162" y="-1027.98" font-family="Times New Roman,serif" font-size="14.00">RT alone; 64 in 32</text>
</g>
<!-- Conc cis; 64 in 32&#45;&gt;RT alone; 64 in 32 -->
<g id="edge27" class="edge"><title>Conc cis; 64 in 32&#45;&gt;RT alone; 64 in 32</title>
<path fill="none" stroke="blue" d="M211.116,-1000.98C212.271,-1002.46 213.432,-1003.94 214.587,-1005.42"/>
<polygon fill="blue" stroke="blue" points="213.731,-998.647 204.809,-992.934 208.221,-1002.96 213.731,-998.647"/>
<polygon fill="blue" stroke="blue" points="212.13,-1007.95 221.052,-1013.67 217.64,-1003.64 212.13,-1007.95"/>
<g id="a_edge27&#45;label"><a xlink:href="./Conc cis; 64 in 32RT alone; 64 in 32.html" xlink:title="CakirLungCa2004 Grade_NotGood">
<text text-anchor="middle" x="313.852" y="-992" font-family="Times New Roman,serif" font-size="14.00">CakirLungCa2004 Grade_NotGood</text>
</a>
</g>
</g>
<!-- Conc hydroxyurea; 60 in 20 (split) -->
<g id="node39" class="node"><title>Conc hydroxyurea; 60 in 20 (split)</title>
<ellipse fill="none" stroke="black" cx="315.255" cy="-51" rx="135.676" ry="18"/>
<text text-anchor="middle" x="315.255" y="-47.3" font-family="Times New Roman,serif" font-size="14.00">Conc hydroxyurea; 60 in 20 (split)</text>
</g>
<!-- RT alone; 60 in 20 (split) -->
<g id="node40" class="node"><title>RT alone; 60 in 20 (split)</title>
<ellipse fill="none" stroke="black" cx="359.657" cy="-107.679" rx="101.282" ry="18"/>
<text text-anchor="middle" x="359.657" y="-103.979" font-family="Times New Roman,serif" font-size="14.00">RT alone; 60 in 20 (split)</text>
</g>
<!-- Conc hydroxyurea; 60 in 20 (split)&#45;&gt;RT alone; 60 in 20 (split) -->
<g id="edge28" class="edge"><title>Conc hydroxyurea; 60 in 20 (split)&#45;&gt;RT alone; 60 in 20 (split)</title>
<path fill="none" stroke="blue" d="M335.611,-76.9847C336.766,-78.4584 337.927,-79.9407 339.082,-81.4154"/>
<polygon fill="blue" stroke="blue" points="338.226,-74.6472 329.304,-68.9335 332.716,-78.964 338.226,-74.6472"/>
<polygon fill="blue" stroke="blue" points="336.624,-83.9537 345.547,-89.6674 342.135,-79.6369 336.624,-83.9537"/>
<g id="a_edge28&#45;label"><a xlink:href="./Conc hydroxyurea; 60 in 20 (split)RT alone; 60 in 20 (split).html" xlink:title="LandgrenCancer1974 Grade_NotGood">
<text text-anchor="middle" x="227.347" y="-83" font-family="Times New Roman,serif" font-size="14.00">LandgrenCancer1974 Grade_NotGood</text>
</a>
</g>
</g>
<!-- ConcCRT + cons Doce -->
<g id="node41" class="node"><title>ConcCRT + cons Doce</title>
<ellipse fill="none" stroke="black" cx="1400.21" cy="-1470" rx="98.5829" ry="18"/>
<text text-anchor="middle" x="1400.21" y="-1466.3" font-family="Times New Roman,serif" font-size="14.00">ConcCRT + cons Doce</text>
</g>
<!-- RT alone; consDocetaxel -->
<g id="node42" class="node"><title>RT alone; consDocetaxel</title>
<ellipse fill="none" stroke="black" cx="1444.61" cy="-1526.68" rx="102.882" ry="18"/>
<text text-anchor="middle" x="1444.61" y="-1522.98" font-family="Times New Roman,serif" font-size="14.00">RT alone; consDocetaxel</text>
</g>
<!-- ConcCRT + cons Doce&#45;&gt;RT alone; consDocetaxel -->
<g id="edge29" class="edge"><title>ConcCRT + cons Doce&#45;&gt;RT alone; consDocetaxel</title>
<path fill="none" stroke="blue" d="M1420.56,-1495.98C1421.72,-1497.46 1422.88,-1498.94 1424.04,-1500.42"/>
<polygon fill="blue" stroke="blue" points="1423.18,-1493.65 1414.26,-1487.93 1417.67,-1497.96 1423.18,-1493.65"/>
<polygon fill="blue" stroke="blue" points="1421.58,-1502.95 1430.5,-1508.67 1427.09,-1498.64 1421.58,-1502.95"/>
<g id="a_edge29&#45;label"><a xlink:href="./ConcCRT + cons DoceRT alone; consDocetaxel.html" xlink:title="LanetalAbstract Grade_NotGood">
<text text-anchor="middle" x="1516.3" y="-1487" font-family="Times New Roman,serif" font-size="14.00">LanetalAbstract Grade_NotGood</text>
</a>
</g>
</g>
<!-- ConcRT Carbo&#45;Doc 60 in 30; Cons Gem&#45;Doce -->
<g id="node43" class="node"><title>ConcRT Carbo&#45;Doc 60 in 30; Cons Gem&#45;Doce</title>
<ellipse fill="none" stroke="black" cx="1090" cy="-1305" rx="184.667" ry="18"/>
<text text-anchor="middle" x="1090" y="-1301.3" font-family="Times New Roman,serif" font-size="14.00">ConcRT Carbo&#45;Doc 60 in 30; Cons Gem&#45;Doce</text>
</g>
<!-- Ind Doce&#45;gem; Conc 60 in 30 conc Doce&#45;carbo -->
<g id="node44" class="node"><title>Ind Doce&#45;gem; Conc 60 in 30 conc Doce&#45;carbo</title>
<ellipse fill="none" stroke="black" cx="1134.4" cy="-1361.68" rx="185.467" ry="18"/>
<text text-anchor="middle" x="1134.4" y="-1357.98" font-family="Times New Roman,serif" font-size="14.00">Ind Doce&#45;gem; Conc 60 in 30 conc Doce&#45;carbo</text>
</g>
<!-- ConcRT Carbo&#45;Doc 60 in 30; Cons Gem&#45;Doce&#45;&gt;Ind Doce&#45;gem; Conc 60 in 30 conc Doce&#45;carbo -->
<g id="edge30" class="edge"><title>ConcRT Carbo&#45;Doc 60 in 30; Cons Gem&#45;Doce&#45;&gt;Ind Doce&#45;gem; Conc 60 in 30 conc Doce&#45;carbo</title>
<path fill="none" stroke="blue" d="M1110.7,-1331.43C1111.7,-1332.7 1112.7,-1333.98 1113.7,-1335.25"/>
<polygon fill="blue" stroke="blue" points="1113.22,-1328.96 1104.29,-1323.25 1107.71,-1333.28 1113.22,-1328.96"/>
<polygon fill="blue" stroke="blue" points="1111.21,-1337.75 1120.14,-1343.47 1116.72,-1333.44 1111.21,-1337.75"/>
<g id="a_edge30&#45;label"><a xlink:href="./ConcRT Carbo-Doc 60 in 30; Cons Gem-DoceInd Doce-gem; Conc 60 in 30 conc Doce-carbo.html" xlink:title="GarridoSLCG0008 Grade_NotGood">
<text text-anchor="middle" x="1008.2" y="-1337.14" font-family="Times New Roman,serif" font-size="14.00">GarridoSLCG0008 Grade_NotGood</text>
</a>
</g>
</g>
<!-- ConcRT Cis&#45;vin 55 in 20 -->
<g id="node45" class="node"><title>ConcRT Cis&#45;vin 55 in 20</title>
<ellipse fill="none" stroke="black" cx="216.108" cy="-447" rx="102.882" ry="18"/>
<text text-anchor="middle" x="216.108" y="-443.3" font-family="Times New Roman,serif" font-size="14.00">ConcRT Cis&#45;vin 55 in 20</text>
</g>
<!-- Ind cis&#45;vin; 55 in 20 -->
<g id="node46" class="node"><title>Ind cis&#45;vin; 55 in 20</title>
<ellipse fill="none" stroke="black" cx="260.51" cy="-503.679" rx="83.3857" ry="18"/>
<text text-anchor="middle" x="260.51" y="-499.979" font-family="Times New Roman,serif" font-size="14.00">Ind cis&#45;vin; 55 in 20</text>
</g>
<!-- ConcRT Cis&#45;vin 55 in 20&#45;&gt;Ind cis&#45;vin; 55 in 20 -->
<g id="edge31" class="edge"><title>ConcRT Cis&#45;vin 55 in 20&#45;&gt;Ind cis&#45;vin; 55 in 20</title>
<path fill="none" stroke="blue" d="M236.464,-472.985C237.619,-474.458 238.78,-475.941 239.935,-477.415"/>
<polygon fill="blue" stroke="blue" points="239.079,-470.647 230.157,-464.934 233.569,-474.964 239.079,-470.647"/>
<polygon fill="blue" stroke="blue" points="237.477,-479.954 246.4,-485.667 242.988,-475.637 237.477,-479.954"/>
<g id="a_edge31&#45;label"><a xlink:href="./ConcRT Cis-vin 55 in 20Ind cis-vin; 55 in 20.html" xlink:title="MaguireSOCCAR Grade_NotGood">
<text text-anchor="middle" x="136.7" y="-479" font-family="Times New Roman,serif" font-size="14.00">MaguireSOCCAR Grade_NotGood</text>
</a>
</g>
</g>
<!-- Hydroxycamptothecin 10mg per day weeks 1 and 5; 62.4 in 52 (BD) -->
<g id="node47" class="node"><title>Hydroxycamptothecin 10mg per day weeks 1 and 5; 62.4 in 52 (BD)</title>
<ellipse fill="none" stroke="black" cx="1626.09" cy="-909" rx="258.854" ry="18"/>
<text text-anchor="middle" x="1626.09" y="-905.3" font-family="Times New Roman,serif" font-size="14.00">Hydroxycamptothecin 10mg per day weeks 1 and 5; 62.4 in 52 (BD)</text>
</g>
<!-- RT alone; 62.4 in 52 (BD) -->
<g id="node48" class="node"><title>RT alone; 62.4 in 52 (BD)</title>
<ellipse fill="none" stroke="black" cx="1670.5" cy="-965.679" rx="105.082" ry="18"/>
<text text-anchor="middle" x="1670.5" y="-961.979" font-family="Times New Roman,serif" font-size="14.00">RT alone; 62.4 in 52 (BD)</text>
</g>
<!-- Hydroxycamptothecin 10mg per day weeks 1 and 5; 62.4 in 52 (BD)&#45;&gt;RT alone; 62.4 in 52 (BD) -->
<g id="edge32" class="edge"><title>Hydroxycamptothecin 10mg per day weeks 1 and 5; 62.4 in 52 (BD)&#45;&gt;RT alone; 62.4 in 52 (BD)</title>
<path fill="none" stroke="blue" d="M1646.8,-935.425C1647.79,-936.698 1648.79,-937.977 1649.79,-939.25"/>
<polygon fill="blue" stroke="blue" points="1649.31,-932.959 1640.39,-927.246 1643.8,-937.276 1649.31,-932.959"/>
<polygon fill="blue" stroke="blue" points="1647.31,-941.754 1656.23,-947.467 1652.82,-937.437 1647.31,-941.754"/>
<g id="a_edge32&#45;label"><a xlink:href="./Hydroxycamptothecin 10mg per day weeks 1 and 5; 62.4 in 52 (BD)RT alone; 62.4 in 52 (BD).html" xlink:title="LeeTumour2008 Grade_NotGood">
<text text-anchor="middle" x="1551.79" y="-941.137" font-family="Times New Roman,serif" font-size="14.00">LeeTumour2008 Grade_NotGood</text>
</a>
</g>
</g>
<!-- Ind Cis&#45;Vin and Conc Cis&#45;Vin; 62&#45;70 -->
<g id="node49" class="node"><title>Ind Cis&#45;Vin and Conc Cis&#45;Vin; 62&#45;70</title>
<ellipse fill="none" stroke="black" cx="1745.3" cy="-315" rx="146.774" ry="18"/>
<text text-anchor="middle" x="1745.3" y="-311.3" font-family="Times New Roman,serif" font-size="14.00">Ind Cis&#45;Vin and Conc Cis&#45;Vin; 62&#45;70</text>
</g>
<!-- Ind and Cons Cis&#45;vin; 62&#45;70 -->
<g id="node50" class="node"><title>Ind and Cons Cis&#45;vin; 62&#45;70</title>
<ellipse fill="none" stroke="black" cx="1789.71" cy="-371.679" rx="114.28" ry="18"/>
<text text-anchor="middle" x="1789.71" y="-367.979" font-family="Times New Roman,serif" font-size="14.00">Ind and Cons Cis&#45;vin; 62&#45;70</text>
</g>
<!-- Ind Cis&#45;Vin and Conc Cis&#45;Vin; 62&#45;70&#45;&gt;Ind and Cons Cis&#45;vin; 62&#45;70 -->
<g id="edge33" class="edge"><title>Ind Cis&#45;Vin and Conc Cis&#45;Vin; 62&#45;70&#45;&gt;Ind and Cons Cis&#45;vin; 62&#45;70</title>
<path fill="none" stroke="blue" d="M1765.66,-340.985C1766.81,-342.458 1767.98,-343.941 1769.13,-345.415"/>
<polygon fill="blue" stroke="blue" points="1768.28,-338.647 1759.35,-332.934 1762.76,-342.964 1768.28,-338.647"/>
<polygon fill="blue" stroke="blue" points="1766.67,-347.954 1775.6,-353.667 1772.18,-343.637 1766.67,-347.954"/>
<g id="a_edge33&#45;label"><a xlink:href="./Ind Cis-Vin and Conc Cis-Vin; 62-70Ind and Cons Cis-vin; 62-70.html" xlink:title="RaoCJCPT2007 Grade_NotGood">
<text text-anchor="middle" x="1670.9" y="-347" font-family="Times New Roman,serif" font-size="14.00">RaoCJCPT2007 Grade_NotGood</text>
</a>
</g>
</g>
<!-- Ind Cis&#45;Vin; 54 in 36 (CHART) -->
<g id="node51" class="node"><title>Ind Cis&#45;Vin; 54 in 36 (CHART)</title>
<ellipse fill="none" stroke="black" cx="1691.51" cy="-51" rx="126.178" ry="18"/>
<text text-anchor="middle" x="1691.51" y="-47.3" font-family="Times New Roman,serif" font-size="14.00">Ind Cis&#45;Vin; 54 in 36 (CHART)</text>
</g>
<!-- RT alone; 54 in 36 (CHART) -->
<g id="node52" class="node"><title>RT alone; 54 in 36 (CHART)</title>
<ellipse fill="none" stroke="black" cx="1735.91" cy="-107.679" rx="117.779" ry="18"/>
<text text-anchor="middle" x="1735.91" y="-103.979" font-family="Times New Roman,serif" font-size="14.00">RT alone; 54 in 36 (CHART)</text>
</g>
<!-- Ind Cis&#45;Vin; 54 in 36 (CHART)&#45;&gt;RT alone; 54 in 36 (CHART) -->
<g id="edge34" class="edge"><title>Ind Cis&#45;Vin; 54 in 36 (CHART)&#45;&gt;RT alone; 54 in 36 (CHART)</title>
<path fill="none" stroke="blue" d="M1711.86,-76.9847C1713.02,-78.4584 1714.18,-79.9407 1715.33,-81.4154"/>
<polygon fill="blue" stroke="blue" points="1714.48,-74.6472 1705.55,-68.9335 1708.97,-78.964 1714.48,-74.6472"/>
<polygon fill="blue" stroke="blue" points="1712.88,-83.9537 1721.8,-89.6674 1718.39,-79.6369 1712.88,-83.9537"/>
<g id="a_edge34&#45;label"><a xlink:href="./Ind Cis-Vin; 54 in 36 (CHART)RT alone; 54 in 36 (CHART).html" xlink:title="HattonRedJ2011 Grade_NotGood">
<text text-anchor="middle" x="1810.1" y="-68" font-family="Times New Roman,serif" font-size="14.00">HattonRedJ2011 Grade_NotGood</text>
</a>
</g>
</g>
<!-- Ind carbo&#45;paclitaxel; 57.6 in 36 -->
<g id="node53" class="node"><title>Ind carbo&#45;paclitaxel; 57.6 in 36</title>
<ellipse fill="none" stroke="black" cx="1358.91" cy="-51" rx="123.478" ry="18"/>
<text text-anchor="middle" x="1358.91" y="-47.3" font-family="Times New Roman,serif" font-size="14.00">Ind carbo&#45;paclitaxel; 57.6 in 36</text>
</g>
<!-- Ind carbo&#45;paclitaxol; 64 in 32 -->
<g id="node54" class="node"><title>Ind carbo&#45;paclitaxol; 64 in 32</title>
<ellipse fill="none" stroke="black" cx="1403.31" cy="-107.679" rx="117.779" ry="18"/>
<text text-anchor="middle" x="1403.31" y="-103.979" font-family="Times New Roman,serif" font-size="14.00">Ind carbo&#45;paclitaxol; 64 in 32</text>
</g>
<!-- Ind carbo&#45;paclitaxel; 57.6 in 36&#45;&gt;Ind carbo&#45;paclitaxol; 64 in 32 -->
<g id="edge35" class="edge"><title>Ind carbo&#45;paclitaxel; 57.6 in 36&#45;&gt;Ind carbo&#45;paclitaxol; 64 in 32</title>
<path fill="none" stroke="blue" d="M1379.26,-76.9847C1380.42,-78.4584 1381.58,-79.9407 1382.73,-81.4154"/>
<polygon fill="blue" stroke="blue" points="1381.88,-74.6472 1372.95,-68.9335 1376.37,-78.964 1381.88,-74.6472"/>
<polygon fill="blue" stroke="blue" points="1380.28,-83.9537 1389.2,-89.6674 1385.79,-79.6369 1380.28,-83.9537"/>
<g id="a_edge35&#45;label"><a xlink:href="./Ind carbo-paclitaxel; 57.6 in 36Ind carbo-paclitaxol; 64 in 32.html" xlink:title="BelaniJCO2005 Grade_NotGood">
<text text-anchor="middle" x="1474.5" y="-68" font-family="Times New Roman,serif" font-size="14.00">BelaniJCO2005 Grade_NotGood</text>
</a>
</g>
</g>
<!-- Ind carbo&#45;paclitaxel; 60 in 30 -->
<g id="node55" class="node"><title>Ind carbo&#45;paclitaxel; 60 in 30</title>
<ellipse fill="none" stroke="black" cx="576.449" cy="-1239" rx="116.18" ry="18"/>
<text text-anchor="middle" x="576.449" y="-1235.3" font-family="Times New Roman,serif" font-size="14.00">Ind carbo&#45;paclitaxel; 60 in 30</text>
</g>
<!-- Ind carbo&#45;paclitaxel; Conc paclitaxel; 60 in 30 -->
<g id="node56" class="node"><title>Ind carbo&#45;paclitaxel; Conc paclitaxel; 60 in 30</title>
<ellipse fill="none" stroke="black" cx="620.851" cy="-1295.68" rx="177.369" ry="18"/>
<text text-anchor="middle" x="620.851" y="-1291.98" font-family="Times New Roman,serif" font-size="14.00">Ind carbo&#45;paclitaxel; Conc paclitaxel; 60 in 30</text>
</g>
<!-- Ind carbo&#45;paclitaxel; 60 in 30&#45;&gt;Ind carbo&#45;paclitaxel; Conc paclitaxel; 60 in 30 -->
<g id="edge36" class="edge"><title>Ind carbo&#45;paclitaxel; 60 in 30&#45;&gt;Ind carbo&#45;paclitaxel; Conc paclitaxel; 60 in 30</title>
<path fill="none" stroke="blue" d="M596.806,-1264.98C597.96,-1266.46 599.121,-1267.94 600.277,-1269.42"/>
<polygon fill="blue" stroke="blue" points="599.421,-1262.65 590.498,-1256.93 593.91,-1266.96 599.421,-1262.65"/>
<polygon fill="blue" stroke="blue" points="597.819,-1271.95 606.741,-1277.67 603.329,-1267.64 597.819,-1271.95"/>
<g id="a_edge36&#45;label"><a xlink:href="./Ind carbo-paclitaxel; 60 in 30Ind carbo-paclitaxel; Conc paclitaxel; 60 in 30.html" xlink:title="HuberJCO2006 Grade_NotGood">
<text text-anchor="middle" x="692.041" y="-1256" font-family="Times New Roman,serif" font-size="14.00">HuberJCO2006 Grade_NotGood</text>
</a>
</g>
</g>
<!-- Ind carbo; 60 in 30 -->
<g id="node57" class="node"><title>Ind carbo; 60 in 30</title>
<ellipse fill="none" stroke="black" cx="681.227" cy="-370.595" rx="79.8859" ry="18"/>
<text text-anchor="middle" x="681.227" y="-366.895" font-family="Times New Roman,serif" font-size="14.00">Ind carbo; 60 in 30</text>
</g>
<!-- Ind carbo; 60 in 30&#45;&gt;RT alone; 60 in 30 -->
<g id="edge38" class="edge"><title>Ind carbo; 60 in 30&#45;&gt;RT alone; 60 in 30</title>
<path fill="none" stroke="blue" d="M693.932,-397.701C723.972,-461.788 799.106,-622.078 829.244,-686.375"/>
<polygon fill="blue" stroke="blue" points="697.06,-396.127 689.647,-388.558 690.722,-399.098 697.06,-396.127"/>
<polygon fill="blue" stroke="blue" points="826.104,-687.923 833.518,-695.492 832.442,-684.952 826.104,-687.923"/>
<g id="a_edge38&#45;label"><a xlink:href="./Ind carbo; 60 in 30RT alone; 60 in 30.html" xlink:title="BallRTOnc1999 Grade_NotGood">
<text text-anchor="middle" x="666.088" y="-530.838" font-family="Times New Roman,serif" font-size="14.00">BallRTOnc1999 Grade_NotGood</text>
</a>
</g>
</g>
<!-- Ind carbo; 60 in 30&#45;&gt;RT alone; 60 in 30 (BD) -->
<g id="edge39" class="edge"><title>Ind carbo; 60 in 30&#45;&gt;RT alone; 60 in 30 (BD)</title>
<path fill="none" stroke="blue" d="M766.225,-363.44C803.965,-360.263 848.65,-356.501 887.979,-353.19"/>
<polygon fill="blue" stroke="blue" points="765.924,-359.952 756.253,-364.279 766.512,-366.928 765.924,-359.952"/>
<polygon fill="blue" stroke="blue" points="888.448,-356.663 898.12,-352.337 887.861,-349.688 888.448,-356.663"/>
<g id="a_edge39&#45;label"><a xlink:href="./Ind carbo; 60 in 30RT alone; 60 in 30 (BD).html" xlink:title="BallRTOnc1999 Grade_NotGood">
<text text-anchor="middle" x="779.352" y="-347.115" font-family="Times New Roman,serif" font-size="14.00">BallRTOnc1999 Grade_NotGood</text>
</a>
</g>
</g>
<!-- Ind carbo; 60 in 30 (BD) -->
<g id="node59" class="node"><title>Ind carbo; 60 in 30 (BD)</title>
<ellipse fill="none" stroke="black" cx="817.656" cy="-183" rx="100.983" ry="18"/>
<text text-anchor="middle" x="817.656" y="-179.3" font-family="Times New Roman,serif" font-size="14.00">Ind carbo; 60 in 30 (BD)</text>
</g>
<!-- Ind carbo; 60 in 30 (BD)&#45;&gt;RT alone; 60 in 30 -->
<g id="edge41" class="edge"><title>Ind carbo; 60 in 30 (BD)&#45;&gt;RT alone; 60 in 30</title>
<path fill="none" stroke="blue" d="M818.96,-211.363C823.19,-303.407 836.508,-593.147 840.742,-685.272"/>
<polygon fill="blue" stroke="blue" points="822.451,-211.096 818.496,-201.268 815.459,-211.418 822.451,-211.096"/>
<polygon fill="blue" stroke="blue" points="837.257,-685.672 841.212,-695.501 844.249,-685.351 837.257,-685.672"/>
<g id="a_edge41&#45;label"><a xlink:href="./Ind carbo; 60 in 30 (BD)RT alone; 60 in 30.html" xlink:title="BallRTOnc1999 Grade_NotGood">
<text text-anchor="middle" x="734.351" y="-452.117" font-family="Times New Roman,serif" font-size="14.00">BallRTOnc1999 Grade_NotGood</text>
</a>
</g>
</g>
<!-- Ind carbo; 60 in 30 (BD)&#45;&gt;Ind carbo; 60 in 30 -->
<g id="edge40" class="edge"><title>Ind carbo; 60 in 30 (BD)&#45;&gt;Ind carbo; 60 in 30</title>
<path fill="none" stroke="blue" d="M798.62,-209.175C772.673,-244.853 726.46,-308.397 700.427,-344.193"/>
<polygon fill="blue" stroke="blue" points="801.524,-211.133 804.575,-200.987 795.862,-207.016 801.524,-211.133"/>
<polygon fill="blue" stroke="blue" points="697.32,-342.516 694.268,-352.662 702.981,-346.633 697.32,-342.516"/>
<g id="a_edge40&#45;label"><a xlink:href="./Ind carbo; 60 in 30 (BD)Ind carbo; 60 in 30.html" xlink:title="BallRTOnc1999 Grade_NotGood">
<text text-anchor="middle" x="845.024" y="-280.484" font-family="Times New Roman,serif" font-size="14.00">BallRTOnc1999 Grade_NotGood</text>
</a>
</g>
</g>
<!-- Ind carbo; 60 in 30 (BD)&#45;&gt;RT alone; 60 in 30 (BD) -->
<g id="edge42" class="edge"><title>Ind carbo; 60 in 30 (BD)&#45;&gt;RT alone; 60 in 30 (BD)</title>
<path fill="none" stroke="blue" d="M843.936,-207.97C875.912,-238.351 929.58,-289.343 961.583,-319.75"/>
<polygon fill="blue" stroke="blue" points="846.189,-205.282 836.528,-200.931 841.367,-210.356 846.189,-205.282"/>
<polygon fill="blue" stroke="blue" points="959.566,-322.661 969.227,-327.012 964.388,-317.587 959.566,-322.661"/>
<g id="a_edge42&#45;label"><a xlink:href="./Ind carbo; 60 in 30 (BD)RT alone; 60 in 30 (BD).html" xlink:title="BallRTOnc1999 Grade_NotGood">
<text text-anchor="middle" x="807.26" y="-252.66" font-family="Times New Roman,serif" font-size="14.00">BallRTOnc1999 Grade_NotGood</text>
</a>
</g>
</g>
<!-- Ind cis&#45;docetaxel; Conc docetaxel; 60 in 30 -->
<g id="node60" class="node"><title>Ind cis&#45;docetaxel; Conc docetaxel; 60 in 30</title>
<ellipse fill="none" stroke="black" cx="513.402" cy="-216" rx="168.97" ry="18"/>
<text text-anchor="middle" x="513.402" y="-212.3" font-family="Times New Roman,serif" font-size="14.00">Ind cis&#45;docetaxel; Conc docetaxel; 60 in 30</text>
</g>
<!-- Ind cis&#45;docetaxel; 60 in 30 -->
<g id="node61" class="node"><title>Ind cis&#45;docetaxel; 60 in 30</title>
<ellipse fill="none" stroke="black" cx="557.804" cy="-272.679" rx="106.681" ry="18"/>
<text text-anchor="middle" x="557.804" y="-268.979" font-family="Times New Roman,serif" font-size="14.00">Ind cis&#45;docetaxel; 60 in 30</text>
</g>
<!-- Ind cis&#45;docetaxel; Conc docetaxel; 60 in 30&#45;&gt;Ind cis&#45;docetaxel; 60 in 30 -->
<g id="edge43" class="edge"><title>Ind cis&#45;docetaxel; Conc docetaxel; 60 in 30&#45;&gt;Ind cis&#45;docetaxel; 60 in 30</title>
<path fill="none" stroke="blue" d="M534.103,-242.425C535.101,-243.698 536.102,-244.977 537.099,-246.25"/>
<polygon fill="blue" stroke="blue" points="536.618,-239.959 527.695,-234.246 531.107,-244.276 536.618,-239.959"/>
<polygon fill="blue" stroke="blue" points="534.615,-248.754 543.537,-254.467 540.125,-244.437 534.615,-248.754"/>
<g id="a_edge43&#45;label"><a xlink:href="./Ind cis-docetaxel; Conc docetaxel; 60 in 30Ind cis-docetaxel; 60 in 30.html" xlink:title="ScagliottiBJC2006 Grade_NotGood">
<text text-anchor="middle" x="434.101" y="-248.137" font-family="Times New Roman,serif" font-size="14.00">ScagliottiBJC2006 Grade_NotGood</text>
</a>
</g>
</g>
<!-- Ind cis&#45;vin; 60 in 30 -->
<g id="node62" class="node"><title>Ind cis&#45;vin; 60 in 30</title>
<ellipse fill="none" stroke="black" cx="385.89" cy="-841.8" rx="83.3857" ry="18"/>
<text text-anchor="middle" x="385.89" y="-838.1" font-family="Times New Roman,serif" font-size="14.00">Ind cis&#45;vin; 60 in 30</text>
</g>
<!-- Ind cis&#45;vin; 60 in 30&#45;&gt;RT alone; 60 in 30 -->
<g id="edge45" class="edge"><title>Ind cis&#45;vin; 60 in 30&#45;&gt;RT alone; 60 in 30</title>
<path fill="none" stroke="blue" d="M446.527,-824.771C534.279,-800.126 695.665,-754.802 782.694,-730.361"/>
<polygon fill="blue" stroke="blue" points="445.57,-821.404 436.889,-827.478 447.463,-828.143 445.57,-821.404"/>
<polygon fill="blue" stroke="blue" points="783.735,-733.704 792.416,-727.63 781.842,-726.965 783.735,-733.704"/>
<g id="a_edge45&#45;label"><a xlink:href="./Ind cis-vin; 60 in 30RT alone; 60 in 30.html" xlink:title="SauseChest2000 Grade_NotGood">
<text text-anchor="middle" x="518.11" y="-781.366" font-family="Times New Roman,serif" font-size="14.00">SauseChest2000 Grade_NotGood</text>
</a>
</g>
</g>
<!-- RT alone 69.6 in 58 (BD) -->
<g id="node63" class="node"><title>RT alone 69.6 in 58 (BD)</title>
<ellipse fill="none" stroke="black" cx="381.108" cy="-607.827" rx="102.882" ry="18"/>
<text text-anchor="middle" x="381.108" y="-604.127" font-family="Times New Roman,serif" font-size="14.00">RT alone 69.6 in 58 (BD)</text>
</g>
<!-- Ind cis&#45;vin; 60 in 30&#45;&gt;RT alone 69.6 in 58 (BD) -->
<g id="edge44" class="edge"><title>Ind cis&#45;vin; 60 in 30&#45;&gt;RT alone 69.6 in 58 (BD)</title>
<path fill="none" stroke="blue" d="M385.307,-813.279C384.387,-768.279 382.61,-681.311 381.69,-636.326"/>
<polygon fill="blue" stroke="blue" points="381.811,-813.514 385.515,-823.441 388.809,-813.371 381.811,-813.514"/>
<polygon fill="blue" stroke="blue" points="385.185,-636.028 381.481,-626.101 378.186,-636.171 385.185,-636.028"/>
<g id="a_edge44&#45;label"><a xlink:href="./Ind cis-vin; 60 in 30RT alone 69.6 in 58 (BD).html" xlink:title="SauseChest2000 Grade_NotGood">
<text text-anchor="middle" x="286.999" y="-728.602" font-family="Times New Roman,serif" font-size="14.00">SauseChest2000 Grade_NotGood</text>
</a>
</g>
</g>
<!-- RT alone 69.6 in 58 (BD)&#45;&gt;RT alone; 60 in 30 -->
<g id="edge48" class="edge"><title>RT alone 69.6 in 58 (BD)&#45;&gt;RT alone; 60 in 30</title>
<path fill="none" stroke="blue" d="M453.579,-624.472C542.401,-644.872 691.591,-679.136 776.921,-698.734"/>
<polygon fill="blue" stroke="blue" points="454.282,-621.042 443.752,-622.215 452.715,-627.864 454.282,-621.042"/>
<polygon fill="blue" stroke="blue" points="776.219,-702.164 786.749,-700.991 777.786,-695.341 776.219,-702.164"/>
<g id="a_edge48&#45;label"><a xlink:href="./RT alone 69.6 in 58 (BD)RT alone; 60 in 30.html" xlink:title="SauseChest2000 Grade_NotGood">
<text text-anchor="middle" x="518.75" y="-665.403" font-family="Times New Roman,serif" font-size="14.00">SauseChest2000 Grade_NotGood</text>
</a>
</g>
</g>
<!-- RT alone 54 in 36 TDS -->
<g id="node65" class="node"><title>RT alone 54 in 36 TDS</title>
<ellipse fill="none" stroke="black" cx="832.237" cy="-1226.55" rx="95.5831" ry="18"/>
<text text-anchor="middle" x="832.237" y="-1222.85" font-family="Times New Roman,serif" font-size="14.00">RT alone 54 in 36 TDS</text>
</g>
<!-- RT alone 54 in 36 TDS&#45;&gt;RT alone; 60 in 30 -->
<g id="edge47" class="edge"><title>RT alone 54 in 36 TDS&#45;&gt;RT alone; 60 in 30</title>
<path fill="none" stroke="blue" d="M832.779,-1198.18C834.496,-1108.44 839.795,-831.461 841.508,-741.924"/>
<polygon fill="blue" stroke="blue" points="829.278,-1198.23 832.586,-1208.3 836.276,-1198.37 829.278,-1198.23"/>
<polygon fill="blue" stroke="blue" points="845.011,-741.791 841.703,-731.726 838.013,-741.657 845.011,-741.791"/>
<g id="a_edge47&#45;label"><a xlink:href="./RT alone 54 in 36 TDSRT alone; 60 in 30.html" xlink:title="CHART Grade_NotGood">
<text text-anchor="middle" x="763.144" y="-973.85" font-family="Times New Roman,serif" font-size="14.00">CHART Grade_NotGood</text>
</a>
</g>
</g>
<!-- RT alone 72 in 40 5 days a week -->
<g id="node66" class="node"><title>RT alone 72 in 40 5 days a week</title>
<ellipse fill="none" stroke="black" cx="770.755" cy="-1404" rx="129.177" ry="18"/>
<text text-anchor="middle" x="770.755" y="-1400.3" font-family="Times New Roman,serif" font-size="14.00">RT alone 72 in 40 5 days a week</text>
</g>
<!-- RT alone 72 in 40; 7days a week -->
<g id="node67" class="node"><title>RT alone 72 in 40; 7days a week</title>
<ellipse fill="none" stroke="black" cx="815.157" cy="-1460.68" rx="129.177" ry="18"/>
<text text-anchor="middle" x="815.157" y="-1456.98" font-family="Times New Roman,serif" font-size="14.00">RT alone 72 in 40; 7days a week</text>
</g>
<!-- RT alone 72 in 40 5 days a week&#45;&gt;RT alone 72 in 40; 7days a week -->
<g id="edge49" class="edge"><title>RT alone 72 in 40 5 days a week&#45;&gt;RT alone 72 in 40; 7days a week</title>
<path fill="none" stroke="red" d="M784.804,-1421.93C787.963,-1425.97 791.377,-1430.32 794.736,-1434.61"/>
<polygon fill="red" stroke="red" points="792.125,-1436.95 801.047,-1442.67 797.635,-1432.64 792.125,-1436.95"/>
<g id="a_edge49&#45;label"><a xlink:href="./RT alone 72 in 40 5 days a weekRT alone 72 in 40; 7days a week.html" xlink:title="Zajusz et al. ">
<text text-anchor="middle" x="754.77" y="-1432.07" font-family="Times New Roman,serif" font-size="14.00">Zajusz et al. </text>
</a>
</g>
</g>
<!-- RT alone; 60 in 40 TID (not weekend) -->
<g id="node68" class="node"><title>RT alone; 60 in 40 TID (not weekend)</title>
<ellipse fill="none" stroke="black" cx="1714.9" cy="-1437" rx="149.473" ry="18"/>
<text text-anchor="middle" x="1714.9" y="-1433.3" font-family="Times New Roman,serif" font-size="14.00">RT alone; 60 in 40 TID (not weekend)</text>
</g>
<!-- RT alone; 66 in 33 -->
<g id="node69" class="node"><title>RT alone; 66 in 33</title>
<ellipse fill="none" stroke="black" cx="1759.31" cy="-1493.68" rx="77.9862" ry="18"/>
<text text-anchor="middle" x="1759.31" y="-1489.98" font-family="Times New Roman,serif" font-size="14.00">RT alone; 66 in 33</text>
</g>
<!-- RT alone; 60 in 40 TID (not weekend)&#45;&gt;RT alone; 66 in 33 -->
<g id="edge52" class="edge"><title>RT alone; 60 in 40 TID (not weekend)&#45;&gt;RT alone; 66 in 33</title>
<path fill="none" stroke="blue" d="M1735.26,-1462.98C1736.41,-1464.46 1737.58,-1465.94 1738.73,-1467.42"/>
<polygon fill="blue" stroke="blue" points="1737.87,-1460.65 1728.95,-1454.93 1732.36,-1464.96 1737.87,-1460.65"/>
<polygon fill="blue" stroke="blue" points="1736.27,-1469.95 1745.2,-1475.67 1741.78,-1465.64 1736.27,-1469.95"/>
<g id="a_edge52&#45;label"><a xlink:href="./RT alone; 60 in 40 TID (not weekend)RT alone; 66 in 33.html" xlink:title="BaumannGreenJ2011 Grade_NotGood">
<text text-anchor="middle" x="1628" y="-1469" font-family="Times New Roman,serif" font-size="14.00">BaumannGreenJ2011 Grade_NotGood</text>
</a>
</g>
</g>
</g>
</svg>
