digraph superioritygraph {

overlap=scale;

labelloc = t


"Bev Iri; HD RT"->"TMZ Bev; HD RT" [label = "HoflandKFActaOncol2014 " labelURL = "./Bev Iri; HD RTTMZ Bev; HD RT.html",  dir = "both"  color="blue"];
"Pall RT"->"HD RT" [label = "MalmstromALancetOncol2012_BC " labelURL = "./HD RTPall RT.html",  color="red"];
"TMZ"->"HD RT" [label = "MalmstromALancetOncol2012_AC, WickWLancetOncol2012 " labelURL = "./HD RTTMZ.html",  color="red"];
"TMZ CRA; HD RT"->"HD RT" [label = "AthanassiouHJClinOncol2005 " labelURL = "./HD RTTMZ CRA; HD RT.html",  color="red"];
"TMZ; HD RT"->"HD RT" [label = "StuppRLancetOncol2009, SzczepanekDNeurolNeurochirPol2013, StuppRNEnglJMed2005, KocherMStrahlentherapieundOnkol2008 " labelURL = "./HD RTTMZ; HD RT.html",  color="red"];
"TMZ"->"Pall RT" [label = "MalmstromALancetOncol2012_AB " labelURL = "./TMZPall RT.html",  color="red"];
"TMZ ACNU Cis; HD RT"->"TMZ; HD RT" [label = "KimlHJNeurooncol2011 " labelURL = "./TMZ ACNU Cis; HD RTTMZ; HD RT.html",  color="red"];
"TMZ Bev Iri; HD RT"->"TMZ; HD RT" [label = "ChauffertBAnnOncol2014 " labelURL = "./TMZ Bev Iri; HD RTTMZ; HD RT.html",  dir = "both"  color="blue"];
"TMZ Bev; HD RT"->"TMZ; HD RT" [label = "ChinotOLNEnglJMed2014, GilbertMRJClinOncol2014 " labelURL = "./TMZ Bev; HD RTTMZ; HD RT.html",  color="red"];
"TMZ CRA Cel; HD RT"->"TMZ CRA Cel Thal; HD RT" [label = "Penas-PradoMNeuroOncol2015_DG " labelURL = "./TMZ CRA Cel Thal; HD RTTMZ CRA Cel; HD RT.html",  color="red"];
"TMZ CRA Cel Thal; HD RT"->"TMZ CRA Thal; HD RT" [label = "Penas-PradoMNeuroOncol2015_FG, Penas-PradoMNeuroOncol2015_EG " labelURL = "./TMZ CRA Cel Thal; HD RTTMZ CRA Thal; HD RT.html",  dir = "both"  color="blue"];
"TMZ CRA Cel Thal; HD RT"->"TMZ CRA; HD RT" [label = "Penas-PradoMNeuroOncol2015_AG " labelURL = "./TMZ CRA Cel Thal; HD RTTMZ CRA; HD RT.html",  color="red"];
"TMZ CRA Cel Thal; HD RT"->"TMZ Cel; HD RT" [label = "Penas-PradoMNeuroOncol2015_BG " labelURL = "./TMZ CRA Cel Thal; HD RTTMZ Cel; HD RT.html",  color="red"];
"TMZ CRA Cel Thal; HD RT"->"TMZ Thal; HD RT" [label = "Penas-PradoMNeuroOncol2015_CG " labelURL = "./TMZ CRA Cel Thal; HD RTTMZ Thal; HD RT.html",  color="red"];
"TMZ; HD RT"->"TMZ CRA Cel Thal; HD RT" [label = "Penas-PradoMNeuroOncol2015_GH " labelURL = "./TMZ CRA Cel Thal; HD RTTMZ; HD RT.html",  color="red"];
"TMZ CRA Cel; HD RT"->"TMZ CRA; HD RT" [label = "Penas-PradoMNeuroOncol2015_AD " labelURL = "./TMZ CRA Cel; HD RTTMZ CRA; HD RT.html",  color="red"];
"TMZ CRA Cel; HD RT"->"TMZ Cel Thal; HD RT" [label = "Penas-PradoMNeuroOncol2015_DF " labelURL = "./TMZ CRA Cel; HD RTTMZ Cel Thal; HD RT.html",  color="red"];
"TMZ CRA Cel; HD RT"->"TMZ Cel; HD RT" [label = "Penas-PradoMNeuroOncol2015_BD " labelURL = "./TMZ CRA Cel; HD RTTMZ Cel; HD RT.html",  color="red"];
"TMZ CRA Cel; HD RT"->"TMZ Thal; HD RT" [label = "Penas-PradoMNeuroOncol2015_CD " labelURL = "./TMZ CRA Cel; HD RTTMZ Thal; HD RT.html",  color="red"];
"TMZ CRA Cel; HD RT"->"TMZ; HD RT" [label = "Penas-PradoMNeuroOncol2015_DH " labelURL = "./TMZ CRA Cel; HD RTTMZ; HD RT.html",  color="red"];
"TMZ CRA Cel; HD RT"->"TMZ CRA Thal; HD RT" [label = "Penas-PradoMNeuroOncol2015_DE " labelURL = "./TMZ CRA Thal; HD RTTMZ CRA Cel; HD RT.html",  color="red"];
"TMZ CRA Thal; HD RT"->"TMZ CRA; HD RT" [label = "Penas-PradoMNeuroOncol2015_AE " labelURL = "./TMZ CRA Thal; HD RTTMZ CRA; HD RT.html",  color="red"];
"TMZ Cel Thal; HD RT"->"TMZ CRA Thal; HD RT" [label = "Penas-PradoMNeuroOncol2015_EF " labelURL = "./TMZ CRA Thal; HD RTTMZ Cel Thal; HD RT.html",  color="red"];
"TMZ Cel; HD RT"->"TMZ CRA Thal; HD RT" [label = "Penas-PradoMNeuroOncol2015_BE " labelURL = "./TMZ CRA Thal; HD RTTMZ Cel; HD RT.html",  color="red"];
"TMZ CRA Thal; HD RT"->"TMZ Thal; HD RT" [label = "Penas-PradoMNeuroOncol2015_CE " labelURL = "./TMZ CRA Thal; HD RTTMZ Thal; HD RT.html",  color="red"];
"TMZ; HD RT"->"TMZ CRA Thal; HD RT" [label = "Penas-PradoMNeuroOncol2015_EH " labelURL = "./TMZ CRA Thal; HD RTTMZ; HD RT.html",  color="red"];
"TMZ Cel; HD RT"->"TMZ CRA; HD RT" [label = "Penas-PradoMNeuroOncol2015_AB " labelURL = "./TMZ CRA; HD RTTMZ Cel; HD RT.html",  color="red"];
"TMZ Thal; HD RT"->"TMZ CRA; HD RT" [label = "Penas-PradoMNeuroOncol2015_AC " labelURL = "./TMZ CRA; HD RTTMZ Thal; HD RT.html",  color="red"];
"TMZ; HD RT"->"TMZ CRA; HD RT" [label = "Penas-PradoMNeuroOncol2015_AH " labelURL = "./TMZ CRA; HD RTTMZ; HD RT.html",  color="red"];
"TMZ Cel Thal; HD RT"->"TMZ CRA; HD RT" [label = "Penas-PradoMNeuroOncol2015_AF " labelURL = "./TMZ Cel Thal; HD RTTMZ CRA; HD RT.html",  color="red"];
"TMZ Cel Thal; HD RT"->"TMZ Cel; HD RT" [label = "Penas-PradoMNeuroOncol2015_BF " labelURL = "./TMZ Cel Thal; HD RTTMZ Cel; HD RT.html",  color="red"];
"TMZ Cel Thal; HD RT"->"TMZ Thal; HD RT" [label = "Penas-PradoMNeuroOncol2015_CF " labelURL = "./TMZ Cel Thal; HD RTTMZ Thal; HD RT.html",  color="red"];
"TMZ; HD RT"->"TMZ Cel Thal; HD RT" [label = "Penas-PradoMNeuroOncol2015_FH " labelURL = "./TMZ Cel Thal; HD RTTMZ; HD RT.html",  color="red"];
"TMZ Cel; HD RT"->"TMZ Thal; HD RT" [label = "Penas-PradoMNeuroOncol2015_BC " labelURL = "./TMZ Cel; HD RTTMZ Thal; HD RT.html",  color="red"];
"TMZ; HD RT"->"TMZ Cel; HD RT" [label = "Penas-PradoMNeuroOncol2015_BH " labelURL = "./TMZ Cel; HD RTTMZ; HD RT.html",  color="red"];
"TMZ Cil; HD RT"->"TMZ Cil; HD RT" [label = "NaborsLBCancer2012 " labelURL = "./TMZ Cil; HD RTTMZ Cil; HD RT.html",  color="red"];
"TMZ DCV; HD RT"->"TMZ; HD RT" [label = "ChoDYWorldNeurosurg2012 " labelURL = "./TMZ DCV; HD RTTMZ; HD RT.html",  color="red"];
"TMZ Nimo; HD RT"->"TMZ; HD RT" [label = "WestphalMEurJCancer2015, HongJExpTherMed2012 " labelURL = "./TMZ Nimo; HD RTTMZ; HD RT.html",  color="red"];
"TMZ TTF; HD RT"->"TMZ; HD RT" [label = "StuppRJAMA2015 " labelURL = "./TMZ TTF; HD RTTMZ; HD RT.html",  color="red"];
"TMZ; HD RT"->"TMZ Thal; HD RT" [label = "Penas-PradoMNeuroOncol2015_CH " labelURL = "./TMZ Thal; HD RTTMZ; HD RT.html",  color="red"];
"TMZ Val; HD RT"->"TMZ; HD RT" [label = "StragliottoGIntJCancer2013 " labelURL = "./TMZ Val; HD RTTMZ; HD RT.html",  color="red"];
"TMZ Van; HD RT"->"TMZ; HD RT" [label = "LeeEQClinCancerRes2015 " labelURL = "./TMZ Van; HD RTTMZ; HD RT.html",  color="red"];
"TMZ; HD RT"->"mCCNU; HD RT" [label = "WangXAnnSurgOncol2014 " labelURL = "./TMZ; HD RTmCCNU; HD RT.html",  color="red"];
"TMZ; HD RT"->"Tamox; HD RT" [label = "ZhouSBAsianPacJCancerPrev2015 " labelURL = "./Tamox; HD RTTMZ; HD RT.html",  color="red"];

}
