digraph superioritygraph {

overlap=scale;

labelloc = t


"Adj TMZ; 45-60 in 23-33"->"Adj mCCNU; 45-60 in 23-33" [label = "WangXAnnSurgOncol2014 " labelURL = "./Adj mCCNU; 45-60 in 23-33Adj TMZ; 45-60 in 23-33.html",  color="red"];
"Conc Pac Adj TMZ; 60 in 30"->"Conc TMZ Adj TMZ; 60 in 30" [label = "ElinzanoHAmJClinOncol2015 nonStatSig" labelURL = "./Conc Pac Adj TMZ; 60 in 30Conc TMZ Adj TMZ; 60 in 30.html",  dir = "both"  color="blue"];
"Conc TMZ 100 Adj Ext TMZ (B) DCV; 60 in 30"->"Conc TMZ 100 Adj Ext TMZ (B); 60 in 30" [label = "ChoDYWorldNeurosurg2012 nonStatSig" labelURL = "./Conc TMZ 100 Adj Ext TMZ (B) DCV; 60 in 30Conc TMZ 100 Adj Ext TMZ (B); 60 in 30.html",  color="red"];
"Conc TMZ Adj TMZ DD 150 CRA 100; 60 in 30"->"Conc TMZ Adj TMZ DD 50 CRA 100; 60 in 30" [label = "ClarkeJLJClinOncol2009 nonStatSig" labelURL = "./Conc TMZ Adj TMZ DD 150 CRA 100; 60 in 30Conc TMZ Adj TMZ DD 50 CRA 100; 60 in 30.html",  dir = "both"  color="blue"];
"Conc TMZ Adj TMZ; 60 in 30"->"RT alone; 60 in 30" [label = "StuppRLancetOncol2009 nonStatSig" labelURL = "./Conc TMZ Adj TMZ; 60 in 30RT alone; 60 in 30.html",  color="red"];
"Conc TMZ Adj Val; 60 in 30"->"Conc TMZ; 60 in 30" [label = "StragliottoGIntJCancer2013 nonStatSig" labelURL = "./Conc TMZ Adj Val; 60 in 30Conc TMZ; 60 in 30.html",  dir = "both"  color="blue"];
"Conc TMZ Int; 60 in 30"->"Conc TMZ; 60 in 30" [label = "GaberMCancerManagRes2013 nonStatSig" labelURL = "./Conc TMZ Int; 60 in 30Conc TMZ; 60 in 30.html",  dir = "both"  color="blue"];
"Conc TMZ; 56-60 in 28-30"->"Conc Tamox; 56-60 in 28-30" [label = "ZhouSBAsianPacJCancerPrev2015 nonStatSig" labelURL = "./Conc TMZ; 56-60 in 28-30Conc Tamox; 56-60 in 28-30.html",  dir = "both"  color="blue"];

}
