digraph superioritygraph {

overlap=scale;

labelloc = t


"Adj TMZ; 45-60 in 23-33"->"Adj mCCNU; 45-60 in 23-33" [label = "WangXAnnSurgOncol2014 Grade_NotGood" labelURL = "./Adj TMZ; 45-60 in 23-33Adj mCCNU; 45-60 in 23-33.html",  dir = "both"  color="blue"];
"Ind ACNU Cis Adj TMZ; 60-61.2 in 30-34"->"Adj TMZ; 60-61.2 in 30-34" [label = "KimlHJNeurooncol2011 " labelURL = "./Adj TMZ; 60-61.2 in 30-34Ind ACNU Cis Adj TMZ; 60-61.2 in 30-34.html",  color="red"];
"Conc TMZ 100 Adj Ext TMZ (B) DCV; 60 in 30"->"Conc TMZ 100 Adj Ext TMZ (B); 60 in 30" [label = "ChoDYWorldNeurosurg2012 " labelURL = "./Conc TMZ 100 Adj Ext TMZ (B) DCV; 60 in 30Conc TMZ 100 Adj Ext TMZ (B); 60 in 30.html",  color="red"];
"Conc TMZ Adj Ext TMZ (A) TTF; 60 in 30"->"Conc TMZ Adj Ext TMZ (A); 60 in 30" [label = "StuppRJAMA2015 " labelURL = "./Conc TMZ Adj Ext TMZ (A) TTF; 60 in 30Conc TMZ Adj Ext TMZ (A); 60 in 30.html",  color="red"];
"Conc TMZ Adj Ext TMZ (A); 60 in 30"->"Conc TMZ Adj TMZ DD 75-100; 60 in 30" [label = "GilbertMRJClinOncol2013 " labelURL = "./Conc TMZ Adj Ext TMZ (A); 60 in 30Conc TMZ Adj TMZ DD 75-100; 60 in 30.html",  color="red"];
"Conc TMZ Adj Ext TMZ (A); 60 in 30"->"Conc TMZ Bev (B) Adj TMZ Bev (B); 60 in 30" [label = "GilbertMRJClinOncol2014 Grade_NotGood" labelURL = "./Conc TMZ Adj Ext TMZ (A); 60 in 30Conc TMZ Bev (B) Adj TMZ Bev (B); 60 in 30.html",  dir = "both"  color="blue"];
"Conc TMZ Adj Ext TMZ (C); 60 in 30-33"->"Ind Van Conc TMZ Van Adj TMZ Van; 60 in 30-33" [label = "LeeEQClinCancerRes2015 Grade_NotGood" labelURL = "./Conc TMZ Adj Ext TMZ (C); 60 in 30-33Ind Van Conc TMZ Van Adj TMZ Van; 60 in 30-33.html",  dir = "both"  color="blue"];
"Conc TMZ Adj TMZ DD 150 CRA 100; 60 in 30"->"Conc TMZ Adj TMZ DD 50 CRA 100; 60 in 30" [label = "ClarkeJLJClinOncol2009 " labelURL = "./Conc TMZ Adj TMZ DD 150 CRA 100; 60 in 30Conc TMZ Adj TMZ DD 50 CRA 100; 60 in 30.html",  color="red"];
"Conc TMZ Adj TMZ DD 150 CRA 100; 60 in 30"->"RT alone; 60 in 30" [label = "AthanassiouHJClinOncol2005 Grade_NotGood" labelURL = "./Conc TMZ Adj TMZ DD 150 CRA 100; 60 in 30RT alone; 60 in 30.html",  dir = "both"  color="blue"];
"Conc TMZ Adj TMZ DD 150 CRA 40; 60 in 30"->"Conc TMZ Adj TMZ DD 150 CRA Cel Thal; 60 in 30" [label = "Penas-PradoMNeuroOncol2015_AG Grade_NotGood" labelURL = "./Conc TMZ Adj TMZ DD 150 CRA 40; 60 in 30Conc TMZ Adj TMZ DD 150 CRA Cel Thal; 60 in 30.html",  dir = "both"  color="blue"];
"Conc TMZ Adj TMZ DD 150 CRA 40; 60 in 30"->"Conc TMZ Adj TMZ DD 150 CRA Cel; 60 in 30" [label = "Penas-PradoMNeuroOncol2015_AD Grade_NotGood" labelURL = "./Conc TMZ Adj TMZ DD 150 CRA 40; 60 in 30Conc TMZ Adj TMZ DD 150 CRA Cel; 60 in 30.html",  dir = "both"  color="blue"];
"Conc TMZ Adj TMZ DD 150 CRA 40; 60 in 30"->"Conc TMZ Adj TMZ DD 150 CRA Thal; 60 in 30" [label = "Penas-PradoMNeuroOncol2015_AE Grade_NotGood" labelURL = "./Conc TMZ Adj TMZ DD 150 CRA 40; 60 in 30Conc TMZ Adj TMZ DD 150 CRA Thal; 60 in 30.html",  dir = "both"  color="blue"];
"Conc TMZ Adj TMZ DD 150 CRA 40; 60 in 30"->"Conc TMZ Adj TMZ DD 150 Cel Thal; 60 in 30" [label = "Penas-PradoMNeuroOncol2015_AF Grade_NotGood" labelURL = "./Conc TMZ Adj TMZ DD 150 CRA 40; 60 in 30Conc TMZ Adj TMZ DD 150 Cel Thal; 60 in 30.html",  dir = "both"  color="blue"];
"Conc TMZ Adj TMZ DD 150 CRA 40; 60 in 30"->"Conc TMZ Adj TMZ DD 150 Cel; 60 in 30" [label = "Penas-PradoMNeuroOncol2015_AB Grade_NotGood" labelURL = "./Conc TMZ Adj TMZ DD 150 CRA 40; 60 in 30Conc TMZ Adj TMZ DD 150 Cel; 60 in 30.html",  dir = "both"  color="blue"];
"Conc TMZ Adj TMZ DD 150 CRA 40; 60 in 30"->"Conc TMZ Adj TMZ DD 150 Thal; 60 in 30" [label = "Penas-PradoMNeuroOncol2015_AC Grade_NotGood" labelURL = "./Conc TMZ Adj TMZ DD 150 CRA 40; 60 in 30Conc TMZ Adj TMZ DD 150 Thal; 60 in 30.html",  dir = "both"  color="blue"];
"Conc TMZ Adj TMZ DD 150 CRA 40; 60 in 30"->"Conc TMZ Adj TMZ DD 150; 60 in 30" [label = "Penas-PradoMNeuroOncol2015_AH Grade_NotGood" labelURL = "./Conc TMZ Adj TMZ DD 150 CRA 40; 60 in 30Conc TMZ Adj TMZ DD 150; 60 in 30.html",  dir = "both"  color="blue"];
"Conc TMZ Adj TMZ DD 150 CRA Cel Thal; 60 in 30"->"Conc TMZ Adj TMZ DD 150 CRA Thal; 60 in 30" [label = "Penas-PradoMNeuroOncol2015_EG Grade_NotGood" labelURL = "./Conc TMZ Adj TMZ DD 150 CRA Cel Thal; 60 in 30Conc TMZ Adj TMZ DD 150 CRA Thal; 60 in 30.html",  dir = "both"  color="blue"];
"Conc TMZ Adj TMZ DD 150 CRA Cel Thal; 60 in 30"->"Conc TMZ Adj TMZ DD 150 Cel Thal; 60 in 30" [label = "Penas-PradoMNeuroOncol2015_FG Grade_NotGood" labelURL = "./Conc TMZ Adj TMZ DD 150 CRA Cel Thal; 60 in 30Conc TMZ Adj TMZ DD 150 Cel Thal; 60 in 30.html",  dir = "both"  color="blue"];
"Conc TMZ Adj TMZ DD 150 CRA Cel Thal; 60 in 30"->"Conc TMZ Adj TMZ DD 150 Cel; 60 in 30" [label = "Penas-PradoMNeuroOncol2015_BG Grade_NotGood" labelURL = "./Conc TMZ Adj TMZ DD 150 CRA Cel Thal; 60 in 30Conc TMZ Adj TMZ DD 150 Cel; 60 in 30.html",  dir = "both"  color="blue"];
"Conc TMZ Adj TMZ DD 150 CRA Cel Thal; 60 in 30"->"Conc TMZ Adj TMZ DD 150 Thal; 60 in 30" [label = "Penas-PradoMNeuroOncol2015_CG Grade_NotGood" labelURL = "./Conc TMZ Adj TMZ DD 150 CRA Cel Thal; 60 in 30Conc TMZ Adj TMZ DD 150 Thal; 60 in 30.html",  dir = "both"  color="blue"];
"Conc TMZ Adj TMZ DD 150 CRA Cel Thal; 60 in 30"->"Conc TMZ Adj TMZ DD 150; 60 in 30" [label = "Penas-PradoMNeuroOncol2015_GH Grade_NotGood" labelURL = "./Conc TMZ Adj TMZ DD 150 CRA Cel Thal; 60 in 30Conc TMZ Adj TMZ DD 150; 60 in 30.html",  dir = "both"  color="blue"];
"Conc TMZ Adj TMZ DD 150 CRA Cel; 60 in 30"->"Conc TMZ Adj TMZ DD 150 CRA Cel Thal; 60 in 30" [label = "Penas-PradoMNeuroOncol2015_DG Grade_NotGood" labelURL = "./Conc TMZ Adj TMZ DD 150 CRA Cel; 60 in 30Conc TMZ Adj TMZ DD 150 CRA Cel Thal; 60 in 30.html",  dir = "both"  color="blue"];
"Conc TMZ Adj TMZ DD 150 CRA Cel; 60 in 30"->"Conc TMZ Adj TMZ DD 150 CRA Thal; 60 in 30" [label = "Penas-PradoMNeuroOncol2015_DE Grade_NotGood" labelURL = "./Conc TMZ Adj TMZ DD 150 CRA Cel; 60 in 30Conc TMZ Adj TMZ DD 150 CRA Thal; 60 in 30.html",  dir = "both"  color="blue"];
"Conc TMZ Adj TMZ DD 150 CRA Cel; 60 in 30"->"Conc TMZ Adj TMZ DD 150 Cel Thal; 60 in 30" [label = "Penas-PradoMNeuroOncol2015_DF Grade_NotGood" labelURL = "./Conc TMZ Adj TMZ DD 150 CRA Cel; 60 in 30Conc TMZ Adj TMZ DD 150 Cel Thal; 60 in 30.html",  dir = "both"  color="blue"];
"Conc TMZ Adj TMZ DD 150 CRA Cel; 60 in 30"->"Conc TMZ Adj TMZ DD 150 Cel; 60 in 30" [label = "Penas-PradoMNeuroOncol2015_BD Grade_NotGood" labelURL = "./Conc TMZ Adj TMZ DD 150 CRA Cel; 60 in 30Conc TMZ Adj TMZ DD 150 Cel; 60 in 30.html",  dir = "both"  color="blue"];
"Conc TMZ Adj TMZ DD 150 CRA Cel; 60 in 30"->"Conc TMZ Adj TMZ DD 150 Thal; 60 in 30" [label = "Penas-PradoMNeuroOncol2015_CD Grade_NotGood" labelURL = "./Conc TMZ Adj TMZ DD 150 CRA Cel; 60 in 30Conc TMZ Adj TMZ DD 150 Thal; 60 in 30.html",  dir = "both"  color="blue"];
"Conc TMZ Adj TMZ DD 150 CRA Cel; 60 in 30"->"Conc TMZ Adj TMZ DD 150; 60 in 30" [label = "Penas-PradoMNeuroOncol2015_DH Grade_NotGood" labelURL = "./Conc TMZ Adj TMZ DD 150 CRA Cel; 60 in 30Conc TMZ Adj TMZ DD 150; 60 in 30.html",  dir = "both"  color="blue"];
"Conc TMZ Adj TMZ DD 150 CRA Thal; 60 in 30"->"Conc TMZ Adj TMZ DD 150 Cel; 60 in 30" [label = "Penas-PradoMNeuroOncol2015_BE Grade_NotGood" labelURL = "./Conc TMZ Adj TMZ DD 150 CRA Thal; 60 in 30Conc TMZ Adj TMZ DD 150 Cel; 60 in 30.html",  dir = "both"  color="blue"];
"Conc TMZ Adj TMZ DD 150 CRA Thal; 60 in 30"->"Conc TMZ Adj TMZ DD 150 Thal; 60 in 30" [label = "Penas-PradoMNeuroOncol2015_CE Grade_NotGood" labelURL = "./Conc TMZ Adj TMZ DD 150 CRA Thal; 60 in 30Conc TMZ Adj TMZ DD 150 Thal; 60 in 30.html",  dir = "both"  color="blue"];
"Conc TMZ Adj TMZ DD 150 CRA Thal; 60 in 30"->"Conc TMZ Adj TMZ DD 150; 60 in 30" [label = "Penas-PradoMNeuroOncol2015_EH Grade_NotGood" labelURL = "./Conc TMZ Adj TMZ DD 150 CRA Thal; 60 in 30Conc TMZ Adj TMZ DD 150; 60 in 30.html",  dir = "both"  color="blue"];
"Conc TMZ Adj TMZ DD 150 Cel Thal; 60 in 30"->"Conc TMZ Adj TMZ DD 150 CRA Thal; 60 in 30" [label = "Penas-PradoMNeuroOncol2015_EF Grade_NotGood" labelURL = "./Conc TMZ Adj TMZ DD 150 Cel Thal; 60 in 30Conc TMZ Adj TMZ DD 150 CRA Thal; 60 in 30.html",  dir = "both"  color="blue"];
"Conc TMZ Adj TMZ DD 150 Cel Thal; 60 in 30"->"Conc TMZ Adj TMZ DD 150 Cel; 60 in 30" [label = "Penas-PradoMNeuroOncol2015_BF Grade_NotGood" labelURL = "./Conc TMZ Adj TMZ DD 150 Cel Thal; 60 in 30Conc TMZ Adj TMZ DD 150 Cel; 60 in 30.html",  dir = "both"  color="blue"];
"Conc TMZ Adj TMZ DD 150 Cel Thal; 60 in 30"->"Conc TMZ Adj TMZ DD 150 Thal; 60 in 30" [label = "Penas-PradoMNeuroOncol2015_CF Grade_NotGood" labelURL = "./Conc TMZ Adj TMZ DD 150 Cel Thal; 60 in 30Conc TMZ Adj TMZ DD 150 Thal; 60 in 30.html",  dir = "both"  color="blue"];
"Conc TMZ Adj TMZ DD 150 Cel Thal; 60 in 30"->"Conc TMZ Adj TMZ DD 150; 60 in 30" [label = "Penas-PradoMNeuroOncol2015_FH Grade_NotGood" labelURL = "./Conc TMZ Adj TMZ DD 150 Cel Thal; 60 in 30Conc TMZ Adj TMZ DD 150; 60 in 30.html",  dir = "both"  color="blue"];
"Conc TMZ Adj TMZ DD 150 Cel; 60 in 30"->"Conc TMZ Adj TMZ DD 150; 60 in 30" [label = "Penas-PradoMNeuroOncol2015_BH Grade_NotGood" labelURL = "./Conc TMZ Adj TMZ DD 150 Cel; 60 in 30Conc TMZ Adj TMZ DD 150; 60 in 30.html",  dir = "both"  color="blue"];
"Conc TMZ Adj TMZ DD 150 Thal; 60 in 30"->"Conc TMZ Adj TMZ DD 150 Cel; 60 in 30" [label = "Penas-PradoMNeuroOncol2015_BC Grade_NotGood" labelURL = "./Conc TMZ Adj TMZ DD 150 Thal; 60 in 30Conc TMZ Adj TMZ DD 150 Cel; 60 in 30.html",  dir = "both"  color="blue"];
"Conc TMZ Adj TMZ DD 150 Thal; 60 in 30"->"Conc TMZ Adj TMZ DD 150; 60 in 30" [label = "Penas-PradoMNeuroOncol2015_CH Grade_NotGood" labelURL = "./Conc TMZ Adj TMZ DD 150 Thal; 60 in 30Conc TMZ Adj TMZ DD 150; 60 in 30.html",  dir = "both"  color="blue"];
"Conc TMZ Adj TMZ; 44-66 in 26-30"->"Conc TMZ Nimo 200 Adj TMZ; 46-66 in 26-30" [label = "HongJExpTherMed2012 Grade_NotGood" labelURL = "./Conc TMZ Adj TMZ; 44-66 in 26-30Conc TMZ Nimo 200 Adj TMZ; 46-66 in 26-30.html",  dir = "both"  color="blue"];
"Conc TMZ Adj TMZ; 60 in 30"->"Conc TMZ Bev (A) Adj TMZ Bev (A); 60 in 30" [label = "ChinotOLNEnglJMed2014 " labelURL = "./Conc TMZ Adj TMZ; 60 in 30Conc TMZ Bev (A) Adj TMZ Bev (A); 60 in 30.html",  dir = "both"  color="blue"];
"Conc TMZ Adj TMZ; 60 in 30"->"Conc TMZ Nimo 400 Adj TMZ Nimo 400; 60 in 30" [label = "WestphalMEurJCancer2015 Grade_NotGood" labelURL = "./Conc TMZ Adj TMZ; 60 in 30Conc TMZ Nimo 400 Adj TMZ Nimo 400; 60 in 30.html",  dir = "both"  color="blue"];
"Conc TMZ Adj TMZ; 60 in 30"->"Ind Bev Iri 125 Conc TMZ Bev (A) Adj Bev Iri 125; 60 in 30" [label = "ChauffertBAnnOncol2014 " labelURL = "./Conc TMZ Adj TMZ; 60 in 30Ind Bev Iri 125 Conc TMZ Bev (A) Adj Bev Iri 125; 60 in 30.html",  color="red"];
"Ind TMZ 75 Conc TMZ Adj TMZ; 60 in 30"->"Conc TMZ Adj TMZ; 60 in 30" [label = "MaoYChinMedJ(Engl)2015 " labelURL = "./Conc TMZ Adj TMZ; 60 in 30Ind TMZ 75 Conc TMZ Adj TMZ; 60 in 30.html",  color="red"];
"Conc TMZ Adj TMZ; 60 in 30"->"RT alone; 60 in 30" [label = "StuppRLancetOncol2009, StuppRNEnglJMed2005 " labelURL = "./Conc TMZ Adj TMZ; 60 in 30RT alone; 60 in 30.html",  color="red"];
"Conc TMZ Adj Val; 60 in 30"->"Conc TMZ; 60 in 30" [label = "StragliottoGIntJCancer2013 Grade_NotGood" labelURL = "./Conc TMZ Adj Val; 60 in 30Conc TMZ; 60 in 30.html",  dir = "both"  color="blue"];
"Conc TMZ Cil 2000 Adj TMZ Cil 2000; 60 in 30"->"Conc TMZ Cil 500 Adj TMZ Cil 500; 60 in 30" [label = "NaborsLBCancer2012 " labelURL = "./Conc TMZ Cil 500 Adj TMZ Cil 500; 60 in 30Conc TMZ Cil 2000 Adj TMZ Cil 2000; 60 in 30.html",  color="red"];
"Conc TMZ Int; 60 in 30"->"Conc TMZ; 60 in 30" [label = "GaberMCancerManagRes2013 " labelURL = "./Conc TMZ Int; 60 in 30Conc TMZ; 60 in 30.html",  color="red"];
"Conc TMZ; 56-60 in 28-30"->"Conc Tamox; 56-60 in 28-30" [label = "ZhouSBAsianPacJCancerPrev2015 Grade_NotGood" labelURL = "./Conc TMZ; 56-60 in 28-30Conc Tamox; 56-60 in 28-30.html",  dir = "both"  color="blue"];
"Conc TMZ; 60 in 30"->"RT alone; 60 in 30" [label = "KocherMStrahlentherapieundOnkol2008 Grade_NotGood" labelURL = "./Conc TMZ; 60 in 30RT alone; 60 in 30.html",  dir = "both"  color="blue"];
"Ind Bev Iri 340-125 Conc Bev Iri 340-125 Adj Bev Iri 340-125; 60 in 30"->"Ind TMZ Bev Conc TMZ Bev (A) Adj TMZ Bev (C); 60 in 30" [label = "HoflandKFActaOncol2014 Grade_NotGood" labelURL = "./Ind Bev Iri 340-125 Conc Bev Iri 340-125 Adj Bev Iri 340-125; 60 in 30Ind TMZ Bev Conc TMZ Bev (A) Adj TMZ Bev (C); 60 in 30.html",  dir = "both"  color="blue"];
"Ind TMZ 200 Conc TMZ Adj TMZ (C); 60 in 30"->"RT alone; 60 in 30" [label = "SzczepanekDNeurolNeurochirPol2013 " labelURL = "./Ind TMZ 200 Conc TMZ Adj TMZ (C); 60 in 30RT alone; 60 in 30.html",  color="red"];
"RT alone; 34 in 10"->"RT alone; 60 in 30" [label = "MalmstromALancetOncol2012_BC " labelURL = "./RT alone; 34 in 10RT alone; 60 in 30.html",  color="red"];
"RT alone; 34 in 10"->"TMZ 200 " [label = "MalmstromALancetOncol2012_AB " labelURL = "./RT alone; 34 in 10TMZ 200 .html",  dir = "both"  color="blue"];
"RT alone; 60 in 30"->"TMZ 200 " [label = "MalmstromALancetOncol2012_AC " labelURL = "./RT alone; 60 in 30TMZ 200 .html",  color="red"];
"RT alone; 60 in 30-33"->"TMZ DD 100" [label = "WickWLancetOncol2012 Grade_NotGood" labelURL = "./RT alone; 60 in 30-33TMZ DD 100.html",  dir = "both"  color="blue"];

}
