ArmID,Number,NoOfArms,Phase,ConcRT,PMID,TrialID,GradeInfo,AgeInfo,% male,% MGMT,RecruitmentArea,YearStarted,YearStopped,TrialDesign,RCT,ArmA_TotalShort_ORIG,ArmA_TotalShort,ArmA_ChemoYN,ArmA_OverallChemoRegime,RTRegime_A,Grd3Neutropenia_A,Grd3OesTox_A,Grd3PneumoTox_A,Gr3NauseaVom_A,Gr3Fatigue_A,Gr3Infection_A,ToxicDeathRate_A,ResponseRate_A,MedianOS_A,1yrOS_A,2yrOS_A,3yrOS_A,5YrOS_A,MedianPFS_A,1YrPFS_A,2YrPFS_A,3YrPFS_A,5YrPFS_A,ArmB_TotalShort_ORIG,ArmB_TotalShort,ArmB_ChemoYN,ArmB_OverallChemoRegime,RTRegime_B,Grd3Neutropenia_B,Grd3OesTox_B,Grd3PneumoTox_B,Gr3NauseaVom_B,Gr3Fatigue_B,Gr3Infection_B,ToxicDeathRate_B,ResponseRate_B,MedianOS_B,1yrOS_B,2yrOS_B,3yrOS_B,5YrOS_B,MedianPFS_B,1YrPFS_B,2YrPFS_B,3YrPFS_B,5YrPFS_B,RR_pvalue,RR_SS,HR_OS,MedOS_SS,OS_1_SS,OS_2_SS,OS_3_SS,OS_5_SS,RRPFS_pvalue,RRPFS_SS,HR_PFS,MedPFS_SS,1YrPFS_SS,2YrPFS_SS,3YrPFS_SS,5YrPFS_SS,Limitations*,PoorAllocation,NoBlinding,LossToFollow-up,StoppedEarly,Indirectness*,NonDirectArmComp,OtherPatientGrp,Imprecision*,PubBias*,Heterogeneity*,LargeEffect,NonConfounded,DRGradient,OverallGRADE,HR,Notes
19269895,573,2,3,1,19269895,StuppRLancetOncol2009,4,18-70,0.62,0.45,Europe/North America,2000,2002,ConcAdj C/RTvs RT,1,NC_1RT_1C_2,ConcAdj Tem; 60 in 30,1,C_1C_2,RT_1,0.007,NA,NA,NA,NA,NA,0,NA,14.6,NA,0.27,0.16,0.1,NA,NA,0.11,0.06,0.04,NNRT_1N,RT alone; 60 in 30,0,None,RT_1,0.003,NA,NA,NA,NA,NA,0,NA,12.1,NA,0.11,0.04,0.02,NA,NA,0.02,0.01,0.01,<0.0001,1,0.63,1,NA,1,1,1,<0.0001,1,0.56,NA,NA,1,1,0,1,0,1,0,0,0,0,0,0,0,0,0,0,0,Good,,
22578793,373,2,3,0,22578793,WickWLancetOncol2012,"3, 4",66-84,0.47,0.35,Europe,2005,2009,C vs RT,1,C_3,Tem alone,1,C_3,None,NA,0.27,0.39,0.03,0.12,0.18,0,NA,8.6,NA,NA,NA,NA,3.3,0.12,NA,NA,NA,NNRT_2N,RT alone; 60 in 30-33,0,None,RT_2,NA,0.21,0.04,0.01,0.11,0.13,0,NA,9.6,NA,NA,NA,NA,4.7,0.09,NA,NA,NA,NA,0,1.09,0,NA,NA,NA,NA,NA,0,1.15,0,NA,NA,NA,NA,1,0,1,1,0,0,0,0,0,0,0,0,0,0,Moderate,,"No ITT, elderly only, heterogenous results between MGMT+/MGMT-, non-inferiority"
25163906,545,2,3,1,25163906,StuppRLancetOncol2014,4,50-65,0.53,1,Europe/North America/Asia,2008,2011,ConcAdj C(Cil+Tem)/RT vs ConcAdj C(Tem)/RT,1,NCilTem_1RT_3CilTem_2,ConcAdj Cil+Tem; 60 in 30,1,CilTem_1CilTem_2,RT_3,NA,0.21,0.43,0.02,0.08,0.04,0.04,NA,26.3,NA,0.56,NA,NA,10.6,NA,NA,NA,NA,NC_1RT_3C_2,ConcAdj Tem; 60 in 30,1,C_1C_2,RT_3,NA,0.14,0.5,0.05,0.04,0.02,0.03,NA,26.3,NA,0.56,NA,NA,7.9,NA,NA,NA,NA,0.86,0,1.02,0,NA,0,NA,NA,0.41,0,0.92,NA,NA,NA,NA,NA,1,0,1,0,0,0,0,0,0,0,0,0,0,0,Good,,MGMT+ only
