TrialID,ArmA_TotalShort,Grd3Neutropenia_A,Grd3OesTox_A,Grd3PneumoTox_A,ToxicDeathRate_A,ResponseRate_A,MedianOS_A,1yrOS_A,2yrOS_A,3yrOS_A,5YrOS_A,ArmB_TotalShort,Grd3Neutropenia_B,Grd3OesTox_B,Grd3PneumoTox_B,ToxicDeathRate_B,ResponseRate_B,MedianOS_B,1yrOS_B,2yrOS_B,3yrOS_B,5YrOS_B,RR_SS,HR_OS,MedOS_SS,OS_1_SS,OS_2_SS,OS_3_SS,OS_5_SS,OverallGRADE
BallRTOnc1999,TreatA,NA,0.1,NA,NA,NA,13.8,NA,NA,NA,NA,TreatD,NA,0.28,NA,NA,NA,14.4,NA,NA,NA,NA,0,NA,0,NA,NA,NA,NA,Poor
BallMod1,TreatA,NA,0.1,NA,NA,NA,13.8,NA,NA,NA,NA,TreatD,NA,0.28,NA,NA,NA,14.4,NA,NA,NA,NA,0,NA,1,NA,NA,NA,NA,Poor
JeremicJCO1995ModA,TreatB,NA,0,0,0,0.63,NA,NA,NA,NA,0.4,TreatE,NA,0.2,0.01,0,0.74,NA,NA,NA,NA,0.21,1,NA,NA,NA,NA,NA,1,Moderate
JeremicJCO1995ModB,TreatB,NA,0,0,0,0.63,NA,NA,NA,NA,0.4,TreatE,NA,0.2,0.01,0,0.74,NA,NA,NA,NA,0.21,1,NA,NA,NA,NA,NA,1,Good
JeremicJCO1995ModC,TreatB,NA,0.2,NA,0.04,0.63,NA,NA,NA,NA,NA,TreatF,NA,0.04,NA,0,0.62,NA,NA,NA,NA,NA,0,NA,NA,NA,NA,NA,NA,Moderate
BlankeJCO1995ModA,TreatA,NA,0.03,NA,NA,0.38,10.6,0.45,0.13,NA,0.02,TreatG,NA,0.03,NA,NA,0.5,9.9,0.43,0.18,NA,0.05,1,0,0,0,0,NA,0,Moderate
BlankeJCO1995ModB,TreatA,NA,0.03,NA,NA,0.38,10.6,0.45,0.13,NA,0.02,TreatG,NA,0.03,NA,NA,0.5,9.9,0.43,0.18,NA,0.05,0,1,1,0,1,NA,0,Moderate
BlankeJCO1995ModC,TreatA,NA,0.03,NA,NA,0.38,10.6,0.45,0.13,NA,0.02,TreatG,NA,0.03,NA,NA,0.5,9.9,0.43,0.18,NA,0.05,0,0,0,0,0,NA,1,Good
