ArmID,Number,NoOfArms,Phase,ConcRT,InCSR,InRevCSRPlus,InHyperFracJCO,PMID,TrialID,StageInfo,AgeInfo,% male,RecruitmentArea,YearStarted,YearStopped,TrialDesign,RCT,ArmA_TotalShort,ArmA_IndPlatRelax,ArmA_ConcPlatRelax,ArmA_ConsPlatRelax,ArmA_SingleIndRelax,ArmA_SingleConcRelax,ArmA_SingleConsRelax,ArmA_SingleCombinedRelax,ArmA_ChemoTimingRelax,ArmA_ChemoYN,ArmA_RTFracRelax,ArmA_TotalRelax,ArmA_OverallChemoRegime,InductionChemoRegime_A,ConcChemoRegime_A,ConsolidationChemoRegime_A,Grd3Neutropenia_A,Grd3OesTox_A,Grd3PneumoTox_A,ToxicDeathRate_A,ResponseRate_A,MedianOS_A,1yrOS_A,2yrOS_A,3yrOS_A,5YrOS_A,ArmB_IndPlatRelax,ArmB_ConcPlatRelax,ArmB_ConsPlatRelax,ArmB_IndSingleRelax,ArmB_ConcSingleRelax,ArmB_ConsSingleRelax,ArmB_SingleCombinedRelax,ArmB_ChemoTimingRelax,ArmB_ChemoYN,ArmB_RTFracRelax,ArmB_TotalRelax,ArmB_TotalShort,ArmB_OverallChemoRegime,InductionChemoRegime_B,ConcChemoRegime_B,ConsolidationChemoRegime_B,Grd3Neutropenia_B,Grd3OesTox_B,Grd3PneumoTox_B,ToxicDeathRate_B,ResponseRate_B,MedianOS_B,1yrOS_B,2yrOS_B,3yrOS_B,5YrOS_B,RR_SS,HR_OS,MedOS_SS,OS_1_SS,OS_2_SS,OS_3_SS,OS_5_SS,Limitations,PoorAllocation,NoBlinding,LossToFollow-up,StoppedEarly,Indirectness,NonDirectArmComp,OtherPatientGrp,Imprecision,PubBias,Heterogeneity,LargeEffect,NonConfounded,DRGradient,OverallGRADE,HR,Notes,,
23611405,139,2,2,1,0,0,0,23611405,GarridoSLCG0008,III,37-78,0.91,Spain,2001,2006,IndCT+ConcCRTvs ConcCRT+ConsCT,,ConcRT Carbo-Doc 60 in 30; Cons Gem-Doce,None,Plat-T,None,None,Multi,Multi,Multi,Conc + cons,Chemo,ConvFrac,NoneConcConvFracCons,Conc Carbo-Doc + ConsGemDoce,None,Doce-Carbo,Doce-Gem,0.28,0.24,0.01,0.04,0.56,13,0.54,0.27,0.2,0.16,NonPlat,Plat,none,Multi,Multi,None,Multi,Induct/Conc,Chemo,ConvFrac,IndConcConvFrac,Ind Doce-gem; Conc 60 in 30 conc Doce-carbo,,Doce-gem,Doce-carbo,none,0.1,0.15,0.02,0,0.57,13.8,0.59,0.4,0.3,0.22,0,,0,,,,,1,0,1,0,0,0,0,0,0,0,0,0,0,0,Moderate,,,,
LanAntiTumorPharmAbstract,79,2,NA,1,0,0,0,NA,LanetalAbstract,III_UR,65-80,0.65,China,2009,2011,ConcRT + consCT  vs RT alone and consCT,1,ConcCRT + cons Doce,None,Docetaxel,Docetaxel,None,Single,Single,Single,ConcCons,Chemo,ConvFrac,NoneConcConvFracCons,docetaxel concurrent then cons,None,Docetaxel,Docetaxel,0.47,0.63,0.22,0,0.775,NA,NA,0.225,NA,NA,None,None,NonPlat,None,None,Single,Single,Cons,Chemo,ConvFrac,RT aloneConsCT,RT alone; consDocetaxel,Consolidation Docetaxel,None,None,Docetaxel,0.051,0.56,0.075,0,0.615,NA,NA,0.12,NA,NA,1,NA,NA,NA,1,NA,NA,1,0,1,0,0,0,0,0,0,0,0,0,0,0,Moderate,,,,
Zajuszabstract,58,2,2,0,0,0,0,NA,Zajusz et al.,LANSCLC,NA,NA,Poland,2001,2006,RT vs Acc RT,1,RT alone 72 in 40; 7days a week,None,None,None,None,None,None,None,None,None,ConvFracAcc,NoneConvFracAcc,None,None,None,None,NA,0,0,0,NA,NA,NA,0.14,NA,NA,None,None,None,None,None,None,None,None,None,ConvFrac,ConvFrac 5 days a week,RT alone 72 in 40 5 days a week,None,None,None,None,NA,0,0,0,NA,NA,NA,0.2,NA,NA,NA,NA,NA,NA,0,NA,NA,1,,,,,,,,,,,,,,,,,,
21757247,406,2,3,0,0,0,1,21757247,BaumannGreenJ2011,"I,II,III",38-87,0.89,Europe,1997,2005,ConvRT vs CHARTWEL+-IndC,1,RT alone; 66 in 33,Some,None,None,None,None,None,None,None,None,ConvFrac,InductConvFrac,None,None,None,None,NA,NA,NA,0.009,NA,NA,0.59,0.32,0.16,0.03,Plat,None,None,Single,None,None,Single,Induct,Yes,Hyperfrac,InductHyperFrac,RT alone; 60 in 40 TID (not weekend),Plat,Plat,None,None,NA,NA,NA,0.009,NA,NA,0.59,0.31,0.17,0.04,NA,0.92,0,0,0,0,0,0,0,1,0,0,0,0,0,0,0,1,0,0,0,Moderate,,Authors report non-SS differences but data not shown,Not blinded.,Patients who had prior chemotherapy included
15837967,141,2,3,0,0,0,1,15837967,BelaniJCO2005,III_UR,40-77,0.48,USA,1998,2001,IndCConvRT vs IndCHART,1,Ind carbo-paclitaxol; 64 in 32,Plat,None,None,Multi,None,None,Multi,Induct,Chemo,ConvFrac,InductConvFrac,Carbo-pac?,Carbo-pac,None,None,0.02,0.16,0.11,0,0.22,14.9,NA,0.34,0.18,NA,Plat,None,None,Multi,None,None,Multi,Induct,Yes,Hyperfrac,InductHyperFrac,Ind carbo-paclitaxel; 57.6 in 36,Carbo-pac?,Carbo-pac,None,None,0.04,0.25,0,0,0.25,20.3,NA,0.44,0.24,NA,0,NA,0,,0,0,0,1,0,1,0,1,0,0,0,0,0,0,0,0,0,Low,,,,
10577699,563,2,3,0,0,0,1,10577699,CHART,"I, II, III_UR",>31,0.77,"UK, Sweden",1990,1995,CHART vs Conv RT,1,RT alone 54 in 36 TDS,None,None,None,None,None,None,None,None,None,HyperFrac,NoneHperFrac,None,None,None,None,NA,NA,NA,0.008,NA,13,NA,0.3,0.2,NA,None,None,None,None,None,None,None,None,None,ConvFrac,NoneConvFrac,RT alone; 60 in 30,NA,None,None,None,NA,NA,NA,0.013,NA,16.5,NA,0.21,0.13,NA,NA,0.78,1,,,,,1,0,1,0,0,0,0,1,0,0,0,0,0,0,Moderate,,"No p -values, no detailed tox breakdown",,
10669675-1,490,3,3,0,0,0,1,10669675,SauseChest2000,"II, III_ UR",>18,0.7,USA,1989,1992,IndC +RT vs. RT vs. Hyperfract RT,1,RT alone; 60 in 30,None,None,None,None,None,None,None,None,None,ConvFrac,NoneConvFrac,None,None,None,None,NA,NA,NA,0,NA,11.4,0.47,0.21,0.11,0.05,Plat,None,None,Multi,None,None,Multi,Induct,Chemo,ConvFrac,InductConvFrac,Ind cis-vin; 60 in 30,?,CV?,None,None,NA,NA,NA,0.02,NA,13.2,NA,NA,NA,0.08,,,,,,,,1,0,1,1,0,0,0,0,0,0,0,0,0,0,Low,,<5% weight loss over 3 months required.,,
10669675-3,490,3,3,0,0,0,1,10669675,SauseChest2000,"II, III_ UR",>18,0.7,USA,1989,1992,IndC +RT vs. RT vs. Hyperfract RT,1,Ind cis-vin; 60 in 30,Plat,None,None,Multi,None,None,Multi,Induct,Chemo,ConvFrac,InductConvFrac,Cis VIN?,IndCisVin,None,None,NA,NA,NA,0.02,NA,13.2,0.59,0.32,0.17,0.08,None,None,None,None,None,None,None,None,None,Hyperfrac,NoneHyperFrac,RT alone 69.6 in 58 (BD),?,None,None,None,NA,NA,NA,0.006,NA,12,0.52,0.24,0.14,0.06,,,,,,,,1,0,1,1,0,0,0,0,0,0,0,0,0,0,Low,,,,
10669675-2,490,3,3,0,0,0,1,10669675,SauseChest2000,"II, III_ UR",>18,0.7,USA,1989,1992,IndC +RT vs. RT vs. Hyperfract RT,1,RT alone; 60 in 30,None,None,None,None,None,None,None,None,None,ConvFrac,NoneConvFrac,None,None,None,None,NA,NA,NA,0,NA,11.4,0.47,0.21,0.11,0.05,None,None,None,None,None,None,None,None,None,Hyperfrac,NoneHyperFrac,RT alone 69.6 in 58 (BD),?,None,None,None,NA,NA,NA,0.006,NA,12,0.52,0.24,0.14,0.06,,,,,,,,1,0,1,1,0,0,0,0,0,0,0,0,0,0,Moderate,,,,
12243810,246,2,3,1,0,0,1,12243810,SchildRedJ2002,III,NA,0.62,USA,1994,1999,ConcCRT vs ConcCHyperfracRT,1,Conc Cis-Etop; RT 60 in 30,None,Plat,None,None,Multi,None,Multi,Conc,Chemo,ConvFrac,ConcConvFrac,Cis/Etop,None,Cis/Etop,None,0.78,0.2,0.11,0.03,NA,14,NA,0.37,NA,0.13,None,Plat,None,None,Multi,None,Multi,Conc,chemo,Hyperfrac,ConcHyperfrac,Conc cis-etop 60 in 40 bd (split),Cis-etop?,None,Cis-etop ?,None,0.79,0.18,0.15,0.02,NA,15,NA,0.4,NA,0.2,NA,NA,0,NA,?,NA,?,1,0,1,0,0,0,0,0,0,0,0,0,0,0,Moderate,,No p-values for 2/5y SS.,,
15845568,46,2,3,1,1,1,0,15845568,AtagiJJCO2005,III_UR,71-84,0.76,Japan,1999,2001,RT vs Conc C_RT,1,RT alone; 60 in 30,None,None,None,None,None,None,None,None,None,ConvFrac,NoneConvFrac,None,None,None,None,NA,0,0,0.04,0.52,15,0.61,NA,NA,NA,None,Plat,None,None,Single,None,Single,Conc,Chemo,ConvFrac,ConcConvFrac,Conc carbo (daily); 60 in 30,C_1,None,C_1,None,NA,0,0,0.04,0.52,19.8,0.61,0.65,NA,NA,0,0,0,0,NA,NA,NA,1,0,1,0,1,0,0,0,0,0,0,0,0,0,Low,NA,,,
22622008,200,2,3,1,0,1,0,22622008,AtagiLancetOnc2012,III_UR,>70,0.82,Japan,2003,2010,ConCRT vs RT Alone,1,RT alone; 60 in 30,None,None,None,None,None,None,None,None,None,ConvFrac,NoneConvFrac,None,None,C_1,None,0,0,0.03,0.04,0.45,16.9,0.65,0.35,NA,NA,None,Plat,None,None,Single,None,Single,Conc,Chemo,ConvFrac,ConcConvFrac,Conc carbo (daily); 60 in 30,None,None,C_1,None,0.57,0.01,0.01,0.03,0.52,22.4,0.71,0.46,NA,NA,0,0.68,NA,1,1,1,1,1,0,1,0,1,0,0,0,0,0,0,0,0,0,Moderate,0.68,,,
7751888,215,2,3,1,1,1,0,7751888,BlankeJCO1995,"I, II, III_UR",NA,0.76,USA,1986,1992,RT vs ChemoRT,1,RT alone; 60 in 30,None,None,None,None,None,None,None,None,None,ConvFrac,NoneConvFrac,None,None,None,None,NA,0.03,NA,NA,0.38,10.6,0.45,0.13,NA,0.02,None,Plat,None,None,Single,None,Single,Conc,Chemo,ConvFrac,ConcConvFrac,Conc cis; 60 in 30,Cis_3,None,Cis_3,None,NA,0.03,NA,NA,0.5,9.9,0.43,0.18,NA,0.05,0,0,0,0,0,NA,0,1,1,1,0,0,0,0,0,0,0,0,0,0,0,Low,NA,,,
15165089,176,2,3,1,1,1,0,15165089,CakirLungCa2004,III_UR,45-70,NA,Turkey,1997,1999,RT vs Conc C_RT,1,RT alone; 64 in 32,None,None,None,None,None,None,None,None,None,ConvFrac,NoneConvFrac,None,None,None,None,0.13,0.09,0.53,NA,0.45,NA,NA,NA,0.02,NA,None,Plat,None,None,Single,None,Single,Conc,Chemo,ConvFrac,ConcConvFrac,Conc cis; 64 in 32,Cis_1,None,Cis_1,None,0.17,0.11,0.54,NA,0.65,NA,NA,NA,0.1,NA,1,0,NA,NA,NA,1,NA,1,0,1,0,0,0,0,0,0,0,0,0,0,0,Moderate,NA,,,
10458211,283,2,3,1,1,1,0,10458211,ClamonJCO1999,III_UR,NA,0.69,US,NA,NA,InC_RT vs IndC_RT_C,1,Ind cis-vinB; 60 in 30,Plat,None,None,Multi,None,None,Multi,Induct,Chemo,ConvFrac,InductConvFrac,CVB_1,CVB_1,None,None,0.04,0.04,0.05,NA,NA,13.5,0.54,0.26,0.19,NA,Plat,Plat,None,Multi,Single,None,Multi,InductConc,Chemo,ConvFrac,InductConcConvFrac,Ind cis-vinB; Conc carbo; 60 in 30,CVB_1,CVB_1,C_2,None,0.25,0.12,0.01,NA,NA,13.4,0.56,0.29,0.19,NA,NA,0,0,0,0,0,NA,1,0,1,0,0,0,0,0,0,0,0,0,0,0,Moderate,NA,,,
21903745_AB,577,3,3,1,0,1,0,21903745,CurranJNCI2011,"II, III",>18,0.64,US,1994,1998,C+RT vs C_RT vs C_HART,1,Ind cis-vinB; 60 in 30,Plat,None,None,Multi,None,None,Multi,Induct,Chemo,ConvFrac,InductConvFrac,CVB_1,CVB_1,None,None,0.77,0.04,0.015,NA,0.61,14.6,NA,NA,NA,0.1,None,Plat,None,None,Multi,None,Multi,Conc,Chemo,ConvFrac,ConcConvFrac,Conc cis-vinB (A); 60 in 30,CVB_1,None,CVB_1,None,0.81,0.22,0.015,NA,0.7,17,NA,NA,NA,0.16,1,0,0,NA,NA,NA,1,0,0,0,0,0,0,0,0,0,0,0,0,0,0,High,0.81,,,
21903745_BC,577,3,3,1,0,1,0,21903745,CurranJNCI2011,"II, III",>18,0.64,US,1994,1998,C+RT vs C_RT vs C_HART,1,Conc cis-vinB (A); 60 in 30,None,Plat,None,None,Multi,None,Multi,Conc,Chemo,ConvFrac,ConcConvFrac,CVB_1,None,CVB_1,None,0.81,0.22,0.015,NA,0.7,17,NA,NA,NA,0.16,None,Plat,None,None,Multi,None,Multi,Conc,Chemo,HyperFrac,ConcHyperFrac,Conc cis-etop; 69.6 in 58 (BD),CisEtop_1,None,CisEtop_1,None,0.53,0.45,0.016,NA,0.65,15.6,NA,NA,NA,0.13,0,0,1,NA,NA,NA,1,0,0,0,0,0,0,0,0,0,0,0,0,0,0,High,0.93,,,
21903745_AC,577,3,3,1,0,1,0,21903745,CurranJNCI2011,"II, III",>18,0.64,US,1994,1998,C+RT vs C_RT vs C_HART,1,Ind cis-vinB; 60 in 30,Plat,None,None,Multi,None,None,Multi,Induct,Chemo,ConvFrac,InductConvFrac,CVB_1,CVB_1,None,None,0.77,0.04,0.015,NA,0.61,14.6,NA,NA,NA,0.1,None,Plat,None,None,Multi,None,Multi,Conc,Chemo,HyperFrac,ConcHyperFrac,Conc cis-etop; 69.6 in 58 (BD),CisEtop_1,None,CisEtop_1,None,0.53,0.45,0.016,NA,0.65,15.6,NA,NA,NA,0.13,0,0,0,NA,NA,NA,0,0,0,0,0,0,0,0,0,0,0,0,0,0,0,High,NA,,,
16087956,201,2,3,1,1,1,0,16087956,FournelJCO2005,III_UR,18-70,0.88,Europe,1996,2000,Conc C_RT vs Seq C_RT,1,Ind cis-vin (A); 66 in 33,Plat,None,None,Multi,None,None,Multi,Induct,Chemo,ConvFrac,InductConvFrac,CV_1,CV_1,None,None,0.88,0.03,0.11,NA,0.54,14.5,0.6,0.27,NA,NA,None,Plat,Plat,None,Multi,Multi,Multi,Conc,Chemo,ConvFrac,ConcConvFrac,Conc cis-etop; 66 in 33; Cons cis-vin,CV_2_CisEtop_2,None,CisEtop_2,CV_2,0.77,0.3,0.05,NA,0.49,16.3,0.6,0.39,NA,NA,0,0,0,0,0,NA,NA,1,0,1,0,0,0,0,0,0,0,0,0,0,0,Moderate,NA,,,
17237853_AB,60,3,3,1,1,1,0,17237853,GoudaJENCI2006,III_UR,>18,0.87,Egyptian,1998,2000,IndC+C_RT vs C_RT vs RT,1,Ind carbo-paclitaxel; Conc carbo-paclitaxel; 60 in 30,Plat,Plat,None,Multi,Multi,None,Multi,InductConc,Chemo,ConvFrac,InductConcConvFrac,PC_2,PC_4,PC_2,None,0.3,0.3,NA,NA,0.77,NA,NA,0.4,NA,NA,None,Plat,None,None,Multi,None,Multi,Conc,Chemo,ConvFrac,ConcConvFrac,Conc carbo-paclitaxel; 60 in 30,PC_2,None,PC_2,None,0.25,0.25,NA,NA,0.79,NA,NA,0.45,NA,NA,0,0,NA,NA,0,NA,NA,1,1,1,0,0,0,0,0,1,0,0,0,0,0,Very low,NA,,,
17237853_BC,60,3,3,1,1,1,0,17237853,GoudaJENCI2006,III_UR,>18,0.87,Egyptian,1998,2000,IndC+C_RT vs C_RT vs RT,1,Conc carbo-paclitaxel; 60 in 30,None,Plat,None,None,Multi,None,Multi,Conc,Chemo,ConvFrac,ConcConvFrac,PC_2,None,PC_2,None,0.25,0.25,NA,NA,0.79,NA,NA,0.45,NA,NA,None,None,None,None,None,None,None,None,None,ConvFrac,NoneConvFrac,RT alone; 60 in 30,None,None,None,None,0.05,0.05,NA,NA,0.4,NA,NA,0.25,NA,NA,1,0,NA,NA,1,NA,NA,1,1,1,0,0,0,0,0,1,0,0,0,0,0,Very low,NA,,,
17237853_AC,60,3,3,1,1,1,0,17237853,GoudaJENCI2006,III_UR,>18,0.87,Egyptian,1998,2000,IndC+C_RT vs C_RT vs RT,1,Ind carbo-paclitaxel; Conc carbo-paclitaxel; 60 in 30,Plat,Plat,None,Multi,Multi,None,Multi,InductConc,Chemo,ConvFrac,InductConcConvFrac,PC_2,PC_4,PC_2,None,0.3,0.3,NA,NA,0.77,NA,NA,0.4,NA,NA,None,None,None,None,None,None,None,None,None,ConvFrac,NoneConvFrac,RT alone; 60 in 30,None,None,None,None,0.05,0.05,NA,NA,0.4,NA,NA,0.25,NA,NA,1,0,NA,NA,1,NA,NA,1,1,1,0,0,0,0,0,1,0,0,0,0,0,Very low,NA,,,
14998844,160,2,3,1,1,1,0,14998844,GroenAnnOnc2004,III_UR,18-76,0.88,Netherlands,1995,1998,RT vs. CRT,1,RT alone; 60 in 30,None,None,None,None,None,None,None,None,None,ConvFrac,NoneConvFrac,RT_1,None,None,None,0,0.02,0.06,0,0.46,11.7,NA,0.28,NA,NA,None,Plat,None,None,Single,None,Single,Conc,Chemo,ConvFrac,ConcConvFrac,Conc carbo; 60 in 30,CarboRT_1,None,C_3,None,0.11,0.09,0.03,0,0.37,11.8,NA,0.28,NA,NA,0,NA,0,NA,0,NA,NA,1,0,1,0,1,0,0,0,0,0,0,0,0,0,Low,NA,,,
Hatton_2011,46,2,2,0,0,1,0,,HattonRedJ2011,"I, II, III",NA,0.61,UK,2005,2007,2 arm CHART vs. Ind CHART,1,Ind Cis-Vin; 54 in 36 (CHART),Plat,None,None,Multi,None,None,Multi,Ind,Chemo,HyperFrac,InductHyperFrac,Cis_Vin_4,Cis_Vin_4,None,None,NA,0.15,0.35,0.04,0.68,17,NA,NA,NA,NA,None,None,None,None,None,None,None,None,None,HyperFrac,NoneHyperFrac,RT alone; 54 in 36 (CHART),None,None,None,None,NA,0.13,0.17,0.08,0.61,25,NA,NA,NA,NA,0,0,0,NA,NA,NA,NA,1,0,1,0,1,0,0,0,0,0,0,0,0,0,Low,NA,Stopped Early,,
16983107,303,2,3,1,1,1,0,16983107,HuberJCO2006,III_UR,Mean 62,0.85,US,1997,2002,Ind Chemo +ChemoRT vs Ind Chemo +RT,1,Ind carbo-paclitaxel; Conc paclitaxel; 60 in 30,Plat,Plat,None,Multi,Single,None,Multi,InductConc,Chemo,ConvFrac,InductConcConvFrac,P_2,PC_1,P_2,None,0,0.03,0,NA,NA,18.7,NA,NA,NA,NA,Plat,None,None,Multi,None,None,Multi,Induct,Chemo,ConvFrac,InductConvFrac,Ind carbo-paclitaxel; 60 in 30,PC_1,PC_1,None,None,0,0.06,0,NA,NA,14,NA,NA,NA,NA,NA,0,0,NA,NA,NA,NA,1,1,1,0,0,0,0,0,0,0,0,0,0,0,Low,0.76,pts with progressive disease or became fit for surgery after induction chemo were removed from the trial.,,
7844608_BC,169,3,3,1,1,1,0,7844608,JeremicJCO1995,III,>18,0.76,Yugoslavia,1988,1989,RT vs CRT vs CRT,1,Conc carbo-etop (A); 64.8 in 54 (BD),None,Plat,None,None,Multi,None,Multi,Conc,Chemo,HyperFrac,ConcHyperFrac,Carbo_Etop_2,None,Carbo_Etop_1,None,NA,0.06,0.06,0,0.74,18,0.73,0.35,0.23,0.21,None,Plat,None,None,Multi,None,Multi,Conc,Chemo,HyperFrac,ConcHyperFrac,Conc carbo-etop (B);  64.8 in 54 (BD),Carbo_Etop_2,None,Carbo_Etop_2,None,NA,0.04,0.07,0,0.62,13,0.5,0.27,0.16,0.16,0,NA,NA,NA,NA,NA,NA,1,0,1,0,0,0,0,0,0,0,0,0,0,0,Moderate,NA,,,
7844608_AB,169,3,3,1,1,1,0,7844608,JeremicJCO1995,III,>18,0.76,Yugoslavia,1988,1989,RT vs CRT vs CRT,1,RT alone; 64.8 in 54 (BD),None,None,None,None,None,None,None,None,None,HyperFrac,NoneHyperFrac,Carbo_Etop_1,None,None,None,NA,0,0,0,0.63,8,0.39,0.25,0.06,0.049,None,Plat,None,None,Multi,None,Multi,Conc,Chemo,HyperFrac,ConcHyperFrac,Conc carbo-etop (A); 64.8 in 54 (BD),Carbo_Etop_1,None,Carbo_Etop_1,None,NA,0.06,0.06,0,0.74,18,0.73,0.35,0.23,0.21,1,NA,NA,NA,NA,NA,NA,1,0,1,0,0,0,0,0,0,0,0,0,0,0,Moderate,NA,,,
7844608_AC,169,3,3,1,1,1,0,7844608,JeremicJCO1995,III,>18,0.76,Yugoslavia,1988,1989,RT vs CRT vs CRT,1,RT alone; 64.8 in 54 (BD),None,None,None,None,None,None,None,None,None,HyperFrac,NoneHyperFrac,Carbo_Etop_1,None,None,None,NA,0,0,0,0.63,8,0.39,0.25,0.06,0.049,None,Plat,None,None,Multi,None,Multi,Conc,Chemo,HyperFrac,ConcHyperFrac,Conc carbo-etop (B);  64.8 in 54 (BD),Carbo_Etop_2,None,Carbo_Etop_2,None,NA,0.04,0.07,0,0.62,13,0.5,0.27,0.16,0.16,0,NA,NA,NA,NA,NA,NA,1,0,1,0,0,0,0,0,0,0,0,0,0,0,Moderate,NA,,,
8648358,131,2,3,1,1,1,0,8648358,JeremicJCO1996,III,NA,0.56,USA,1990,1991,RT vs. CRT,1,RT alone; 69.6 in 58 (BD),None,None,None,None,None,None,None,None,None,HyperFrac,NoneHyperFrac,RT_10,None,None,None,NA,0.06,NA,NA,0.84,14,0.68,0.26,0.11,NA,None,Plat,None,None,Multi,None,Multi,Conc,Chemo,HyperFrac,ConcHyperFrac,Conc carbo-etop; 69.6 in 58 (BD),CarboEtop_1,None,CarboEtop_1,None,NA,0.08,NA,NA,0.92,22,0.74,0.43,0.23,NA,0,NA,1,1,1,1,NA,1,1,1,0,1,0,0,0,1,0,1,0,0,0,Very low,NA,Need more from paper,,
442602,53,2,3,1,1,1,0,442602,LandgrenCancer1974,III_UR,Mean 60.8,0.87,USA,1970,1971,RT vs. CRT,1,RT alone; 60 in 20 (split),None,None,None,None,None,None,None,None,None,HypoFrac,NoneHypoFrac,None,None,None,None,NA,0.3,NA,0,NA,NA,0.48,0.12,NA,NA,None,NonPlat,None,None,Single,None,Single,Conc,Chemo,HypoFrac,ConcHypoFrac,Conc hydroxyurea; 60 in 20 (split),Hu,None,Hu,None,NA,0.4,NA,0,NA,NA,0.46,0.11,NA,NA,NA,NA,NA,0,0,0,0,1,1,1,0,0,0,0,0,0,0,0,0,0,0,Low,NA,,,
LeeTumour2008,60,2,3,1,1,1,0,NA,LeeTumour2008,III_UR,31-74,0.78,ChiNA,2002,2007,CRT vs RT,1,Hydroxycamptothecin 10mg per day weeks 1 and 5; 62.4 in 52 (BD),None,None,None,None,Single,None,Single,Conc,Chemo,HyperFrac,ConcHyperFrac,Hydroxycamptothecin,None,Hydroxycamptothecin,None,0.03,0.07,NA,NA,0.8,NA,0.78,0.54,0.26,NA,None,None,None,None,None,None,None,None,None,HyperFrac,NoneHyperFrac,RT alone; 62.4 in 52 (BD),None,None,None,None,0,0,NA,NA,0.67,NA,0.7,0.34,0.15,NA,0,NA,NA,0,0,0,NA,1,0,1,0,0,0,0,0,0,0,0,0,0,0,Moderate,NA,,,
Lu_2005,92,2,2,1,1,1,0,NA,LuCJLC2005,III_UR,41-70,0.71,ChiNA,2001,2003,IndC+CRT vs RT,1,Conc cis-vinB; 60 in 30 (B),Plat,Plat,None,Multi,Multi,None,Multi,Conc,Chemo,ConvFrac,ConcConvFrac,NVB_DDP,Plat_1NOS,NVB_DDP,None,0.13,0.21,NA,NA,0.6,NA,0.66,0.43,NA,NA,None,None,None,None,None,None,None,None,None,ConvFrac,NoneConvFrac,RT alone; 60 in 30,None,None,None,None,0,0.16,NA,NA,0.51,NA,0.53,0.33,NA,NA,NA,NA,NA,NA,NA,NA,NA,1,0,1,0,0,0,0,0,0,0,0,0,0,0,Moderate,NA,Patients given 2 cycles of platinum based induction chemo however the regimen is not specified,,
25304298,130,2,2,1,0,1,0,25304298,MaguireSOCCAR,III,36-77,0.61,UK,2005,2010,IndC+RTvs ConcCRT,1,ConcRT Cis-vin 55 in 20,None,Cis-vin,none,None,Multi,None,Multi,Conc,Chemo,HypoFrac,NoneConcHypoFrac,Conc cis vin,none,cis-vin,None,0.35,0.09,0.031,0.029,NA,NA,0.7,0.5,NA,NA,Cis-vin,None,None,Multi,None,none,multi,Induct,Chemo,HypoFrac,IndHypoFrac,Ind cis-vin; 55 in 20,Ind cis vin,cis vin,None,none,0.53,0.09,0.05,0.017,NA,NA,0.83,0.46,NA,NA,*,0.92,0,0,0,NA,NA,1,0,1,0,0,0,0,0,0,0,0,0,0,0,Moderate,,Supp data does not include p values for RR.,,
Rao_2007,55,2,3,1,1,1,0,,RaoCJCPT2007,III,NA,0.64,ChiNA,2002,2004,2 arm conc vs. ind cons RT,1,Ind Cis-Vin and Conc Cis-Vin; 62-70,Plat,Plat,None,Multi,Multi,None,Multi,IndConc,Chemo,ConvFrac,InductConcConvFrac,CV_5,CV_5,CV_5,None,NA,NA,NA,NA,0.77,NA,0.69,0.42,NA,NA,Plat,None,Plat,Multi,None,Multi,Multi,InductCons,Chemo,ConvFrac,InductConvFracCons,Ind and Cons Cis-vin; 62-70,CV_5,CV_5,None,CV_5,NA,NA,NA,NA,0.52,NA,0.52,0.17,NA,NA,1,0,NA,0,1,NA,NA,1,0,1,0,0,0,0,0,0,0,0,0,0,0,Low,NA,,,
Reinfuss,173,2,3,1,1,1,0,NA,ReinfussNowotory2005,III_UR,<70,0.71,Polish,2001,2004,IndC +RT vs C_RT,1,Ind cis-vin; 70.2 in 39,Plat,None,None,Multi,None,None,Multi,Induct,Chemo,HyperFrac,InductHyperFrac,CisNav_1,CisNav_1,None,None,NA,NA,NA,NA,0.67,0,NA,0.26,NA,NA,None,Plat,None,Single,Multi,None,Multi,Conc,Chemo,HypoFrac,ConcHypoFrac,Conc cis-vin; 70.2 in 39,CV_4,None,CV_4,None,NA,NA,NA,NA,0.68,NA,NA,0.25,NA,NA,0,0,0,NA,0,NA,NA,1,1,1,0,0,0,0,0,0,0,0,0,0,0,Moderate,NA,,,
16641904,108,2,2,1,1,1,0,16641904,ScagliottiBJC2006,III_UR,38-75,0.78,Europe,1999,2001,Ind C +C_RT vs Ind C+RT,1,Ind cis-docetaxel; Conc docetaxel; 60 in 30,Plat,Tax,None,Multi,Single,None,Multi,InductConc,Chemo,ConvFrac,InductConcConvFrac,DP_2,DP_2,D_2,None,0.5,0.17,NA,NA,0.58,14.9,0.56,NA,,NA,Plat,None,None,Multi,None,None,Multi,Induct,Chemo,ConvFrac,InductConvFrac,Ind cis-docetaxel; 60 in 30,DP_2,DP_2,None,None,50% during induction only,0,NA,NA,0.48,14,0.59,NA,NA,NA,0,0,0,0,NA,NA,NA,1,1,1,0,0,0,0,0,1,0,0,0,0,0,Very low,NA,pts with progressive disease after induction chemo were removed from trial,,
1310160_BC,331,3,3,1,1,1,0,1310160,Schaake-KoningNEJM1992,"I, II, III",<70,0.85,Europe,1984,1989,RT vs. CRT vs. CRT,1,Conc cis; 55 in 20 (split),None,Plat,None,None,Single,None,Single,Conc,Chemo,HypoFrac,ConcHypoFrac,Cis_4,None,Cis_4,None,0.01,0.01,NA,0,0.6,NA,0.44,0.19,0.13,NA,None,Plat,None,None,Single,None,Single,Conc,Chemo,HypoFrac,ConcHypoFrac,Conc cis (daily); 55 in 20 (split),Cis_2RT_20,None,Cis_2,None,0.03,0.05,NA,0,0.66,NA,0.54,0.26,0.16,NA,0,0,0,0,0,0,NA,1,1,1,0,0,0,0,0,0,0,0,0,0,0,Low,NA,,,
1310160_AB,331,3,3,1,1,1,0,1310160,Schaake-KoningNEJM1992,"I, II, III",<70,0.85,Europe,1984,1989,RT vs. CRT vs. CRT,1,RT alone; 55 in 20 (split),None,None,None,None,None,None,None,None,None,HypoFrac,NoneHypoFrac,None,None,None,None,0,0,NA,NA,0.57,NA,0.46,0.13,0.02,NA,None,Plat,None,None,Single,None,Single,Conc,Chemo,HypoFrac,ConcHypoFrac,Conc cis; 55 in 20 (split),Cis_4RT_20,None,Cis_4,None,0.01,0.01,NA,0,0.6,NA,0.44,0.19,0.13,NA,0,0,NA,0,0,0,NA,1,1,1,0,0,0,0,0,0,0,0,0,0,0,Low,NA,,,
1310160_AC,331,3,3,1,1,1,0,1310160,Schaake-KoningNEJM1992,"I, II, III",<70,0.85,Europe,1984,1989,RT vs. CRT vs. CRT,1,RT alone; 55 in 20 (split),None,None,None,None,None,None,None,None,None,HypoFrac,NoneHypoFrac,None,None,None,None,0,0,NA,NA,0.57,NA,0.46,0.13,0.02,NA,None,Plat,None,None,Single,None,Single,Conc,Chemo,HypoFrac,ConcHypoFrac,Conc cis (daily); 55 in 20 (split),Cis_2RT_20,None,Cis_2,None,0.03,0.05,NA,0,0.66,NA,0.54,0.26,0.16,NA,0,0,NA,1,1,1,NA,1,1,1,0,0,0,0,0,0,0,0,0,0,0,Low,NA,,,
Soresi,95,2,3,1,1,1,0,2851172,SoresiSemOnc1988,III,NA,0.91,Italy,1986,1987,2 arm conc vs. RT alone,1,RT alone; 50.4 in 28,None,None,None,None,None,None,None,RT Alone,None,ConvFrac,NoneConvFrac,None,None,None,None,NA,NA,NA,0,0.55,11,NA,NA,NA,NA,None,Plat,None,None,Single,None,Single,Conc,Chemo,ConvFrac,ConcConvFrac,Conc cis; 50.4 in 28,Cis_5,None,Cis_5,None,NA,NA,NA,0.04,0.64,16,NA,NA,NA,NA,0,0,0,NA,NA,NA,NA,1,0,1,1,0,0,0,0,0,0,0,0,0,0,Low,,,,
1324895,173,2,3,1,1,1,0,1324895,TrovoRedJ1992,III_UR,36-70,0.9,European,1987,1991,RT vs C_RT,1,RT alone; 45 in 15,None,None,None,None,None,None,None,None,None,HypoFrac,NoneHypoFrac,None,None,None,None,0.027,0.082,NA,NA,0.589,10.3,NA,NA,NA,NA,None,Plat,None,None,Single,None,Single,Conc,Chemo,HypoFrac,ConcHypoFrac,Conc cis (daily); 45 in 15,Cis_2,None,Cis_2,None,0.041,0.164,NA,NA,0.506,9.97,NA,NA,NA,NA,0,0,0,NA,NA,NA,NA,1,1,1,0,0,0,0,0,0,0,0,0,0,0,Low,NA,,,
Wu 2006,80,2,2,1,1,1,0,NA,WuCJLC2006,III_UR,37-75,0.79,China,2003,2004,CRT +consolidation chemo vs RT+seq chemo,1,Conc cis-vin (D); 60 in 30,None,Plat,None,None,Multi,Multi,Multi,Conc,Chemo,ConvFrac,ConcConvFrac,CV_4,None,CV_4,CV_4,0.26,0.19,0.13,NA,0.8,NA,NA,NA,NA,NA,None,None,Plat,None,None,Multi,Multi,Consolid,Chemo,ConvFrac,ConvFracConsolid,60 in 30; Cons cis-vin (E),CV_5,None,None,CV_5,0.17,0.1,0.08,NA,0.58,NA,NA,NA,NA,NA,NA,NA,NA,NA,NA,NA,NA,1,0,1,0,1,0,0,0,0,1,0,0,0,0,Very low,NA,Survival data not reported,,
Yadav_2005,30,2,3,1,1,1,0,,YadavBPGI2005,"II, III",<70,0.9,India,2002,2003,2 arm Conc CRT,,RT alone; 50 in 25,None,None,None,None,None,None,None,None,None,ConvFrac,NoneConvFrac,Cis_4,None,None,None,0,0,NA,0,1,NA,0.53,0.25,NA,NA,None,Plat,None,None,Single,None,Single,Conc,Chemo,ConvFrac,ConcConvFrac,Conc cis; 50 in 25,Cis4,None,Cis_4,None,0,0.07,NA,0,0.87,13,0.4,0.19,NA,NA,0,0,0,0,0,0,0,1,1,1,0,0,0,0,0,0,0,0,0,0,0,Low,NA,Tiny study,,
15364136,102,2,3,1,1,1,0,15364136,ZatloukalLungCa2004,III_UR,18-75,NA,Czech,1997,2001,Conc C_RT vs Seq C_RT,1,Conc cis-vin (C); 60 in 30,None,Plat,None,None,Multi,None,Multi,Conc,Chemo,ConvFrac,ConcConvFrac,CV_3,None,CV_3,None,0.65,0.18,0.04,NA,0.8,16.6,0.69,0.34,NA,NA,Plat,None,None,Multi,None,None,Multi,Induct,Chemo,ConvFrac,InductConvFrac,Ind cis-vin (C); 60 in 30,CV_3,CV_3,None,None,0.4,0.04,0.02,NA,0.47,12.9,0.53,14.3,NA,NA,1,0,1,1,1,NA,NA,1,0,1,0,1,0,0,0,0,0,0,0,0,0,Moderate,0.61,Significant survival advantage in concurrent arm,,
10577698_AC,204,2x2,3,1,1,1,1,10577698,BallRTOnc1999,"I, II, III_UR",NA,NA,Australia,1989,1995,2 fac,1,RT alone; 60 in 30,None,None,None,None,None,None,None,None,None,ConvFrac,NoneConvFrac,None,None,None,None,NA,0.08,NA,0,0.53,13.8,0.6,0.26,NA,NA,Plat,None,None,Single,None,None,Single,Induct,Chemo,ConvFrac,InductConvFrac,Ind carbo; 60 in 30,C_3,C_3,None,None,NA,0.19,NA,NA,0.61,17,0.63,0.29,NA,NA,0,NA,0,0,0,NA,NA,1,0,1,0,0,0,0,0,0,0,0,0,0,0,Moderate,NA,,,
10577698_BC,204,2x2,3,1,1,1,1,10577698,BallRTOnc1999,"I, II, III_UR",NA,NA,Australia,1989,1995,2 fac,1,RT alone; 60 in 30 (BD),None,None,None,None,None,None,None,None,None,HyperFrac,NoneHyperFrac,None,None,None,None,NA,0.28,NA,NA,0.61,14.4,0.61,0.28,NA,NA,Plat,None,None,Single,None,None,Single,Induct,Chemo,ConvFrac,InductConvFrac,Ind carbo; 60 in 30,C_3,C_3,None,None,NA,0.19,NA,NA,0.61,17,0.63,0.29,NA,NA,0,NA,0,0,0,NA,NA,1,0,1,0,0,0,0,0,0,0,0,0,0,0,Moderate,NA,,,
10577698_CD,204,2x2,3,1,1,1,1,10577698,BallRTOnc1999,"I, II, III_UR",NA,NA,Australia,1989,1995,2 fac,1,Ind carbo; 60 in 30,Plat,None,None,Single,None,None,None,Induct,Chemo,ConvFrac,InductConvFrac,C_3,C_3,None,None,NA,0.19,NA,NA,0.61,17,0.63,0.29,NA,NA,Plat,None,None,Single,None,None,Single,Induct,Chemo,HyperFrac,InductHyperFrac,Ind carbo; 60 in 30 (BD),C_3,C_3,None,None,NA,0.46,NA,NA,0.59,15,0.59,0.2,NA,NA,0,NA,0,0,0,NA,NA,1,0,1,0,0,0,0,0,0,0,0,0,0,0,Moderate,NA,,,
10577698_AD,204,2x2,3,1,1,1,1,10577698,BallRTOnc1999,"I, II, III_UR",NA,NA,Australia,1989,1995,2 fac,1,RT alone; 60 in 30,None,None,None,None,None,None,None,None,None,ConvFrac,NoneConvFrac,None,None,None,None,NA,0.08,NA,0,0.53,13.8,0.6,0.26,NA,NA,Plat,None,None,Single,None,None,Single,Induct,Chemo,HyperFrac,InductHyperFrac,Ind carbo; 60 in 30 (BD),C_3,C_3,None,None,NA,0.46,NA,NA,0.59,15,0.59,0.2,NA,NA,0,NA,0,0,0,NA,NA,1,0,1,0,0,0,0,0,0,0,0,0,0,0,Moderate,NA,,,
10577698_BD,204,2x2,3,1,1,1,1,10577698,BallRTOnc1999,"I, II, III_UR",NA,NA,Australia,1989,1995,2 fac,1,RT alone; 60 in 30 (BD),None,None,None,None,None,None,None,None,None,HyperFrac,NoneHyperFrac,None,None,None,None,NA,0.28,NA,NA,0.61,14.4,0.61,0.28,NA,NA,Plat,None,None,Single,None,None,Single,Induct,Chemo,HyperFrac,InductHyperFrac,Ind carbo; 60 in 30 (BD),C_3,C_3,None,None,NA,0.46,NA,NA,0.59,15,0.59,0.2,NA,NA,0,NA,0,0,0,NA,NA,1,0,1,0,0,0,0,0,0,0,0,0,0,0,Moderate,NA,,,
10577698_AB,204,2x2,3,1,1,1,1,10577698,BallRTOnc1999,"I, II, III_UR",NA,NA,Australia,1989,1995,2 fac,1,RT alone; 60 in 30,None,None,None,None,None,None,None,None,None,ConvFrac,NoneConvFrac,None,None,None,None,NA,0.08,NA,0,0.53,13.8,0.6,0.26,NA,NA,None,None,None,None,None,None,None,None,None,HyperFrac,NoneHyperFrac,RT alone; 60 in 30 (BD),None,None,None,None,NA,0.28,NA,NA,0.61,14.4,0.61,0.28,NA,NA,0,NA,0,0,0,NA,NA,1,0,1,0,0,0,0,0,0,0,0,0,0,0,Moderate,NA,,,
9506347_AC,99,3,3,1,1,1,1,9506347,BonnerCancer1998,III,NA,0.63,USA,1992,NA,RT vs AHRT vs AHFT + Chemo,1,RT alone; 60 in 30,None,None,None,None,None,None,None,None,None,ConvFrac,NoneConvFrac,None,None,None,None,NA,0.09,NA,NA,0.38,NA,0.33,NA,NA,NA,None,Plat,None,None,Multi,None,Multi,Conc,Chemo,HyperFrac,ConcHyperFrac,Conc cis-etop; 60 in 40 (BD),CisEtop_3,None,CisEtop_3,None,NA,0.12,NA,NA,0.41,NA,0.55,NA,NA,NA,1,0,NA,0,NA,NA,NA,1,1,1,0,1,0,0,0,1,1,0,0,0,0,Very low,NA,,,
9506347_BC,99,3,3,1,1,1,1,9506347,BonnerCancer1998,III,NA,0.63,USA,1992,NA,RT vs AHRT vs AHFT + Chemo,1,RT alone; 60 in 40 (BD),None,None,None,None,None,None,None,None,None,HyperFrac,NoneHyperFrac,None,None,None,None,NA,0.09,NA,NA,0.64,NA,0.55,NA,NA,NA,None,Plat,None,None,Multi,None,Multi,Conc,Chemo,HyperFrac,ConcHyperFrac,Conc cis-etop; 60 in 40 (BD),CisEtop_3,None,CisEtop_3,None,NA,0.12,NA,NA,0.41,NA,0.55,NA,NA,NA,1,0,NA,0,NA,NA,NA,1,1,1,0,1,0,0,0,1,1,0,0,0,0,Very low,NA,,,
9506347_AB,99,3,3,1,1,1,1,9506347,BonnerCancer1998,III,NA,0.63,USA,1992,NA,RT vs AHRT vs AHFT + Chemo,1,RT alone; 60 in 30,None,None,None,None,None,None,None,None,None,ConvFrac,NoneConvFrac,None,None,None,None,NA,0.09,NA,NA,0.38,NA,0.33,NA,NA,NA,None,None,None,None,None,None,None,None,None,HyperFrac,NoneHyperFrac,RT alone; 60 in 40 (BD),None,None,None,None,NA,0.09,NA,NA,0.64,NA,0.55,NA,NA,NA,1,0,NA,0,NA,NA,NA,1,1,1,0,1,0,0,0,1,1,0,0,0,0,Very low,NA,,,
