digraph superioritygraph {

overlap=scale;

labelloc = t


"Adj TMZ; 60-62"->"IndAdj TMZ ACNU Cis; 60-62" [label = "KimlHJNeurooncol2011 nonStatSig" labelURL = "./Adj TMZ; 60-62IndAdj TMZ ACNU Cis; 60-62.html",  dir = "both"  color="blue"];
"Adj TMZ; LessThan60Gy"->"Adj mCCNU; LessThan60Gy" [label = "WangXAnnSurgOncol2014 " labelURL = "./Adj TMZ; LessThan60GyAdj mCCNU; LessThan60Gy.html",  color="red"];
"Conc TMZ; 60-62"->"Conc TMZ; 60-62" [label = "GaberMCancerManagRes2013 nonStatSig" labelURL = "./Conc TMZ; 60-62Conc TMZ; 60-62.html",  dir = "both"  color="blue"];
"Conc TMZ; 60-62"->"RT alone; 60-62" [label = "KocherMStrahlentherapieundOnkol2008 nonStatSig" labelURL = "./Conc TMZ; 60-62RT alone; 60-62.html",  dir = "both"  color="blue"];
"Conc Tamox; LessThan60Gy"->"Conc TMZ; LessThan60Gy" [label = "ZhouSBAsianPacJCancerPrev2015 nonStatSig" labelURL = "./Conc Tamox; LessThan60GyConc TMZ; LessThan60Gy.html",  dir = "both"  color="blue"];
"ConcAdj TMZ Bev; 60-62"->"ConcAdj TMZ; 60-62" [label = "ChinotOLNEnglJMed2014, GilbertMRJClinOncol2014 nonStatSig" labelURL = "./ConcAdj TMZ Bev; 60-62ConcAdj TMZ; 60-62.html",  color="red"];
"ConcAdj TMZ Cil; 60-62"->"ConcAdj TMZ Cil; 60-62" [label = "NaborsLBCancer2012 nonStatSig" labelURL = "./ConcAdj TMZ Cil; 60-62ConcAdj TMZ Cil; 60-62.html",  dir = "both"  color="blue"];
"ConcAdj TMZ DCV; 60-62"->"ConcAdj TMZ; 60-62" [label = "ChoDYWorldNeurosurg2012 nonStatSig" labelURL = "./ConcAdj TMZ DCV; 60-62ConcAdj TMZ; 60-62.html",  color="red"];
"ConcAdj TMZ DD CRA Cel Thal; 60-62"->"ConcAdj TMZ DD CRA Cel; 60-62" [label = "Penas-PradoMNeuroOncol2015_DG nonStatSig" labelURL = "./ConcAdj TMZ DD CRA Cel Thal; 60-62ConcAdj TMZ DD CRA Cel; 60-62.html",  dir = "both"  color="blue"];
"ConcAdj TMZ DD CRA Cel Thal; 60-62"->"ConcAdj TMZ DD CRA Thal; 60-62" [label = "Penas-PradoMNeuroOncol2015_FG, Penas-PradoMNeuroOncol2015_EG nonStatSig" labelURL = "./ConcAdj TMZ DD CRA Cel Thal; 60-62ConcAdj TMZ DD CRA Thal; 60-62.html",  dir = "both"  color="blue"];
"ConcAdj TMZ DD CRA Cel Thal; 60-62"->"ConcAdj TMZ DD CRA; 60-62" [label = "Penas-PradoMNeuroOncol2015_AG nonStatSig" labelURL = "./ConcAdj TMZ DD CRA Cel Thal; 60-62ConcAdj TMZ DD CRA; 60-62.html",  dir = "both"  color="blue"];
"ConcAdj TMZ DD CRA Cel Thal; 60-62"->"ConcAdj TMZ DD Cel; 60-62" [label = "Penas-PradoMNeuroOncol2015_BG nonStatSig" labelURL = "./ConcAdj TMZ DD CRA Cel Thal; 60-62ConcAdj TMZ DD Cel; 60-62.html",  dir = "both"  color="blue"];
"ConcAdj TMZ DD CRA Cel Thal; 60-62"->"ConcAdj TMZ DD Thal; 60-62" [label = "Penas-PradoMNeuroOncol2015_CG nonStatSig" labelURL = "./ConcAdj TMZ DD CRA Cel Thal; 60-62ConcAdj TMZ DD Thal; 60-62.html",  dir = "both"  color="blue"];
"ConcAdj TMZ DD CRA Cel Thal; 60-62"->"ConcAdj TMZ DD; 60-62" [label = "Penas-PradoMNeuroOncol2015_GH nonStatSig" labelURL = "./ConcAdj TMZ DD CRA Cel Thal; 60-62ConcAdj TMZ DD; 60-62.html",  dir = "both"  color="blue"];
"ConcAdj TMZ DD CRA Cel; 60-62"->"ConcAdj TMZ DD CRA; 60-62" [label = "Penas-PradoMNeuroOncol2015_AD nonStatSig" labelURL = "./ConcAdj TMZ DD CRA Cel; 60-62ConcAdj TMZ DD CRA; 60-62.html",  dir = "both"  color="blue"];
"ConcAdj TMZ DD CRA Cel; 60-62"->"ConcAdj TMZ DD Cel Thal; 60-62" [label = "Penas-PradoMNeuroOncol2015_DF nonStatSig" labelURL = "./ConcAdj TMZ DD CRA Cel; 60-62ConcAdj TMZ DD Cel Thal; 60-62.html",  dir = "both"  color="blue"];
"ConcAdj TMZ DD CRA Cel; 60-62"->"ConcAdj TMZ DD Cel; 60-62" [label = "Penas-PradoMNeuroOncol2015_BD nonStatSig" labelURL = "./ConcAdj TMZ DD CRA Cel; 60-62ConcAdj TMZ DD Cel; 60-62.html",  dir = "both"  color="blue"];
"ConcAdj TMZ DD CRA Cel; 60-62"->"ConcAdj TMZ DD Thal; 60-62" [label = "Penas-PradoMNeuroOncol2015_CD nonStatSig" labelURL = "./ConcAdj TMZ DD CRA Cel; 60-62ConcAdj TMZ DD Thal; 60-62.html",  dir = "both"  color="blue"];
"ConcAdj TMZ DD CRA Cel; 60-62"->"ConcAdj TMZ DD; 60-62" [label = "Penas-PradoMNeuroOncol2015_DH nonStatSig" labelURL = "./ConcAdj TMZ DD CRA Cel; 60-62ConcAdj TMZ DD; 60-62.html",  dir = "both"  color="blue"];
"ConcAdj TMZ DD CRA Thal; 60-62"->"ConcAdj TMZ DD CRA Cel; 60-62" [label = "Penas-PradoMNeuroOncol2015_DE nonStatSig" labelURL = "./ConcAdj TMZ DD CRA Thal; 60-62ConcAdj TMZ DD CRA Cel; 60-62.html",  dir = "both"  color="blue"];
"ConcAdj TMZ DD CRA Thal; 60-62"->"ConcAdj TMZ DD CRA; 60-62" [label = "Penas-PradoMNeuroOncol2015_AE nonStatSig" labelURL = "./ConcAdj TMZ DD CRA Thal; 60-62ConcAdj TMZ DD CRA; 60-62.html",  dir = "both"  color="blue"];
"ConcAdj TMZ DD CRA Thal; 60-62"->"ConcAdj TMZ DD Cel Thal; 60-62" [label = "Penas-PradoMNeuroOncol2015_EF nonStatSig" labelURL = "./ConcAdj TMZ DD CRA Thal; 60-62ConcAdj TMZ DD Cel Thal; 60-62.html",  dir = "both"  color="blue"];
"ConcAdj TMZ DD CRA Thal; 60-62"->"ConcAdj TMZ DD Cel; 60-62" [label = "Penas-PradoMNeuroOncol2015_BE nonStatSig" labelURL = "./ConcAdj TMZ DD CRA Thal; 60-62ConcAdj TMZ DD Cel; 60-62.html",  dir = "both"  color="blue"];
"ConcAdj TMZ DD CRA Thal; 60-62"->"ConcAdj TMZ DD Thal; 60-62" [label = "Penas-PradoMNeuroOncol2015_CE nonStatSig" labelURL = "./ConcAdj TMZ DD CRA Thal; 60-62ConcAdj TMZ DD Thal; 60-62.html",  dir = "both"  color="blue"];
"ConcAdj TMZ DD CRA Thal; 60-62"->"ConcAdj TMZ DD; 60-62" [label = "Penas-PradoMNeuroOncol2015_EH nonStatSig" labelURL = "./ConcAdj TMZ DD CRA Thal; 60-62ConcAdj TMZ DD; 60-62.html",  dir = "both"  color="blue"];
"ConcAdj TMZ DD CRA; 60-62"->"ConcAdj TMZ DD Cel; 60-62" [label = "Penas-PradoMNeuroOncol2015_AB nonStatSig" labelURL = "./ConcAdj TMZ DD CRA; 60-62ConcAdj TMZ DD Cel; 60-62.html",  dir = "both"  color="blue"];
"ConcAdj TMZ DD CRA; 60-62"->"ConcAdj TMZ DD Thal; 60-62" [label = "Penas-PradoMNeuroOncol2015_AC nonStatSig" labelURL = "./ConcAdj TMZ DD CRA; 60-62ConcAdj TMZ DD Thal; 60-62.html",  dir = "both"  color="blue"];
"ConcAdj TMZ DD; 60-62"->"ConcAdj TMZ DD CRA; 60-62" [label = "Penas-PradoMNeuroOncol2015_AH nonStatSig" labelURL = "./ConcAdj TMZ DD CRA; 60-62ConcAdj TMZ DD; 60-62.html",  color="red"];
"ConcAdj TMZ DD CRA; 60-62"->"RT alone; 60-62" [label = "AthanassiouHJClinOncol2005 " labelURL = "./ConcAdj TMZ DD CRA; 60-62RT alone; 60-62.html",  color="red"];
"ConcAdj TMZ DD Cel Thal; 60-62"->"ConcAdj TMZ DD CRA; 60-62" [label = "Penas-PradoMNeuroOncol2015_AF nonStatSig" labelURL = "./ConcAdj TMZ DD Cel Thal; 60-62ConcAdj TMZ DD CRA; 60-62.html",  dir = "both"  color="blue"];
"ConcAdj TMZ DD Cel Thal; 60-62"->"ConcAdj TMZ DD Cel; 60-62" [label = "Penas-PradoMNeuroOncol2015_BF nonStatSig" labelURL = "./ConcAdj TMZ DD Cel Thal; 60-62ConcAdj TMZ DD Cel; 60-62.html",  dir = "both"  color="blue"];
"ConcAdj TMZ DD Cel Thal; 60-62"->"ConcAdj TMZ DD Thal; 60-62" [label = "Penas-PradoMNeuroOncol2015_CF nonStatSig" labelURL = "./ConcAdj TMZ DD Cel Thal; 60-62ConcAdj TMZ DD Thal; 60-62.html",  dir = "both"  color="blue"];
"ConcAdj TMZ DD Cel Thal; 60-62"->"ConcAdj TMZ DD; 60-62" [label = "Penas-PradoMNeuroOncol2015_FH nonStatSig" labelURL = "./ConcAdj TMZ DD Cel Thal; 60-62ConcAdj TMZ DD; 60-62.html",  dir = "both"  color="blue"];
"ConcAdj TMZ DD Cel; 60-62"->"ConcAdj TMZ DD; 60-62" [label = "Penas-PradoMNeuroOncol2015_BH nonStatSig" labelURL = "./ConcAdj TMZ DD Cel; 60-62ConcAdj TMZ DD; 60-62.html",  dir = "both"  color="blue"];
"ConcAdj TMZ DD Thal; 60-62"->"ConcAdj TMZ DD Cel; 60-62" [label = "Penas-PradoMNeuroOncol2015_BC nonStatSig" labelURL = "./ConcAdj TMZ DD Thal; 60-62ConcAdj TMZ DD Cel; 60-62.html",  dir = "both"  color="blue"];
"ConcAdj TMZ DD Thal; 60-62"->"ConcAdj TMZ DD; 60-62" [label = "Penas-PradoMNeuroOncol2015_CH nonStatSig" labelURL = "./ConcAdj TMZ DD Thal; 60-62ConcAdj TMZ DD; 60-62.html",  dir = "both"  color="blue"];
"ConcAdj TMZ DD; 60-62"->"ConcAdj TMZ Val; 60-62" [label = "StragliottoGIntJCancer2013 nonStatSig" labelURL = "./ConcAdj TMZ DD; 60-62ConcAdj TMZ Val; 60-62.html",  dir = "both"  color="blue"];
"ConcAdj TMZ DD; 60-62"->"ConcAdj TMZ; 60-62" [label = "GilbertMRJClinOncol2013 nonStatSig" labelURL = "./ConcAdj TMZ DD; 60-62ConcAdj TMZ; 60-62.html",  dir = "both"  color="blue"];
"ConcAdj TMZ Nimo; 60-62"->"ConcAdj TMZ; 60-62" [label = "WestphalMEurJCancer2015 nonStatSig" labelURL = "./ConcAdj TMZ Nimo; 60-62ConcAdj TMZ; 60-62.html",  dir = "both"  color="blue"];
"ConcAdj TMZ Nimo; LessThan60Gy"->"ConcAdj TMZ; LessThan60Gy" [label = "HongJExpTherMed2012 nonStatSig" labelURL = "./ConcAdj TMZ Nimo; LessThan60GyConcAdj TMZ; LessThan60Gy.html",  dir = "both"  color="blue"];
"ConcAdj TMZ TTF; 60-62"->"ConcAdj TMZ; 60-62" [label = "StuppRJAMA2015 nonStatSig" labelURL = "./ConcAdj TMZ TTF; 60-62ConcAdj TMZ; 60-62.html",  color="red"];
"ConcAdj TMZ; 60-62"->"IndConcAdj TMZ Bev Iri; 60-62" [label = "ChauffertBAnnOncol2014 nonStatSig" labelURL = "./ConcAdj TMZ; 60-62IndConcAdj TMZ Bev Iri; 60-62.html",  dir = "both"  color="blue"];
"ConcAdj TMZ; 60-62"->"IndConcAdj TMZ Van; 60-62" [label = "LeeEQClinCancerRes2015 nonStatSig" labelURL = "./ConcAdj TMZ; 60-62IndConcAdj TMZ Van; 60-62.html",  dir = "both"  color="blue"];
"IndConcAdj TMZ; 60-62"->"ConcAdj TMZ; 60-62" [label = "MaoYChinMedJ(Engl)2015 nonStatSig" labelURL = "./ConcAdj TMZ; 60-62IndConcAdj TMZ; 60-62.html",  color="red"];
"ConcAdj TMZ; 60-62"->"RT alone; 60-62" [label = "StuppRLancetOncol2009, StuppRNEnglJMed2005 nonStatSig" labelURL = "./ConcAdj TMZ; 60-62RT alone; 60-62.html",  color="red"];
"IndConcAdj Bev Iri; 60-62"->"IndConcAdj TMZ Bev; 60-62" [label = "HoflandKFActaOncol2014 nonStatSig" labelURL = "./IndConcAdj Bev Iri; 60-62IndConcAdj TMZ Bev; 60-62.html",  dir = "both"  color="blue"];
"IndConcAdj TMZ; 60-62"->"RT alone; 60-62" [label = "SzczepanekDNeurolNeurochirPol2013 nonStatSig" labelURL = "./RT alone; 60-62IndConcAdj TMZ; 60-62.html",  color="red"];

}
