digraph superioritygraph {

overlap=scale;

labelloc = t


"Bev Iri; HD RT"->"TMZ Bev; HD RT" [label = "HoflandKFActaOncol2014 Grade_NotGood" labelURL = "./Bev Iri; HD RTTMZ Bev; HD RT.html",  dir = "both"  color="blue"];
"HD RT"->"TMZ CRA; HD RT" [label = "AthanassiouHJClinOncol2005 Grade_NotGood" labelURL = "./HD RTTMZ CRA; HD RT.html",  dir = "both"  color="blue"];
"TMZ; HD RT"->"HD RT" [label = "SzczepanekDNeurolNeurochirPol2013, StuppRLancetOncol2009, StuppRNEnglJMed2005, KocherMStrahlentherapieundOnkol2008 Grade_NotGood" labelURL = "./HD RTTMZ; HD RT.html",  color="red"];
"TMZ ACNU Cis; HD RT"->"TMZ; HD RT" [label = "KimlHJNeurooncol2011 " labelURL = "./TMZ ACNU Cis; HD RTTMZ; HD RT.html",  color="red"];
"TMZ; HD RT"->"TMZ Bev Iri; HD RT" [label = "ChauffertBAnnOncol2014 " labelURL = "./TMZ Bev Iri; HD RTTMZ; HD RT.html",  color="red"];
"TMZ Bev; HD RT"->"TMZ; HD RT" [label = "ChinotOLNEnglJMed2014, GilbertMRJClinOncol2014 Grade_NotGood" labelURL = "./TMZ Bev; HD RTTMZ; HD RT.html",  dir = "both"  color="blue"];
"TMZ CRA Cel Thal; HD RT"->"TMZ CRA Cel; HD RT" [label = "Penas-PradoMNeuroOncol2015_DG Grade_NotGood" labelURL = "./TMZ CRA Cel Thal; HD RTTMZ CRA Cel; HD RT.html",  dir = "both"  color="blue"];
"TMZ CRA Cel Thal; HD RT"->"TMZ CRA Thal; HD RT" [label = "Penas-PradoMNeuroOncol2015_FG, Penas-PradoMNeuroOncol2015_EG Grade_NotGood" labelURL = "./TMZ CRA Cel Thal; HD RTTMZ CRA Thal; HD RT.html",  dir = "both"  color="blue"];
"TMZ CRA Cel Thal; HD RT"->"TMZ CRA; HD RT" [label = "Penas-PradoMNeuroOncol2015_AG Grade_NotGood" labelURL = "./TMZ CRA Cel Thal; HD RTTMZ CRA; HD RT.html",  dir = "both"  color="blue"];
"TMZ CRA Cel Thal; HD RT"->"TMZ Cel; HD RT" [label = "Penas-PradoMNeuroOncol2015_BG Grade_NotGood" labelURL = "./TMZ CRA Cel Thal; HD RTTMZ Cel; HD RT.html",  dir = "both"  color="blue"];
"TMZ CRA Cel Thal; HD RT"->"TMZ Thal; HD RT" [label = "Penas-PradoMNeuroOncol2015_CG Grade_NotGood" labelURL = "./TMZ CRA Cel Thal; HD RTTMZ Thal; HD RT.html",  dir = "both"  color="blue"];
"TMZ CRA Cel Thal; HD RT"->"TMZ; HD RT" [label = "Penas-PradoMNeuroOncol2015_GH Grade_NotGood" labelURL = "./TMZ CRA Cel Thal; HD RTTMZ; HD RT.html",  dir = "both"  color="blue"];
"TMZ CRA Cel; HD RT"->"TMZ CRA; HD RT" [label = "Penas-PradoMNeuroOncol2015_AD Grade_NotGood" labelURL = "./TMZ CRA Cel; HD RTTMZ CRA; HD RT.html",  dir = "both"  color="blue"];
"TMZ CRA Cel; HD RT"->"TMZ Cel Thal; HD RT" [label = "Penas-PradoMNeuroOncol2015_DF Grade_NotGood" labelURL = "./TMZ CRA Cel; HD RTTMZ Cel Thal; HD RT.html",  dir = "both"  color="blue"];
"TMZ CRA Cel; HD RT"->"TMZ Cel; HD RT" [label = "Penas-PradoMNeuroOncol2015_BD Grade_NotGood" labelURL = "./TMZ CRA Cel; HD RTTMZ Cel; HD RT.html",  dir = "both"  color="blue"];
"TMZ CRA Cel; HD RT"->"TMZ Thal; HD RT" [label = "Penas-PradoMNeuroOncol2015_CD Grade_NotGood" labelURL = "./TMZ CRA Cel; HD RTTMZ Thal; HD RT.html",  dir = "both"  color="blue"];
"TMZ CRA Cel; HD RT"->"TMZ; HD RT" [label = "Penas-PradoMNeuroOncol2015_DH Grade_NotGood" labelURL = "./TMZ CRA Cel; HD RTTMZ; HD RT.html",  dir = "both"  color="blue"];
"TMZ CRA Thal; HD RT"->"TMZ CRA Cel; HD RT" [label = "Penas-PradoMNeuroOncol2015_DE Grade_NotGood" labelURL = "./TMZ CRA Thal; HD RTTMZ CRA Cel; HD RT.html",  dir = "both"  color="blue"];
"TMZ CRA Thal; HD RT"->"TMZ CRA; HD RT" [label = "Penas-PradoMNeuroOncol2015_AE Grade_NotGood" labelURL = "./TMZ CRA Thal; HD RTTMZ CRA; HD RT.html",  dir = "both"  color="blue"];
"TMZ CRA Thal; HD RT"->"TMZ Cel Thal; HD RT" [label = "Penas-PradoMNeuroOncol2015_EF Grade_NotGood" labelURL = "./TMZ CRA Thal; HD RTTMZ Cel Thal; HD RT.html",  dir = "both"  color="blue"];
"TMZ CRA Thal; HD RT"->"TMZ Cel; HD RT" [label = "Penas-PradoMNeuroOncol2015_BE Grade_NotGood" labelURL = "./TMZ CRA Thal; HD RTTMZ Cel; HD RT.html",  dir = "both"  color="blue"];
"TMZ CRA Thal; HD RT"->"TMZ Thal; HD RT" [label = "Penas-PradoMNeuroOncol2015_CE Grade_NotGood" labelURL = "./TMZ CRA Thal; HD RTTMZ Thal; HD RT.html",  dir = "both"  color="blue"];
"TMZ CRA Thal; HD RT"->"TMZ; HD RT" [label = "Penas-PradoMNeuroOncol2015_EH Grade_NotGood" labelURL = "./TMZ CRA Thal; HD RTTMZ; HD RT.html",  dir = "both"  color="blue"];
"TMZ CRA; HD RT"->"TMZ Cel; HD RT" [label = "Penas-PradoMNeuroOncol2015_AB Grade_NotGood" labelURL = "./TMZ CRA; HD RTTMZ Cel; HD RT.html",  dir = "both"  color="blue"];
"TMZ CRA; HD RT"->"TMZ Thal; HD RT" [label = "Penas-PradoMNeuroOncol2015_AC Grade_NotGood" labelURL = "./TMZ CRA; HD RTTMZ Thal; HD RT.html",  dir = "both"  color="blue"];
"TMZ CRA; HD RT"->"TMZ; HD RT" [label = "Penas-PradoMNeuroOncol2015_AH Grade_NotGood" labelURL = "./TMZ CRA; HD RTTMZ; HD RT.html",  dir = "both"  color="blue"];
"TMZ Cel Thal; HD RT"->"TMZ CRA; HD RT" [label = "Penas-PradoMNeuroOncol2015_AF Grade_NotGood" labelURL = "./TMZ Cel Thal; HD RTTMZ CRA; HD RT.html",  dir = "both"  color="blue"];
"TMZ Cel Thal; HD RT"->"TMZ Cel; HD RT" [label = "Penas-PradoMNeuroOncol2015_BF Grade_NotGood" labelURL = "./TMZ Cel Thal; HD RTTMZ Cel; HD RT.html",  dir = "both"  color="blue"];
"TMZ Cel Thal; HD RT"->"TMZ Thal; HD RT" [label = "Penas-PradoMNeuroOncol2015_CF Grade_NotGood" labelURL = "./TMZ Cel Thal; HD RTTMZ Thal; HD RT.html",  dir = "both"  color="blue"];
"TMZ Cel Thal; HD RT"->"TMZ; HD RT" [label = "Penas-PradoMNeuroOncol2015_FH Grade_NotGood" labelURL = "./TMZ Cel Thal; HD RTTMZ; HD RT.html",  dir = "both"  color="blue"];
"TMZ Cel; HD RT"->"TMZ Thal; HD RT" [label = "Penas-PradoMNeuroOncol2015_BC Grade_NotGood" labelURL = "./TMZ Cel; HD RTTMZ Thal; HD RT.html",  dir = "both"  color="blue"];
"TMZ Cel; HD RT"->"TMZ; HD RT" [label = "Penas-PradoMNeuroOncol2015_BH Grade_NotGood" labelURL = "./TMZ Cel; HD RTTMZ; HD RT.html",  dir = "both"  color="blue"];
"TMZ Cil; HD RT"->"TMZ Cil; HD RT" [label = "NaborsLBCancer2012 " labelURL = "./TMZ Cil; HD RTTMZ Cil; HD RT.html",  color="red"];
"TMZ DCV; HD RT"->"TMZ; HD RT" [label = "ChoDYWorldNeurosurg2012 " labelURL = "./TMZ DCV; HD RTTMZ; HD RT.html",  color="red"];
"TMZ Nimo; HD RT"->"TMZ; HD RT" [label = "WestphalMEurJCancer2015, HongJExpTherMed2012 Grade_NotGood" labelURL = "./TMZ Nimo; HD RTTMZ; HD RT.html",  dir = "both"  color="blue"];
"TMZ TTF; HD RT"->"TMZ; HD RT" [label = "StuppRJAMA2015 " labelURL = "./TMZ TTF; HD RTTMZ; HD RT.html",  color="red"];
"TMZ Thal; HD RT"->"TMZ; HD RT" [label = "Penas-PradoMNeuroOncol2015_CH Grade_NotGood" labelURL = "./TMZ Thal; HD RTTMZ; HD RT.html",  dir = "both"  color="blue"];
"TMZ Val; HD RT"->"TMZ; HD RT" [label = "StragliottoGIntJCancer2013 Grade_NotGood" labelURL = "./TMZ Val; HD RTTMZ; HD RT.html",  dir = "both"  color="blue"];
"TMZ Van; HD RT"->"TMZ; HD RT" [label = "LeeEQClinCancerRes2015 Grade_NotGood" labelURL = "./TMZ Van; HD RTTMZ; HD RT.html",  dir = "both"  color="blue"];
"TMZ; HD RT"->"mCCNU; HD RT" [label = "WangXAnnSurgOncol2014 Grade_NotGood" labelURL = "./TMZ; HD RTmCCNU; HD RT.html",  dir = "both"  color="blue"];
"Tamox; HD RT"->"TMZ; HD RT" [label = "ZhouSBAsianPacJCancerPrev2015 Grade_NotGood" labelURL = "./Tamox; HD RTTMZ; HD RT.html",  dir = "both"  color="blue"];

}
