digraph superioritygraph {

overlap=scale;

labelloc = t


"Bev Iri; HD RT"->"TMZ Bev; HD RT" [label = "HoflandKFActaOncol2014 nonStatSig" labelURL = "./Bev Iri; HD RTTMZ Bev; HD RT.html",  dir = "both"  color="blue"];
"HD RT"->"Pall RT" [label = "MalmstromALancetOncol2012_BC nonStatSig" labelURL = "./HD RTPall RT.html",  dir = "both"  color="blue"];
"TMZ"->"HD RT" [label = "WickWLancetOncol2012_MGMTPos, WickWLancetOncol2012_MGMTNeg, MalmstromALancetOncol2012_AC, WickWLancetOncol2012 nonStatSig" labelURL = "./HD RTTMZ.html",  color="red"];
"TMZ CRA; HD RT"->"HD RT" [label = "AthanassiouHJClinOncol2005 " labelURL = "./HD RTTMZ CRA; HD RT.html",  color="red"];
"TMZ; HD RT"->"HD RT" [label = "StuppRNEnglJMed2005, StuppRLancetOncol2009_MGMTNeg, HegiMENEnglJMed2005_MGMTNeg, StuppRLancetOncol2009, HegiMENEnglJMed2005_MGMTPos, StuppRLancetOncol2009_MGMTPos, KocherMStrahlentherapieundOnkol2008, SzczepanekDNeurolNeurochirPol2013 nonStatSig" labelURL = "./HD RTTMZ; HD RT.html",  color="red"];
"HD RT or Pall RT"->"TMZ" [label = "MalmstromALancetOncol2012_MGMTPos, MalmstromALancetOncol2012_MGMTNeg nonStatSig" labelURL = "./HD RT or Pall RTTMZ.html",  dir = "both"  color="blue"];
"Pall RT"->"TMZ" [label = "MalmstromALancetOncol2012_AB nonStatSig" labelURL = "./Pall RTTMZ.html",  dir = "both"  color="blue"];
"TMZ ACNU Cis; HD RT"->"TMZ; HD RT" [label = "KimlHJNeurooncol2011 nonStatSig" labelURL = "./TMZ ACNU Cis; HD RTTMZ; HD RT.html",  dir = "both"  color="blue"];
"TMZ Bev Iri; HD RT"->"TMZ; HD RT" [label = "ChauffertBAnnOncol2014 nonStatSig" labelURL = "./TMZ Bev Iri; HD RTTMZ; HD RT.html",  dir = "both"  color="blue"];
"TMZ; HD RT"->"TMZ Bev; HD RT" [label = "ChinotOLNEnglJMed2014, GilbertMRJClinOncol2014 nonStatSig" labelURL = "./TMZ Bev; HD RTTMZ; HD RT.html",  color="red"];
"TMZ CRA Cel Thal; HD RT"->"TMZ CRA Thal; HD RT" [label = "Penas-PradoMNeuroOncol2015_FG, Penas-PradoMNeuroOncol2015_EG nonStatSig" labelURL = "./TMZ CRA Cel Thal; HD RTTMZ CRA Thal; HD RT.html",  dir = "both"  color="blue"];
"TMZ CRA Cel Thal; HD RT"->"TMZ CRA; HD RT" [label = "Penas-PradoMNeuroOncol2015_AG nonStatSig" labelURL = "./TMZ CRA Cel Thal; HD RTTMZ CRA; HD RT.html",  dir = "both"  color="blue"];
"TMZ CRA Cel Thal; HD RT"->"TMZ Cel; HD RT" [label = "Penas-PradoMNeuroOncol2015_BG nonStatSig" labelURL = "./TMZ CRA Cel Thal; HD RTTMZ Cel; HD RT.html",  dir = "both"  color="blue"];
"TMZ CRA Cel Thal; HD RT"->"TMZ Thal; HD RT" [label = "Penas-PradoMNeuroOncol2015_CG nonStatSig" labelURL = "./TMZ CRA Cel Thal; HD RTTMZ Thal; HD RT.html",  dir = "both"  color="blue"];
"TMZ CRA Cel Thal; HD RT"->"TMZ; HD RT" [label = "Penas-PradoMNeuroOncol2015_GH nonStatSig" labelURL = "./TMZ CRA Cel Thal; HD RTTMZ; HD RT.html",  dir = "both"  color="blue"];
"TMZ CRA Cel; HD RT"->"TMZ CRA Cel Thal; HD RT" [label = "Penas-PradoMNeuroOncol2015_DG nonStatSig" labelURL = "./TMZ CRA Cel; HD RTTMZ CRA Cel Thal; HD RT.html",  dir = "both"  color="blue"];
"TMZ CRA Cel; HD RT"->"TMZ CRA Thal; HD RT" [label = "Penas-PradoMNeuroOncol2015_DE nonStatSig" labelURL = "./TMZ CRA Cel; HD RTTMZ CRA Thal; HD RT.html",  dir = "both"  color="blue"];
"TMZ CRA Cel; HD RT"->"TMZ CRA; HD RT" [label = "Penas-PradoMNeuroOncol2015_AD nonStatSig" labelURL = "./TMZ CRA Cel; HD RTTMZ CRA; HD RT.html",  dir = "both"  color="blue"];
"TMZ CRA Cel; HD RT"->"TMZ Cel Thal; HD RT" [label = "Penas-PradoMNeuroOncol2015_DF nonStatSig" labelURL = "./TMZ CRA Cel; HD RTTMZ Cel Thal; HD RT.html",  dir = "both"  color="blue"];
"TMZ CRA Cel; HD RT"->"TMZ Cel; HD RT" [label = "Penas-PradoMNeuroOncol2015_BD nonStatSig" labelURL = "./TMZ CRA Cel; HD RTTMZ Cel; HD RT.html",  dir = "both"  color="blue"];
"TMZ CRA Cel; HD RT"->"TMZ Thal; HD RT" [label = "Penas-PradoMNeuroOncol2015_CD nonStatSig" labelURL = "./TMZ CRA Cel; HD RTTMZ Thal; HD RT.html",  dir = "both"  color="blue"];
"TMZ CRA Cel; HD RT"->"TMZ; HD RT" [label = "Penas-PradoMNeuroOncol2015_DH nonStatSig" labelURL = "./TMZ CRA Cel; HD RTTMZ; HD RT.html",  dir = "both"  color="blue"];
"TMZ CRA Thal; HD RT"->"TMZ Cel Thal; HD RT" [label = "Penas-PradoMNeuroOncol2015_EF nonStatSig" labelURL = "./TMZ CRA Thal; HD RTTMZ Cel Thal; HD RT.html",  dir = "both"  color="blue"];
"TMZ CRA Thal; HD RT"->"TMZ Cel; HD RT" [label = "Penas-PradoMNeuroOncol2015_BE nonStatSig" labelURL = "./TMZ CRA Thal; HD RTTMZ Cel; HD RT.html",  dir = "both"  color="blue"];
"TMZ CRA Thal; HD RT"->"TMZ Thal; HD RT" [label = "Penas-PradoMNeuroOncol2015_CE nonStatSig" labelURL = "./TMZ CRA Thal; HD RTTMZ Thal; HD RT.html",  dir = "both"  color="blue"];
"TMZ CRA Thal; HD RT"->"TMZ; HD RT" [label = "Penas-PradoMNeuroOncol2015_EH nonStatSig" labelURL = "./TMZ CRA Thal; HD RTTMZ; HD RT.html",  dir = "both"  color="blue"];
"TMZ CRA; HD RT"->"TMZ CRA Thal; HD RT" [label = "Penas-PradoMNeuroOncol2015_AE nonStatSig" labelURL = "./TMZ CRA; HD RTTMZ CRA Thal; HD RT.html",  dir = "both"  color="blue"];
"TMZ CRA; HD RT"->"TMZ CRA; HD RT" [label = "ClarkeJLJClinOncol2009 nonStatSig" labelURL = "./TMZ CRA; HD RTTMZ CRA; HD RT.html",  dir = "both"  color="blue"];
"TMZ CRA; HD RT"->"TMZ Cel Thal; HD RT" [label = "Penas-PradoMNeuroOncol2015_AF nonStatSig" labelURL = "./TMZ CRA; HD RTTMZ Cel Thal; HD RT.html",  dir = "both"  color="blue"];
"TMZ CRA; HD RT"->"TMZ Cel; HD RT" [label = "Penas-PradoMNeuroOncol2015_AB nonStatSig" labelURL = "./TMZ CRA; HD RTTMZ Cel; HD RT.html",  dir = "both"  color="blue"];
"TMZ CRA; HD RT"->"TMZ Thal; HD RT" [label = "Penas-PradoMNeuroOncol2015_AC nonStatSig" labelURL = "./TMZ CRA; HD RTTMZ Thal; HD RT.html",  dir = "both"  color="blue"];
"TMZ; HD RT"->"TMZ CRA; HD RT" [label = "Penas-PradoMNeuroOncol2015_AH nonStatSig" labelURL = "./TMZ CRA; HD RTTMZ; HD RT.html",  color="red"];
"TMZ Cel Thal; HD RT"->"TMZ Thal; HD RT" [label = "Penas-PradoMNeuroOncol2015_CF nonStatSig" labelURL = "./TMZ Cel Thal; HD RTTMZ Thal; HD RT.html",  dir = "both"  color="blue"];
"TMZ Cel Thal; HD RT"->"TMZ; HD RT" [label = "Penas-PradoMNeuroOncol2015_FH nonStatSig" labelURL = "./TMZ Cel Thal; HD RTTMZ; HD RT.html",  dir = "both"  color="blue"];
"TMZ Cel; HD RT"->"TMZ Cel Thal; HD RT" [label = "Penas-PradoMNeuroOncol2015_BF nonStatSig" labelURL = "./TMZ Cel; HD RTTMZ Cel Thal; HD RT.html",  dir = "both"  color="blue"];
"TMZ Cel; HD RT"->"TMZ Thal; HD RT" [label = "Penas-PradoMNeuroOncol2015_BC nonStatSig" labelURL = "./TMZ Cel; HD RTTMZ Thal; HD RT.html",  dir = "both"  color="blue"];
"TMZ Cel; HD RT"->"TMZ; HD RT" [label = "Penas-PradoMNeuroOncol2015_BH nonStatSig" labelURL = "./TMZ Cel; HD RTTMZ; HD RT.html",  dir = "both"  color="blue"];
"TMZ Cil; HD RT"->"TMZ; HD RT" [label = "NaborsLBNeuroOncol2015_BC, StuppRLancetOncol2014, NaborsLBNeuroOncol2015_AC nonStatSig" labelURL = "./TMZ Cil; HD RTTMZ; HD RT.html",  dir = "both"  color="blue"];
"TMZ DCV; HD RT"->"TMZ; HD RT" [label = "ChoDYWorldNeurosurg2012 nonStatSig" labelURL = "./TMZ DCV; HD RTTMZ; HD RT.html",  color="red"];
"TMZ Nimo; HD RT"->"TMZ; HD RT" [label = "WestphalMEurJCancer2015_MGMTPos, WestphalMEurJCancer2015_MGMTNeg, WestphalMEurJCancer2015, HongJExpTherMed2012 nonStatSig" labelURL = "./TMZ Nimo; HD RTTMZ; HD RT.html",  dir = "both"  color="blue"];
"TMZ Pac; HD RT"->"TMZ; HD RT" [label = "ElinzanoHAmJClinOncol2015 nonStatSig" labelURL = "./TMZ Pac; HD RTTMZ; HD RT.html",  dir = "both"  color="blue"];
"TMZ TTF; HD RT"->"TMZ; HD RT" [label = "StuppRJAMA2015 nonStatSig" labelURL = "./TMZ TTF; HD RTTMZ; HD RT.html",  color="red"];
"TMZ Thal; HD RT"->"TMZ; HD RT" [label = "Penas-PradoMNeuroOncol2015_CH nonStatSig" labelURL = "./TMZ Thal; HD RTTMZ; HD RT.html",  dir = "both"  color="blue"];
"TMZ Val; HD RT"->"TMZ; HD RT" [label = "StragliottoGIntJCancer2013 nonStatSig" labelURL = "./TMZ Val; HD RTTMZ; HD RT.html",  dir = "both"  color="blue"];
"TMZ Van; HD RT"->"TMZ; HD RT" [label = "LeeEQClinCancerRes2015 nonStatSig" labelURL = "./TMZ Van; HD RTTMZ; HD RT.html",  dir = "both"  color="blue"];
"TMZ; HD RT"->"mCCNU; HD RT" [label = "WangXAnnSurgOncol2014 " labelURL = "./TMZ; HD RTmCCNU; HD RT.html",  color="red"];
"Tamox; HD RT"->"TMZ; HD RT" [label = "ZhouSBAsianPacJCancerPrev2015 nonStatSig" labelURL = "./Tamox; HD RTTMZ; HD RT.html",  dir = "both"  color="blue"];

}
