digraph superioritygraph {

overlap=scale;

labelloc = t


"Adj TMZ; HD RT"->"IndAdj TMZ ACNU Cis; HD RT" [label = "KimlHJNeurooncol2011 nonStatSig" labelURL = "./Adj TMZ; HD RTIndAdj TMZ ACNU Cis; HD RT.html",  dir = "both"  color="blue"];
"Adj TMZ; HD RT"->"Adj mCCNU; HD RT" [label = "WangXAnnSurgOncol2014 " labelURL = "./Adj mCCNU; HD RTAdj TMZ; HD RT.html",  color="red"];
"Conc TMZ; HD RT"->"RT alone; HD RT" [label = "KocherMStrahlentherapieundOnkol2008 nonStatSig" labelURL = "./Conc TMZ; HD RTRT alone; HD RT.html",  dir = "both"  color="blue"];
"Conc Tamox; HD RT"->"Conc TMZ; HD RT" [label = "ZhouSBAsianPacJCancerPrev2015 nonStatSig" labelURL = "./Conc Tamox; HD RTConc TMZ; HD RT.html",  dir = "both"  color="blue"];
"ConcAdj TMZ Bev; HD RT"->"ConcAdj TMZ; HD RT" [label = "ChinotOLNEnglJMed2014, GilbertMRJClinOncol2014 nonStatSig" labelURL = "./ConcAdj TMZ Bev; HD RTConcAdj TMZ; HD RT.html",  color="red"];
"ConcAdj TMZ Cil; HD RT"->"ConcAdj TMZ Cil; HD RT" [label = "NaborsLBCancer2012 nonStatSig" labelURL = "./ConcAdj TMZ Cil; HD RTConcAdj TMZ Cil; HD RT.html",  dir = "both"  color="blue"];
"ConcAdj TMZ DCV; HD RT"->"ConcAdj TMZ; HD RT" [label = "ChoDYWorldNeurosurg2012 nonStatSig" labelURL = "./ConcAdj TMZ DCV; HD RTConcAdj TMZ; HD RT.html",  color="red"];
"ConcAdj TMZ DD CRA Cel Thal; HD RT"->"ConcAdj TMZ DD CRA Cel; HD RT" [label = "Penas-PradoMNeuroOncol2015_DG nonStatSig" labelURL = "./ConcAdj TMZ DD CRA Cel Thal; HD RTConcAdj TMZ DD CRA Cel; HD RT.html",  dir = "both"  color="blue"];
"ConcAdj TMZ DD CRA Cel Thal; HD RT"->"ConcAdj TMZ DD CRA Thal; HD RT" [label = "Penas-PradoMNeuroOncol2015_FG, Penas-PradoMNeuroOncol2015_EG nonStatSig" labelURL = "./ConcAdj TMZ DD CRA Cel Thal; HD RTConcAdj TMZ DD CRA Thal; HD RT.html",  dir = "both"  color="blue"];
"ConcAdj TMZ DD CRA Cel Thal; HD RT"->"ConcAdj TMZ DD CRA; HD RT" [label = "Penas-PradoMNeuroOncol2015_AG nonStatSig" labelURL = "./ConcAdj TMZ DD CRA Cel Thal; HD RTConcAdj TMZ DD CRA; HD RT.html",  dir = "both"  color="blue"];
"ConcAdj TMZ DD CRA Cel Thal; HD RT"->"ConcAdj TMZ DD Cel; HD RT" [label = "Penas-PradoMNeuroOncol2015_BG nonStatSig" labelURL = "./ConcAdj TMZ DD CRA Cel Thal; HD RTConcAdj TMZ DD Cel; HD RT.html",  dir = "both"  color="blue"];
"ConcAdj TMZ DD CRA Cel Thal; HD RT"->"ConcAdj TMZ DD Thal; HD RT" [label = "Penas-PradoMNeuroOncol2015_CG nonStatSig" labelURL = "./ConcAdj TMZ DD CRA Cel Thal; HD RTConcAdj TMZ DD Thal; HD RT.html",  dir = "both"  color="blue"];
"ConcAdj TMZ DD CRA Cel Thal; HD RT"->"ConcAdj TMZ DD; HD RT" [label = "Penas-PradoMNeuroOncol2015_GH nonStatSig" labelURL = "./ConcAdj TMZ DD CRA Cel Thal; HD RTConcAdj TMZ DD; HD RT.html",  dir = "both"  color="blue"];
"ConcAdj TMZ DD CRA Cel; HD RT"->"ConcAdj TMZ DD CRA; HD RT" [label = "Penas-PradoMNeuroOncol2015_AD nonStatSig" labelURL = "./ConcAdj TMZ DD CRA Cel; HD RTConcAdj TMZ DD CRA; HD RT.html",  dir = "both"  color="blue"];
"ConcAdj TMZ DD CRA Cel; HD RT"->"ConcAdj TMZ DD Cel Thal; HD RT" [label = "Penas-PradoMNeuroOncol2015_DF nonStatSig" labelURL = "./ConcAdj TMZ DD CRA Cel; HD RTConcAdj TMZ DD Cel Thal; HD RT.html",  dir = "both"  color="blue"];
"ConcAdj TMZ DD CRA Cel; HD RT"->"ConcAdj TMZ DD Cel; HD RT" [label = "Penas-PradoMNeuroOncol2015_BD nonStatSig" labelURL = "./ConcAdj TMZ DD CRA Cel; HD RTConcAdj TMZ DD Cel; HD RT.html",  dir = "both"  color="blue"];
"ConcAdj TMZ DD CRA Cel; HD RT"->"ConcAdj TMZ DD Thal; HD RT" [label = "Penas-PradoMNeuroOncol2015_CD nonStatSig" labelURL = "./ConcAdj TMZ DD CRA Cel; HD RTConcAdj TMZ DD Thal; HD RT.html",  dir = "both"  color="blue"];
"ConcAdj TMZ DD CRA Cel; HD RT"->"ConcAdj TMZ DD; HD RT" [label = "Penas-PradoMNeuroOncol2015_DH nonStatSig" labelURL = "./ConcAdj TMZ DD CRA Cel; HD RTConcAdj TMZ DD; HD RT.html",  dir = "both"  color="blue"];
"ConcAdj TMZ DD CRA Thal; HD RT"->"ConcAdj TMZ DD CRA Cel; HD RT" [label = "Penas-PradoMNeuroOncol2015_DE nonStatSig" labelURL = "./ConcAdj TMZ DD CRA Thal; HD RTConcAdj TMZ DD CRA Cel; HD RT.html",  dir = "both"  color="blue"];
"ConcAdj TMZ DD CRA Thal; HD RT"->"ConcAdj TMZ DD CRA; HD RT" [label = "Penas-PradoMNeuroOncol2015_AE nonStatSig" labelURL = "./ConcAdj TMZ DD CRA Thal; HD RTConcAdj TMZ DD CRA; HD RT.html",  dir = "both"  color="blue"];
"ConcAdj TMZ DD CRA Thal; HD RT"->"ConcAdj TMZ DD Cel Thal; HD RT" [label = "Penas-PradoMNeuroOncol2015_EF nonStatSig" labelURL = "./ConcAdj TMZ DD CRA Thal; HD RTConcAdj TMZ DD Cel Thal; HD RT.html",  dir = "both"  color="blue"];
"ConcAdj TMZ DD CRA Thal; HD RT"->"ConcAdj TMZ DD Cel; HD RT" [label = "Penas-PradoMNeuroOncol2015_BE nonStatSig" labelURL = "./ConcAdj TMZ DD CRA Thal; HD RTConcAdj TMZ DD Cel; HD RT.html",  dir = "both"  color="blue"];
"ConcAdj TMZ DD CRA Thal; HD RT"->"ConcAdj TMZ DD Thal; HD RT" [label = "Penas-PradoMNeuroOncol2015_CE nonStatSig" labelURL = "./ConcAdj TMZ DD CRA Thal; HD RTConcAdj TMZ DD Thal; HD RT.html",  dir = "both"  color="blue"];
"ConcAdj TMZ DD CRA Thal; HD RT"->"ConcAdj TMZ DD; HD RT" [label = "Penas-PradoMNeuroOncol2015_EH nonStatSig" labelURL = "./ConcAdj TMZ DD CRA Thal; HD RTConcAdj TMZ DD; HD RT.html",  dir = "both"  color="blue"];
"ConcAdj TMZ DD CRA; HD RT"->"ConcAdj TMZ DD Cel; HD RT" [label = "Penas-PradoMNeuroOncol2015_AB nonStatSig" labelURL = "./ConcAdj TMZ DD CRA; HD RTConcAdj TMZ DD Cel; HD RT.html",  dir = "both"  color="blue"];
"ConcAdj TMZ DD CRA; HD RT"->"ConcAdj TMZ DD Thal; HD RT" [label = "Penas-PradoMNeuroOncol2015_AC nonStatSig" labelURL = "./ConcAdj TMZ DD CRA; HD RTConcAdj TMZ DD Thal; HD RT.html",  dir = "both"  color="blue"];
"ConcAdj TMZ DD; HD RT"->"ConcAdj TMZ DD CRA; HD RT" [label = "Penas-PradoMNeuroOncol2015_AH nonStatSig" labelURL = "./ConcAdj TMZ DD CRA; HD RTConcAdj TMZ DD; HD RT.html",  color="red"];
"ConcAdj TMZ DD CRA; HD RT"->"RT alone; HD RT" [label = "AthanassiouHJClinOncol2005 " labelURL = "./ConcAdj TMZ DD CRA; HD RTRT alone; HD RT.html",  color="red"];
"ConcAdj TMZ DD Cel Thal; HD RT"->"ConcAdj TMZ DD CRA; HD RT" [label = "Penas-PradoMNeuroOncol2015_AF nonStatSig" labelURL = "./ConcAdj TMZ DD Cel Thal; HD RTConcAdj TMZ DD CRA; HD RT.html",  dir = "both"  color="blue"];
"ConcAdj TMZ DD Cel Thal; HD RT"->"ConcAdj TMZ DD Cel; HD RT" [label = "Penas-PradoMNeuroOncol2015_BF nonStatSig" labelURL = "./ConcAdj TMZ DD Cel Thal; HD RTConcAdj TMZ DD Cel; HD RT.html",  dir = "both"  color="blue"];
"ConcAdj TMZ DD Cel Thal; HD RT"->"ConcAdj TMZ DD Thal; HD RT" [label = "Penas-PradoMNeuroOncol2015_CF nonStatSig" labelURL = "./ConcAdj TMZ DD Cel Thal; HD RTConcAdj TMZ DD Thal; HD RT.html",  dir = "both"  color="blue"];
"ConcAdj TMZ DD Cel Thal; HD RT"->"ConcAdj TMZ DD; HD RT" [label = "Penas-PradoMNeuroOncol2015_FH nonStatSig" labelURL = "./ConcAdj TMZ DD Cel Thal; HD RTConcAdj TMZ DD; HD RT.html",  dir = "both"  color="blue"];
"ConcAdj TMZ DD Cel; HD RT"->"ConcAdj TMZ DD; HD RT" [label = "Penas-PradoMNeuroOncol2015_BH nonStatSig" labelURL = "./ConcAdj TMZ DD Cel; HD RTConcAdj TMZ DD; HD RT.html",  dir = "both"  color="blue"];
"ConcAdj TMZ DD Thal; HD RT"->"ConcAdj TMZ DD Cel; HD RT" [label = "Penas-PradoMNeuroOncol2015_BC nonStatSig" labelURL = "./ConcAdj TMZ DD Thal; HD RTConcAdj TMZ DD Cel; HD RT.html",  dir = "both"  color="blue"];
"ConcAdj TMZ DD Thal; HD RT"->"ConcAdj TMZ DD; HD RT" [label = "Penas-PradoMNeuroOncol2015_CH nonStatSig" labelURL = "./ConcAdj TMZ DD Thal; HD RTConcAdj TMZ DD; HD RT.html",  dir = "both"  color="blue"];
"ConcAdj TMZ DD; HD RT"->"ConcAdj TMZ Val; HD RT" [label = "StragliottoGIntJCancer2013 nonStatSig" labelURL = "./ConcAdj TMZ DD; HD RTConcAdj TMZ Val; HD RT.html",  dir = "both"  color="blue"];
"ConcAdj TMZ DD; HD RT"->"ConcAdj TMZ; HD RT" [label = "GilbertMRJClinOncol2013 nonStatSig" labelURL = "./ConcAdj TMZ DD; HD RTConcAdj TMZ; HD RT.html",  dir = "both"  color="blue"];
"ConcAdj TMZ Nimo; HD RT"->"ConcAdj TMZ; HD RT" [label = "WestphalMEurJCancer2015, HongJExpTherMed2012 nonStatSig" labelURL = "./ConcAdj TMZ Nimo; HD RTConcAdj TMZ; HD RT.html",  dir = "both"  color="blue"];
"ConcAdj TMZ TTF; HD RT"->"ConcAdj TMZ; HD RT" [label = "StuppRJAMA2015 nonStatSig" labelURL = "./ConcAdj TMZ TTF; HD RTConcAdj TMZ; HD RT.html",  color="red"];
"ConcAdj TMZ; HD RT"->"IndConcAdj TMZ Bev Iri; HD RT" [label = "ChauffertBAnnOncol2014 nonStatSig" labelURL = "./ConcAdj TMZ; HD RTIndConcAdj TMZ Bev Iri; HD RT.html",  dir = "both"  color="blue"];
"ConcAdj TMZ; HD RT"->"IndConcAdj TMZ Van; HD RT" [label = "LeeEQClinCancerRes2015 nonStatSig" labelURL = "./ConcAdj TMZ; HD RTIndConcAdj TMZ Van; HD RT.html",  dir = "both"  color="blue"];
"IndConcAdj TMZ; HD RT"->"ConcAdj TMZ; HD RT" [label = "MaoYChinMedJ(Engl)2015 nonStatSig" labelURL = "./ConcAdj TMZ; HD RTIndConcAdj TMZ; HD RT.html",  color="red"];
"ConcAdj TMZ; HD RT"->"RT alone; HD RT" [label = "StuppRLancetOncol2009, StuppRNEnglJMed2005 nonStatSig" labelURL = "./ConcAdj TMZ; HD RTRT alone; HD RT.html",  color="red"];
"IndConcAdj Bev Iri; HD RT"->"IndConcAdj TMZ Bev; HD RT" [label = "HoflandKFActaOncol2014 nonStatSig" labelURL = "./IndConcAdj Bev Iri; HD RTIndConcAdj TMZ Bev; HD RT.html",  dir = "both"  color="blue"];
"IndConcAdj TMZ; HD RT"->"RT alone; HD RT" [label = "SzczepanekDNeurolNeurochirPol2013 nonStatSig" labelURL = "./RT alone; HD RTIndConcAdj TMZ; HD RT.html",  color="red"];

}
