digraph superioritygraph {

overlap=scale;

labelloc = t


"TMZ combined; HD RT"->"HD RT" [label = "AthanassiouHJClinOncol2005 " labelURL = "./HD RTTMZ combined; HD RT.html",  color="red"];
"TMZ; HD RT"->"HD RT" [label = "SzczepanekDNeurolNeurochirPol2013,
StuppRLancetOncol2009,
StuppRNEnglJMed2005,
KocherMStrahlentherapieundOnkol2008 " labelURL = "./HD RTTMZ; HD RT.html",  color="red"];
"Other; HD RT"->"TMZ combined; HD RT" [label = "HoflandKFActaOncol2014 " labelURL = "./Other; HD RTTMZ combined; HD RT.html",  dir = "both"  color="blue"];
"TMZ; HD RT"->"Other; HD RT" [label = "ZhouSBAsianPacJCancerPrev2015, WangXAnnSurgOncol2014 " labelURL = "./Other; HD RTTMZ; HD RT.html",  color="red"];
"TMZ combined; HD RT"->"TMZ; HD RT" [label = "Penas-PradoMNeuroOncol2015_AH,
LeeEQClinCancerRes2015,
KimlHJNeurooncol2011,
ChinotOLNEnglJMed2014,
HongJExpTherMed2012,
GilbertMRJClinOncol2014,
Penas-PradoMNeuroOncol2015_DH,
Penas-PradoMNeuroOncol2015_FH,
Penas-PradoMNeuroOncol2015_GH,
Penas-PradoMNeuroOncol2015_BH,
ChoDYWorldNeurosurg2012,
StragliottoGIntJCancer2013,
StuppRJAMA2015,
Penas-PradoMNeuroOncol2015_EH,
Penas-PradoMNeuroOncol2015_CH,
WestphalMEurJCancer2015,
ChauffertBAnnOncol2014 " labelURL = "./TMZ; HD RTTMZ combined; HD RT.html",  color="red"];
"TMZ; HD RT"->"TMZ; HD RT" [label = "GilbertMRJClinOncol2013, MaoYChinMedJ(Engl)2015, GaberMCancerManagRes2013 " labelURL = "./TMZ; HD RTTMZ; HD RT.html",  color="red"];

}
