digraph superioritygraph {

overlap=scale;

labelloc = t


"Adj TMZ; 45-60 in 23-33"->"Adj mCCNU; 45-60 in 23-33" [label = "WangXAnnSurgOncol2014 " labelURL = "./Adj TMZ; 45-60 in 23-33Adj mCCNU; 45-60 in 23-33.html",  color="red"];
"Adj TMZ; 60-61.2 in 30-34"->"Ind ACNU Cis Adj TMZ; 60-61.2 in 30-34" [label = "KimlHJNeurooncol2011 nonStatSig" labelURL = "./Adj TMZ; 60-61.2 in 30-34Ind ACNU Cis Adj TMZ; 60-61.2 in 30-34.html",  dir = "both"  color="blue"];
"Conc TMZ 100 Adj Ext TMZ (B) DCV; 60 in 30"->"Conc TMZ 100 Adj Ext TMZ (B); 60 in 30" [label = "ChoDYWorldNeurosurg2012 nonStatSig" labelURL = "./Conc TMZ 100 Adj Ext TMZ (B) DCV; 60 in 30Conc TMZ 100 Adj Ext TMZ (B); 60 in 30.html",  color="red"];
"Conc TMZ Adj Ext TMZ (A) TTF; 60 in 30"->"Conc TMZ Adj Ext TMZ (A); 60 in 30" [label = "StuppRJAMA2015 nonStatSig" labelURL = "./Conc TMZ Adj Ext TMZ (A) TTF; 60 in 30Conc TMZ Adj Ext TMZ (A); 60 in 30.html",  color="red"];
"Conc TMZ Adj Ext TMZ (A); 60 in 30"->"Conc TMZ Adj TMZ DD 75-100; 60 in 30" [label = "GilbertMRJClinOncol2013 nonStatSig" labelURL = "./Conc TMZ Adj Ext TMZ (A); 60 in 30Conc TMZ Adj TMZ DD 75-100; 60 in 30.html",  dir = "both"  color="blue"];
"Conc TMZ Bev (B) Adj TMZ Bev (B); 60 in 30"->"Conc TMZ Adj Ext TMZ (A); 60 in 30" [label = "GilbertMRJClinOncol2014 nonStatSig" labelURL = "./Conc TMZ Adj Ext TMZ (A); 60 in 30Conc TMZ Bev (B) Adj TMZ Bev (B); 60 in 30.html",  color="red"];
"Conc TMZ Adj Ext TMZ (C); 60 in 30-33"->"Ind Van Conc TMZ Van Adj TMZ Van; 60 in 30-33" [label = "LeeEQClinCancerRes2015 nonStatSig" labelURL = "./Conc TMZ Adj Ext TMZ (C); 60 in 30-33Ind Van Conc TMZ Van Adj TMZ Van; 60 in 30-33.html",  dir = "both"  color="blue"];
"Conc TMZ Adj TMZ DD 150 CRA 100; 60 in 30"->"Conc TMZ Adj TMZ DD 50 CRA 100; 60 in 30" [label = "ClarkeJLJClinOncol2009 nonStatSig" labelURL = "./Conc TMZ Adj TMZ DD 150 CRA 100; 60 in 30Conc TMZ Adj TMZ DD 50 CRA 100; 60 in 30.html",  dir = "both"  color="blue"];
"Conc TMZ Adj TMZ DD 150 CRA 100; 60 in 30"->"RT alone; 60 in 30" [label = "AthanassiouHJClinOncol2005 " labelURL = "./Conc TMZ Adj TMZ DD 150 CRA 100; 60 in 30RT alone; 60 in 30.html",  color="red"];
"Conc TMZ Adj TMZ DD 150 CRA 40; 60 in 30"->"Conc TMZ Adj TMZ DD 150 CRA Cel Thal; 60 in 30" [label = "Penas-PradoMNeuroOncol2015_AG nonStatSig" labelURL = "./Conc TMZ Adj TMZ DD 150 CRA 40; 60 in 30Conc TMZ Adj TMZ DD 150 CRA Cel Thal; 60 in 30.html",  dir = "both"  color="blue"];
"Conc TMZ Adj TMZ DD 150 CRA 40; 60 in 30"->"Conc TMZ Adj TMZ DD 150 CRA Cel; 60 in 30" [label = "Penas-PradoMNeuroOncol2015_AD nonStatSig" labelURL = "./Conc TMZ Adj TMZ DD 150 CRA 40; 60 in 30Conc TMZ Adj TMZ DD 150 CRA Cel; 60 in 30.html",  dir = "both"  color="blue"];
"Conc TMZ Adj TMZ DD 150 CRA 40; 60 in 30"->"Conc TMZ Adj TMZ DD 150 CRA Thal; 60 in 30" [label = "Penas-PradoMNeuroOncol2015_AE nonStatSig" labelURL = "./Conc TMZ Adj TMZ DD 150 CRA 40; 60 in 30Conc TMZ Adj TMZ DD 150 CRA Thal; 60 in 30.html",  dir = "both"  color="blue"];
"Conc TMZ Adj TMZ DD 150 CRA 40; 60 in 30"->"Conc TMZ Adj TMZ DD 150 Cel Thal; 60 in 30" [label = "Penas-PradoMNeuroOncol2015_AF nonStatSig" labelURL = "./Conc TMZ Adj TMZ DD 150 CRA 40; 60 in 30Conc TMZ Adj TMZ DD 150 Cel Thal; 60 in 30.html",  dir = "both"  color="blue"];
"Conc TMZ Adj TMZ DD 150 CRA 40; 60 in 30"->"Conc TMZ Adj TMZ DD 150 Cel; 60 in 30" [label = "Penas-PradoMNeuroOncol2015_AB nonStatSig" labelURL = "./Conc TMZ Adj TMZ DD 150 CRA 40; 60 in 30Conc TMZ Adj TMZ DD 150 Cel; 60 in 30.html",  dir = "both"  color="blue"];
"Conc TMZ Adj TMZ DD 150 CRA 40; 60 in 30"->"Conc TMZ Adj TMZ DD 150 Thal; 60 in 30" [label = "Penas-PradoMNeuroOncol2015_AC nonStatSig" labelURL = "./Conc TMZ Adj TMZ DD 150 CRA 40; 60 in 30Conc TMZ Adj TMZ DD 150 Thal; 60 in 30.html",  dir = "both"  color="blue"];
"Conc TMZ Adj TMZ DD 150; 60 in 30"->"Conc TMZ Adj TMZ DD 150 CRA 40; 60 in 30" [label = "Penas-PradoMNeuroOncol2015_AH nonStatSig" labelURL = "./Conc TMZ Adj TMZ DD 150 CRA 40; 60 in 30Conc TMZ Adj TMZ DD 150; 60 in 30.html",  color="red"];
"Conc TMZ Adj TMZ DD 150 CRA Cel Thal; 60 in 30"->"Conc TMZ Adj TMZ DD 150 CRA Thal; 60 in 30" [label = "Penas-PradoMNeuroOncol2015_EG nonStatSig" labelURL = "./Conc TMZ Adj TMZ DD 150 CRA Cel Thal; 60 in 30Conc TMZ Adj TMZ DD 150 CRA Thal; 60 in 30.html",  dir = "both"  color="blue"];
"Conc TMZ Adj TMZ DD 150 CRA Cel Thal; 60 in 30"->"Conc TMZ Adj TMZ DD 150 Cel Thal; 60 in 30" [label = "Penas-PradoMNeuroOncol2015_FG nonStatSig" labelURL = "./Conc TMZ Adj TMZ DD 150 CRA Cel Thal; 60 in 30Conc TMZ Adj TMZ DD 150 Cel Thal; 60 in 30.html",  dir = "both"  color="blue"];
"Conc TMZ Adj TMZ DD 150 CRA Cel Thal; 60 in 30"->"Conc TMZ Adj TMZ DD 150 Cel; 60 in 30" [label = "Penas-PradoMNeuroOncol2015_BG nonStatSig" labelURL = "./Conc TMZ Adj TMZ DD 150 CRA Cel Thal; 60 in 30Conc TMZ Adj TMZ DD 150 Cel; 60 in 30.html",  dir = "both"  color="blue"];
"Conc TMZ Adj TMZ DD 150 CRA Cel Thal; 60 in 30"->"Conc TMZ Adj TMZ DD 150 Thal; 60 in 30" [label = "Penas-PradoMNeuroOncol2015_CG nonStatSig" labelURL = "./Conc TMZ Adj TMZ DD 150 CRA Cel Thal; 60 in 30Conc TMZ Adj TMZ DD 150 Thal; 60 in 30.html",  dir = "both"  color="blue"];
"Conc TMZ Adj TMZ DD 150 CRA Cel Thal; 60 in 30"->"Conc TMZ Adj TMZ DD 150; 60 in 30" [label = "Penas-PradoMNeuroOncol2015_GH nonStatSig" labelURL = "./Conc TMZ Adj TMZ DD 150 CRA Cel Thal; 60 in 30Conc TMZ Adj TMZ DD 150; 60 in 30.html",  dir = "both"  color="blue"];
"Conc TMZ Adj TMZ DD 150 CRA Cel; 60 in 30"->"Conc TMZ Adj TMZ DD 150 CRA Cel Thal; 60 in 30" [label = "Penas-PradoMNeuroOncol2015_DG nonStatSig" labelURL = "./Conc TMZ Adj TMZ DD 150 CRA Cel; 60 in 30Conc TMZ Adj TMZ DD 150 CRA Cel Thal; 60 in 30.html",  dir = "both"  color="blue"];
"Conc TMZ Adj TMZ DD 150 CRA Cel; 60 in 30"->"Conc TMZ Adj TMZ DD 150 CRA Thal; 60 in 30" [label = "Penas-PradoMNeuroOncol2015_DE nonStatSig" labelURL = "./Conc TMZ Adj TMZ DD 150 CRA Cel; 60 in 30Conc TMZ Adj TMZ DD 150 CRA Thal; 60 in 30.html",  dir = "both"  color="blue"];
"Conc TMZ Adj TMZ DD 150 CRA Cel; 60 in 30"->"Conc TMZ Adj TMZ DD 150 Cel Thal; 60 in 30" [label = "Penas-PradoMNeuroOncol2015_DF nonStatSig" labelURL = "./Conc TMZ Adj TMZ DD 150 CRA Cel; 60 in 30Conc TMZ Adj TMZ DD 150 Cel Thal; 60 in 30.html",  dir = "both"  color="blue"];
"Conc TMZ Adj TMZ DD 150 CRA Cel; 60 in 30"->"Conc TMZ Adj TMZ DD 150 Cel; 60 in 30" [label = "Penas-PradoMNeuroOncol2015_BD nonStatSig" labelURL = "./Conc TMZ Adj TMZ DD 150 CRA Cel; 60 in 30Conc TMZ Adj TMZ DD 150 Cel; 60 in 30.html",  dir = "both"  color="blue"];
"Conc TMZ Adj TMZ DD 150 CRA Cel; 60 in 30"->"Conc TMZ Adj TMZ DD 150 Thal; 60 in 30" [label = "Penas-PradoMNeuroOncol2015_CD nonStatSig" labelURL = "./Conc TMZ Adj TMZ DD 150 CRA Cel; 60 in 30Conc TMZ Adj TMZ DD 150 Thal; 60 in 30.html",  dir = "both"  color="blue"];
"Conc TMZ Adj TMZ DD 150 CRA Cel; 60 in 30"->"Conc TMZ Adj TMZ DD 150; 60 in 30" [label = "Penas-PradoMNeuroOncol2015_DH nonStatSig" labelURL = "./Conc TMZ Adj TMZ DD 150 CRA Cel; 60 in 30Conc TMZ Adj TMZ DD 150; 60 in 30.html",  dir = "both"  color="blue"];
"Conc TMZ Adj TMZ DD 150 CRA Thal; 60 in 30"->"Conc TMZ Adj TMZ DD 150 Cel; 60 in 30" [label = "Penas-PradoMNeuroOncol2015_BE nonStatSig" labelURL = "./Conc TMZ Adj TMZ DD 150 CRA Thal; 60 in 30Conc TMZ Adj TMZ DD 150 Cel; 60 in 30.html",  dir = "both"  color="blue"];
"Conc TMZ Adj TMZ DD 150 CRA Thal; 60 in 30"->"Conc TMZ Adj TMZ DD 150 Thal; 60 in 30" [label = "Penas-PradoMNeuroOncol2015_CE nonStatSig" labelURL = "./Conc TMZ Adj TMZ DD 150 CRA Thal; 60 in 30Conc TMZ Adj TMZ DD 150 Thal; 60 in 30.html",  dir = "both"  color="blue"];
"Conc TMZ Adj TMZ DD 150 CRA Thal; 60 in 30"->"Conc TMZ Adj TMZ DD 150; 60 in 30" [label = "Penas-PradoMNeuroOncol2015_EH nonStatSig" labelURL = "./Conc TMZ Adj TMZ DD 150 CRA Thal; 60 in 30Conc TMZ Adj TMZ DD 150; 60 in 30.html",  dir = "both"  color="blue"];
"Conc TMZ Adj TMZ DD 150 Cel Thal; 60 in 30"->"Conc TMZ Adj TMZ DD 150 CRA Thal; 60 in 30" [label = "Penas-PradoMNeuroOncol2015_EF nonStatSig" labelURL = "./Conc TMZ Adj TMZ DD 150 Cel Thal; 60 in 30Conc TMZ Adj TMZ DD 150 CRA Thal; 60 in 30.html",  dir = "both"  color="blue"];
"Conc TMZ Adj TMZ DD 150 Cel Thal; 60 in 30"->"Conc TMZ Adj TMZ DD 150 Cel; 60 in 30" [label = "Penas-PradoMNeuroOncol2015_BF nonStatSig" labelURL = "./Conc TMZ Adj TMZ DD 150 Cel Thal; 60 in 30Conc TMZ Adj TMZ DD 150 Cel; 60 in 30.html",  dir = "both"  color="blue"];
"Conc TMZ Adj TMZ DD 150 Cel Thal; 60 in 30"->"Conc TMZ Adj TMZ DD 150 Thal; 60 in 30" [label = "Penas-PradoMNeuroOncol2015_CF nonStatSig" labelURL = "./Conc TMZ Adj TMZ DD 150 Cel Thal; 60 in 30Conc TMZ Adj TMZ DD 150 Thal; 60 in 30.html",  dir = "both"  color="blue"];
"Conc TMZ Adj TMZ DD 150 Cel Thal; 60 in 30"->"Conc TMZ Adj TMZ DD 150; 60 in 30" [label = "Penas-PradoMNeuroOncol2015_FH nonStatSig" labelURL = "./Conc TMZ Adj TMZ DD 150 Cel Thal; 60 in 30Conc TMZ Adj TMZ DD 150; 60 in 30.html",  dir = "both"  color="blue"];
"Conc TMZ Adj TMZ DD 150 Cel; 60 in 30"->"Conc TMZ Adj TMZ DD 150; 60 in 30" [label = "Penas-PradoMNeuroOncol2015_BH nonStatSig" labelURL = "./Conc TMZ Adj TMZ DD 150 Cel; 60 in 30Conc TMZ Adj TMZ DD 150; 60 in 30.html",  dir = "both"  color="blue"];
"Conc TMZ Adj TMZ DD 150 Thal; 60 in 30"->"Conc TMZ Adj TMZ DD 150 Cel; 60 in 30" [label = "Penas-PradoMNeuroOncol2015_BC nonStatSig" labelURL = "./Conc TMZ Adj TMZ DD 150 Thal; 60 in 30Conc TMZ Adj TMZ DD 150 Cel; 60 in 30.html",  dir = "both"  color="blue"];
"Conc TMZ Adj TMZ DD 150 Thal; 60 in 30"->"Conc TMZ Adj TMZ DD 150; 60 in 30" [label = "Penas-PradoMNeuroOncol2015_CH nonStatSig" labelURL = "./Conc TMZ Adj TMZ DD 150 Thal; 60 in 30Conc TMZ Adj TMZ DD 150; 60 in 30.html",  dir = "both"  color="blue"];
"Conc TMZ Adj TMZ; 44-66 in 26-30"->"Conc TMZ Nimo 200 Adj TMZ; 46-66 in 26-30" [label = "HongJExpTherMed2012 nonStatSig" labelURL = "./Conc TMZ Adj TMZ; 44-66 in 26-30Conc TMZ Nimo 200 Adj TMZ; 46-66 in 26-30.html",  dir = "both"  color="blue"];
"Conc TMZ Bev (A) Adj TMZ Bev (A); 60 in 30"->"Conc TMZ Adj TMZ; 60 in 30" [label = "ChinotOLNEnglJMed2014 nonStatSig" labelURL = "./Conc TMZ Adj TMZ; 60 in 30Conc TMZ Bev (A) Adj TMZ Bev (A); 60 in 30.html",  color="red"];
"Conc TMZ Adj TMZ; 60 in 30"->"Conc TMZ Nimo 400 Adj TMZ Nimo 400; 60 in 30" [label = "WestphalMEurJCancer2015 nonStatSig" labelURL = "./Conc TMZ Adj TMZ; 60 in 30Conc TMZ Nimo 400 Adj TMZ Nimo 400; 60 in 30.html",  dir = "both"  color="blue"];
"Conc TMZ Adj TMZ; 60 in 30"->"Ind Bev Iri 125 Conc TMZ Bev (A) Adj Bev Iri 125; 60 in 30" [label = "ChauffertBAnnOncol2014 nonStatSig" labelURL = "./Conc TMZ Adj TMZ; 60 in 30Ind Bev Iri 125 Conc TMZ Bev (A) Adj Bev Iri 125; 60 in 30.html",  dir = "both"  color="blue"];
"Ind TMZ 75 Conc TMZ Adj TMZ; 60 in 30"->"Conc TMZ Adj TMZ; 60 in 30" [label = "MaoYChinMedJ(Engl)2015 nonStatSig" labelURL = "./Conc TMZ Adj TMZ; 60 in 30Ind TMZ 75 Conc TMZ Adj TMZ; 60 in 30.html",  color="red"];
"Conc TMZ Adj TMZ; 60 in 30"->"RT alone; 60 in 30" [label = "StuppRLancetOncol2009, StuppRNEnglJMed2005 nonStatSig" labelURL = "./Conc TMZ Adj TMZ; 60 in 30RT alone; 60 in 30.html",  color="red"];
"Conc TMZ Adj Val; 60 in 30"->"Conc TMZ; 60 in 30" [label = "StragliottoGIntJCancer2013 nonStatSig" labelURL = "./Conc TMZ Adj Val; 60 in 30Conc TMZ; 60 in 30.html",  dir = "both"  color="blue"];
"Conc TMZ Cil 500 Adj TMZ Cil 500; 60 in 30"->"Conc TMZ Cil 2000 Adj TMZ Cil 2000; 60 in 30" [label = "NaborsLBCancer2012 nonStatSig" labelURL = "./Conc TMZ Cil 500 Adj TMZ Cil 500; 60 in 30Conc TMZ Cil 2000 Adj TMZ Cil 2000; 60 in 30.html",  dir = "both"  color="blue"];
"Conc TMZ Int; 60 in 30"->"Conc TMZ; 60 in 30" [label = "GaberMCancerManagRes2013 nonStatSig" labelURL = "./Conc TMZ Int; 60 in 30Conc TMZ; 60 in 30.html",  dir = "both"  color="blue"];
"Conc TMZ; 56-60 in 28-30"->"Conc Tamox; 56-60 in 28-30" [label = "ZhouSBAsianPacJCancerPrev2015 nonStatSig" labelURL = "./Conc TMZ; 56-60 in 28-30Conc Tamox; 56-60 in 28-30.html",  dir = "both"  color="blue"];
"Conc TMZ; 60 in 30"->"RT alone; 60 in 30" [label = "KocherMStrahlentherapieundOnkol2008 nonStatSig" labelURL = "./Conc TMZ; 60 in 30RT alone; 60 in 30.html",  dir = "both"  color="blue"];
"Ind Bev Iri 340-125 Conc Bev Iri 340-125 Adj Bev Iri 340-125; 60 in 30"->"Ind TMZ Bev Conc TMZ Bev (A) Adj TMZ Bev (C); 60 in 30" [label = "HoflandKFActaOncol2014 nonStatSig" labelURL = "./Ind Bev Iri 340-125 Conc Bev Iri 340-125 Adj Bev Iri 340-125; 60 in 30Ind TMZ Bev Conc TMZ Bev (A) Adj TMZ Bev (C); 60 in 30.html",  dir = "both"  color="blue"];
"Ind TMZ 200 Conc TMZ Adj TMZ (C); 60 in 30"->"RT alone; 60 in 30" [label = "SzczepanekDNeurolNeurochirPol2013 nonStatSig" labelURL = "./Ind TMZ 200 Conc TMZ Adj TMZ (C); 60 in 30RT alone; 60 in 30.html",  color="red"];
"RT alone; 34 in 10"->"RT alone; 60 in 30" [label = "MalmstromALancetOncol2012_BC nonStatSig" labelURL = "./RT alone; 34 in 10RT alone; 60 in 30.html",  dir = "both"  color="blue"];
"RT alone; 34 in 10"->"TMZ 200 " [label = "MalmstromALancetOncol2012_AB nonStatSig" labelURL = "./RT alone; 34 in 10TMZ 200 .html",  dir = "both"  color="blue"];
"TMZ 200 "->"RT alone; 60 in 30" [label = "MalmstromALancetOncol2012_AC nonStatSig" labelURL = "./RT alone; 60 in 30TMZ 200 .html",  color="red"];
"RT alone; 60 in 30-33"->"TMZ DD 100" [label = "WickWLancetOncol2012 nonStatSig" labelURL = "./RT alone; 60 in 30-33TMZ DD 100.html",  dir = "both"  color="blue"];

}
