digraph superioritygraph {

overlap=scale;

labelloc = t


"Adj TMZ; 60 Gy"->"Adj mCCNU; 60 Gy" [label = "WangXAnnSurgOncol2014 " labelURL = "./Adj TMZ; 60 GyAdj mCCNU; 60 Gy.html",  color="red"];
"IndAdj TMZ ACNU Cis; 60-62"->"Adj TMZ; 60-62" [label = "KimlHJNeurooncol2011 " labelURL = "./Adj TMZ; 60-62IndAdj TMZ ACNU Cis; 60-62.html",  color="red"];
"Conc TMZ; 60 Gy"->"Conc Tamox; 60 Gy" [label = "ZhouSBAsianPacJCancerPrev2015 " labelURL = "./Conc TMZ; 60 GyConc Tamox; 60 Gy.html",  color="red"];
"RT alone; 60-62"->"Conc TMZ; 60-62" [label = "KocherMStrahlentherapieundOnkol2008 " labelURL = "./Conc TMZ; 60-62RT alone; 60-62.html",  color="red"];
"ConcAdj TMZ; 60-62"->"ConcAdj TMZ Bev; 60-62" [label = "ChinotOLNEnglJMed2014, GilbertMRJClinOncol2014 " labelURL = "./ConcAdj TMZ Bev; 60-62ConcAdj TMZ; 60-62.html",  color="red"];
"ConcAdj TMZ Cil; 60-62"->"ConcAdj TMZ Cil; 60-62" [label = "NaborsLBCancer2012 " labelURL = "./ConcAdj TMZ Cil; 60-62ConcAdj TMZ Cil; 60-62.html",  color="red"];
"ConcAdj TMZ DCV; 60-62"->"ConcAdj TMZ; 60-62" [label = "ChoDYWorldNeurosurg2012 " labelURL = "./ConcAdj TMZ DCV; 60-62ConcAdj TMZ; 60-62.html",  color="red"];
"ConcAdj TMZ DD CRA Cel; 60-62"->"ConcAdj TMZ DD CRA Cel Thal; 60-62" [label = "Penas-PradoMNeuroOncol2015_DG " labelURL = "./ConcAdj TMZ DD CRA Cel Thal; 60-62ConcAdj TMZ DD CRA Cel; 60-62.html",  color="red"];
"ConcAdj TMZ DD CRA Thal; 60-62"->"ConcAdj TMZ DD CRA Cel Thal; 60-62" [label = "Penas-PradoMNeuroOncol2015_FG, Penas-PradoMNeuroOncol2015_EG " labelURL = "./ConcAdj TMZ DD CRA Cel Thal; 60-62ConcAdj TMZ DD CRA Thal; 60-62.html",  color="red"];
"ConcAdj TMZ DD CRA Cel Thal; 60-62"->"ConcAdj TMZ DD CRA; 60-62" [label = "Penas-PradoMNeuroOncol2015_AG " labelURL = "./ConcAdj TMZ DD CRA Cel Thal; 60-62ConcAdj TMZ DD CRA; 60-62.html",  dir = "both"  color="blue"];
"ConcAdj TMZ DD CRA Cel Thal; 60-62"->"ConcAdj TMZ DD Cel; 60-62" [label = "Penas-PradoMNeuroOncol2015_BG " labelURL = "./ConcAdj TMZ DD CRA Cel Thal; 60-62ConcAdj TMZ DD Cel; 60-62.html",  dir = "both"  color="blue"];
"ConcAdj TMZ DD CRA Cel Thal; 60-62"->"ConcAdj TMZ DD Thal; 60-62" [label = "Penas-PradoMNeuroOncol2015_CG " labelURL = "./ConcAdj TMZ DD CRA Cel Thal; 60-62ConcAdj TMZ DD Thal; 60-62.html",  color="red"];
"ConcAdj TMZ DD; 60-62"->"ConcAdj TMZ DD CRA Cel Thal; 60-62" [label = "Penas-PradoMNeuroOncol2015_GH " labelURL = "./ConcAdj TMZ DD CRA Cel Thal; 60-62ConcAdj TMZ DD; 60-62.html",  color="red"];
"ConcAdj TMZ DD CRA Cel; 60-62"->"ConcAdj TMZ DD CRA; 60-62" [label = "Penas-PradoMNeuroOncol2015_AD " labelURL = "./ConcAdj TMZ DD CRA Cel; 60-62ConcAdj TMZ DD CRA; 60-62.html",  color="red"];
"ConcAdj TMZ DD CRA Cel; 60-62"->"ConcAdj TMZ DD Cel Thal; 60-62" [label = "Penas-PradoMNeuroOncol2015_DF " labelURL = "./ConcAdj TMZ DD CRA Cel; 60-62ConcAdj TMZ DD Cel Thal; 60-62.html",  color="red"];
"ConcAdj TMZ DD CRA Cel; 60-62"->"ConcAdj TMZ DD Cel; 60-62" [label = "Penas-PradoMNeuroOncol2015_BD " labelURL = "./ConcAdj TMZ DD CRA Cel; 60-62ConcAdj TMZ DD Cel; 60-62.html",  color="red"];
"ConcAdj TMZ DD CRA Cel; 60-62"->"ConcAdj TMZ DD Thal; 60-62" [label = "Penas-PradoMNeuroOncol2015_CD " labelURL = "./ConcAdj TMZ DD CRA Cel; 60-62ConcAdj TMZ DD Thal; 60-62.html",  color="red"];
"ConcAdj TMZ DD CRA Cel; 60-62"->"ConcAdj TMZ DD; 60-62" [label = "Penas-PradoMNeuroOncol2015_DH " labelURL = "./ConcAdj TMZ DD CRA Cel; 60-62ConcAdj TMZ DD; 60-62.html",  color="red"];
"ConcAdj TMZ DD CRA Cel; 60-62"->"ConcAdj TMZ DD CRA Thal; 60-62" [label = "Penas-PradoMNeuroOncol2015_DE " labelURL = "./ConcAdj TMZ DD CRA Thal; 60-62ConcAdj TMZ DD CRA Cel; 60-62.html",  color="red"];
"ConcAdj TMZ DD CRA; 60-62"->"ConcAdj TMZ DD CRA Thal; 60-62" [label = "Penas-PradoMNeuroOncol2015_AE " labelURL = "./ConcAdj TMZ DD CRA Thal; 60-62ConcAdj TMZ DD CRA; 60-62.html",  color="red"];
"ConcAdj TMZ DD Cel Thal; 60-62"->"ConcAdj TMZ DD CRA Thal; 60-62" [label = "Penas-PradoMNeuroOncol2015_EF " labelURL = "./ConcAdj TMZ DD CRA Thal; 60-62ConcAdj TMZ DD Cel Thal; 60-62.html",  color="red"];
"ConcAdj TMZ DD Cel; 60-62"->"ConcAdj TMZ DD CRA Thal; 60-62" [label = "Penas-PradoMNeuroOncol2015_BE " labelURL = "./ConcAdj TMZ DD CRA Thal; 60-62ConcAdj TMZ DD Cel; 60-62.html",  color="red"];
"ConcAdj TMZ DD CRA Thal; 60-62"->"ConcAdj TMZ DD Thal; 60-62" [label = "Penas-PradoMNeuroOncol2015_CE " labelURL = "./ConcAdj TMZ DD CRA Thal; 60-62ConcAdj TMZ DD Thal; 60-62.html",  dir = "both"  color="blue"];
"ConcAdj TMZ DD; 60-62"->"ConcAdj TMZ DD CRA Thal; 60-62" [label = "Penas-PradoMNeuroOncol2015_EH " labelURL = "./ConcAdj TMZ DD CRA Thal; 60-62ConcAdj TMZ DD; 60-62.html",  color="red"];
"ConcAdj TMZ DD Cel; 60-62"->"ConcAdj TMZ DD CRA; 60-62" [label = "Penas-PradoMNeuroOncol2015_AB " labelURL = "./ConcAdj TMZ DD CRA; 60-62ConcAdj TMZ DD Cel; 60-62.html",  color="red"];
"ConcAdj TMZ DD Thal; 60-62"->"ConcAdj TMZ DD CRA; 60-62" [label = "Penas-PradoMNeuroOncol2015_AC " labelURL = "./ConcAdj TMZ DD CRA; 60-62ConcAdj TMZ DD Thal; 60-62.html",  color="red"];
"ConcAdj TMZ DD; 60-62"->"ConcAdj TMZ DD CRA; 60-62" [label = "Penas-PradoMNeuroOncol2015_AH " labelURL = "./ConcAdj TMZ DD CRA; 60-62ConcAdj TMZ DD; 60-62.html",  color="red"];
"ConcAdj TMZ DD CRA; 60-62"->"RT alone; 60-62" [label = "AthanassiouHJClinOncol2005 " labelURL = "./ConcAdj TMZ DD CRA; 60-62RT alone; 60-62.html",  color="red"];
"ConcAdj TMZ DD Cel Thal; 60-62"->"ConcAdj TMZ DD CRA; 60-62" [label = "Penas-PradoMNeuroOncol2015_AF " labelURL = "./ConcAdj TMZ DD Cel Thal; 60-62ConcAdj TMZ DD CRA; 60-62.html",  color="red"];
"ConcAdj TMZ DD Cel; 60-62"->"ConcAdj TMZ DD Cel Thal; 60-62" [label = "Penas-PradoMNeuroOncol2015_BF " labelURL = "./ConcAdj TMZ DD Cel Thal; 60-62ConcAdj TMZ DD Cel; 60-62.html",  color="red"];
"ConcAdj TMZ DD Cel Thal; 60-62"->"ConcAdj TMZ DD Thal; 60-62" [label = "Penas-PradoMNeuroOncol2015_CF " labelURL = "./ConcAdj TMZ DD Cel Thal; 60-62ConcAdj TMZ DD Thal; 60-62.html",  color="red"];
"ConcAdj TMZ DD Cel Thal; 60-62"->"ConcAdj TMZ DD; 60-62" [label = "Penas-PradoMNeuroOncol2015_FH " labelURL = "./ConcAdj TMZ DD Cel Thal; 60-62ConcAdj TMZ DD; 60-62.html",  dir = "both"  color="blue"];
"ConcAdj TMZ DD Cel; 60-62"->"ConcAdj TMZ DD; 60-62" [label = "Penas-PradoMNeuroOncol2015_BH " labelURL = "./ConcAdj TMZ DD Cel; 60-62ConcAdj TMZ DD; 60-62.html",  color="red"];
"ConcAdj TMZ DD Cel; 60-62"->"ConcAdj TMZ DD Thal; 60-62" [label = "Penas-PradoMNeuroOncol2015_BC " labelURL = "./ConcAdj TMZ DD Thal; 60-62ConcAdj TMZ DD Cel; 60-62.html",  color="red"];
"ConcAdj TMZ DD; 60-62"->"ConcAdj TMZ DD Thal; 60-62" [label = "Penas-PradoMNeuroOncol2015_CH " labelURL = "./ConcAdj TMZ DD Thal; 60-62ConcAdj TMZ DD; 60-62.html",  color="red"];
"ConcAdj TMZ Val; 60-62"->"ConcAdj TMZ DD; 60-62" [label = "StragliottoGIntJCancer2013 " labelURL = "./ConcAdj TMZ DD; 60-62ConcAdj TMZ Val; 60-62.html",  color="red"];
"ConcAdj TMZ; 60-62"->"ConcAdj TMZ DD; 60-62" [label = "GilbertMRJClinOncol2013 " labelURL = "./ConcAdj TMZ DD; 60-62ConcAdj TMZ; 60-62.html",  color="red"];
"ConcAdj TMZ Nimo; 60-62"->"ConcAdj TMZ; 60-62" [label = "WestphalMEurJCancer2015 " labelURL = "./ConcAdj TMZ Nimo; 60-62ConcAdj TMZ; 60-62.html",  color="red"];
"ConcAdj TMZ Nimo; LessThan60Gy"->"ConcAdj TMZ; 60 Gy" [label = "HongJExpTherMed2012 " labelURL = "./ConcAdj TMZ Nimo; LessThan60GyConcAdj TMZ; 60 Gy.html",  color="red"];
"ConcAdj TMZ TTF; 60-62"->"ConcAdj TMZ; 60-62" [label = "StuppRJAMA2015 " labelURL = "./ConcAdj TMZ TTF; 60-62ConcAdj TMZ; 60-62.html",  color="red"];
"ConcAdj TMZ; 60-62"->"IndConcAdj TMZ Bev Iri; 60-62" [label = "ChauffertBAnnOncol2014 " labelURL = "./ConcAdj TMZ; 60-62IndConcAdj TMZ Bev Iri; 60-62.html",  color="red"];
"IndConcAdj TMZ Van; 60-62"->"ConcAdj TMZ; 60-62" [label = "LeeEQClinCancerRes2015 " labelURL = "./ConcAdj TMZ; 60-62IndConcAdj TMZ Van; 60-62.html",  color="red"];
"IndConcAdj TMZ; 60-62"->"ConcAdj TMZ; 60-62" [label = "MaoYChinMedJ(Engl)2015 " labelURL = "./ConcAdj TMZ; 60-62IndConcAdj TMZ; 60-62.html",  color="red"];
"ConcAdj TMZ; 60-62"->"RT alone; 60-62" [label = "StuppRLancetOncol2009, StuppRNEnglJMed2005 " labelURL = "./ConcAdj TMZ; 60-62RT alone; 60-62.html",  color="red"];
"IndConcAdj Bev Iri; 60-62"->"IndConcAdj TMZ Bev; 60-62" [label = "HoflandKFActaOncol2014 " labelURL = "./IndConcAdj Bev Iri; 60-62IndConcAdj TMZ Bev; 60-62.html",  color="red"];
"IndConcAdj TMZ; 60-62"->"RT alone; 60-62" [label = "SzczepanekDNeurolNeurochirPol2013 " labelURL = "./RT alone; 60-62IndConcAdj TMZ; 60-62.html",  color="red"];
"RT alone; Pall RT"->"RT alone; 60-62" [label = "MalmstromALancetOncol2012_BC " labelURL = "./RT alone; 60-62RT alone; Pall RT.html",  color="red"];
"RT alone; 60-62"->"TMZ" [label = "MalmstromALancetOncol2012_AC " labelURL = "./RT alone; 60-62TMZ.html",  color="red"];
"RT alone; 60-62"->"TMZ DD" [label = "WickWLancetOncol2012 " labelURL = "./RT alone; 60-62TMZ DD.html",  color="red"];
"RT alone; Pall RT "->"TMZ" [label = "MalmstromALancetOncol2012_AB " labelURL = "./RT alone; Pall RT TMZ.html",  dir = "both"  color="blue"];

}
