digraph superioritygraph {

overlap=scale;

labelloc = t


"60 in 30; Cons cis-vin (E)"->"Conc cis-vin (D); 60 in 30" [label = "WuCJLC2006 StageII" labelURL = "./60 in 30; Cons cis-vin (E)Conc cis-vin (D); 60 in 30.html",  dir = "both"  color="blue"];
"Conc Cis-Etop; RT 60 in 30"->"Conc cis-etop 60 in 40 bd (split)" [label = "SchildRedJ2002 StageII" labelURL = "./Conc Cis-Etop; RT 60 in 30Conc cis-etop 60 in 40 bd (split).html",  dir = "both"  color="blue"];
"Conc carbo (daily); 60 in 30"->"RT alone; 60 in 30" [label = "AtagiLancetOnc2012, AtagiJJCO2005 StageII" labelURL = "./Conc carbo (daily); 60 in 30RT alone; 60 in 30.html",  dir = "both"  color="blue"];
"Conc carbo-etop (A); 64.8 in 54 (BD)"->"Conc carbo-etop (B);  64.8 in 54 (BD)" [label = "JeremicJCO1995 StageII" labelURL = "./Conc carbo-etop (A); 64.8 in 54 (BD)Conc carbo-etop (B);  64.8 in 54 (BD).html",  dir = "both"  color="blue"];
"Conc carbo-etop (A); 64.8 in 54 (BD)"->"RT alone; 64.8 in 54 (BD)" [label = "JeremicJCO1995 StageII" labelURL = "./Conc carbo-etop (A); 64.8 in 54 (BD)RT alone; 64.8 in 54 (BD).html",  dir = "both"  color="blue"];
"Conc carbo-etop (B);  64.8 in 54 (BD)"->"RT alone; 64.8 in 54 (BD)" [label = "JeremicJCO1995 StageII" labelURL = "./Conc carbo-etop (B);  64.8 in 54 (BD)RT alone; 64.8 in 54 (BD).html",  dir = "both"  color="blue"];
"Conc carbo-etop; 69.6 in 58 (BD)"->"RT alone; 69.6 in 58 (BD)" [label = "JeremicJCO1996 StageII" labelURL = "./Conc carbo-etop; 69.6 in 58 (BD)RT alone; 69.6 in 58 (BD).html",  dir = "both"  color="blue"];
"Conc carbo-paclitaxel; 60 in 30"->"Ind carbo-paclitaxel; Conc carbo-paclitaxel; 60 in 30" [label = "GoudaJENCI2006 StageII" labelURL = "./Conc carbo-paclitaxel; 60 in 30Ind carbo-paclitaxel; Conc carbo-paclitaxel; 60 in 30.html",  dir = "both"  color="blue"];
"Conc carbo-paclitaxel; 60 in 30"->"RT alone; 60 in 30" [label = "GoudaJENCI2006 StageII" labelURL = "./Conc carbo-paclitaxel; 60 in 30RT alone; 60 in 30.html",  dir = "both"  color="blue"];
"Conc carbo; 60 in 30"->"RT alone; 60 in 30" [label = "GroenAnnOnc2004 StageII" labelURL = "./Conc carbo; 60 in 30RT alone; 60 in 30.html",  dir = "both"  color="blue"];
"Conc cis (daily); 45 in 15"->"RT alone; 45 in 15" [label = "TrovoRedJ1992 StageII" labelURL = "./Conc cis (daily); 45 in 15RT alone; 45 in 15.html",  dir = "both"  color="blue"];
"Conc cis (daily); 55 in 20 (split)"->"Conc cis; 55 in 20 (split)" [label = "Schaake-KoningNEJM1992 StageII" labelURL = "./Conc cis (daily); 55 in 20 (split)Conc cis; 55 in 20 (split).html",  dir = "both"  color="blue"];
"Conc cis (daily); 55 in 20 (split)"->"RT alone; 55 in 20 (split)" [label = "Schaake-KoningNEJM1992 StageII" labelURL = "./Conc cis (daily); 55 in 20 (split)RT alone; 55 in 20 (split).html",  dir = "both"  color="blue"];
"Conc cis-etop; 60 in 40 (BD)"->"RT alone; 60 in 30" [label = "BonnerCancer1998 StageII" labelURL = "./Conc cis-etop; 60 in 40 (BD)RT alone; 60 in 30.html",  dir = "both"  color="blue"];
"Conc cis-etop; 60 in 40 (BD)"->"RT alone; 60 in 40 (BD)" [label = "BonnerCancer1998 StageII" labelURL = "./Conc cis-etop; 60 in 40 (BD)RT alone; 60 in 40 (BD).html",  dir = "both"  color="blue"];
"Conc cis-etop; 66 in 33; Cons cis-vin"->"Ind cis-vin (A); 66 in 33" [label = "FournelJCO2005 StageII" labelURL = "./Conc cis-etop; 66 in 33; Cons cis-vinInd cis-vin (A); 66 in 33.html",  dir = "both"  color="blue"];
"Conc cis-vinB (A); 60 in 30"->"Conc cis-etop; 69.6 in 58 (BD)" [label = "CurranJNCI2011 " labelURL = "./Conc cis-etop; 69.6 in 58 (BD)Conc cis-vinB (A); 60 in 30.html",  color="red"];
"Conc cis-etop; 69.6 in 58 (BD)"->"Ind cis-vinB; 60 in 30" [label = "CurranJNCI2011 " labelURL = "./Conc cis-etop; 69.6 in 58 (BD)Ind cis-vinB; 60 in 30.html",  color="red"];
"Conc cis-vin (C); 60 in 30"->"Ind cis-vin (C); 60 in 30" [label = "ZatloukalLungCa2004 StageII" labelURL = "./Conc cis-vin (C); 60 in 30Ind cis-vin (C); 60 in 30.html",  dir = "both"  color="blue"];
"Conc cis-vin; 70.2 in 39"->"Ind cis-vin; 70.2 in 39" [label = "ReinfussNowotory2005 StageII" labelURL = "./Conc cis-vin; 70.2 in 39Ind cis-vin; 70.2 in 39.html",  dir = "both"  color="blue"];
"Conc cis-vinB (A); 60 in 30"->"Ind cis-vinB; 60 in 30" [label = "CurranJNCI2011 " labelURL = "./Conc cis-vinB (A); 60 in 30Ind cis-vinB; 60 in 30.html",  color="red"];
"Conc cis-vinB; 60 in 30 (B)"->"RT alone; 60 in 30" [label = "LuCJLC2005 StageII" labelURL = "./Conc cis-vinB; 60 in 30 (B)RT alone; 60 in 30.html",  dir = "both"  color="blue"];
"RT alone; 50 in 25"->"Conc cis; 50 in 25" [label = "YadavBPGI2005 " labelURL = "./Conc cis; 50 in 25RT alone; 50 in 25.html",  color="red"];
"Conc cis; 50.4 in 28"->"RT alone; 50.4 in 28" [label = "SoresiSemOnc1988 StageII" labelURL = "./Conc cis; 50.4 in 28RT alone; 50.4 in 28.html",  dir = "both"  color="blue"];
"Conc cis; 55 in 20 (split)"->"RT alone; 55 in 20 (split)" [label = "Schaake-KoningNEJM1992 StageII" labelURL = "./Conc cis; 55 in 20 (split)RT alone; 55 in 20 (split).html",  dir = "both"  color="blue"];
"Conc cis; 60 in 30"->"RT alone; 60 in 30" [label = "BlankeJCO1995 StageII" labelURL = "./Conc cis; 60 in 30RT alone; 60 in 30.html",  dir = "both"  color="blue"];
"Conc cis; 64 in 32"->"RT alone; 64 in 32" [label = "CakirLungCa2004 StageII" labelURL = "./Conc cis; 64 in 32RT alone; 64 in 32.html",  dir = "both"  color="blue"];
"Conc hydroxyurea; 60 in 20 (split)"->"RT alone; 60 in 20 (split)" [label = "LandgrenCancer1974 StageII" labelURL = "./Conc hydroxyurea; 60 in 20 (split)RT alone; 60 in 20 (split).html",  dir = "both"  color="blue"];
"ConcCRT + cons Doce"->"RT alone; consDocetaxel" [label = "LanetalAbstract StageII" labelURL = "./ConcCRT + cons DoceRT alone; consDocetaxel.html",  dir = "both"  color="blue"];
"ConcRT Carbo-Doc 60 in 30; Cons Gem-Doce"->"Ind Doce-gem; Conc 60 in 30 conc Doce-carbo" [label = "GarridoSLCG0008 StageII" labelURL = "./ConcRT Carbo-Doc 60 in 30; Cons Gem-DoceInd Doce-gem; Conc 60 in 30 conc Doce-carbo.html",  dir = "both"  color="blue"];
"ConcRT Cis-vin 55 in 20"->"Ind cis-vin; 55 in 20" [label = "MaguireSOCCAR StageII" labelURL = "./ConcRT Cis-vin 55 in 20Ind cis-vin; 55 in 20.html",  dir = "both"  color="blue"];
"Hydroxycamptothecin 10mg per day weeks 1 and 5; 62.4 in 52 (BD)"->"RT alone; 62.4 in 52 (BD)" [label = "LeeTumour2008 StageII" labelURL = "./Hydroxycamptothecin 10mg per day weeks 1 and 5; 62.4 in 52 (BD)RT alone; 62.4 in 52 (BD).html",  dir = "both"  color="blue"];
"Ind Cis-Vin and Conc Cis-Vin; 62-70"->"Ind and Cons Cis-vin; 62-70" [label = "RaoCJCPT2007 StageII" labelURL = "./Ind Cis-Vin and Conc Cis-Vin; 62-70Ind and Cons Cis-vin; 62-70.html",  dir = "both"  color="blue"];
"Ind Cis-Vin; 54 in 36 (CHART)"->"RT alone; 54 in 36 (CHART)" [label = "HattonRedJ2011 StageII" labelURL = "./Ind Cis-Vin; 54 in 36 (CHART)RT alone; 54 in 36 (CHART).html",  dir = "both"  color="blue"];
"Ind carbo-paclitaxel; 57.6 in 36"->"Ind carbo-paclitaxol; 64 in 32" [label = "BelaniJCO2005 StageII" labelURL = "./Ind carbo-paclitaxel; 57.6 in 36Ind carbo-paclitaxol; 64 in 32.html",  dir = "both"  color="blue"];
"Ind carbo-paclitaxel; 60 in 30"->"Ind carbo-paclitaxel; Conc paclitaxel; 60 in 30" [label = "HuberJCO2006 StageII" labelURL = "./Ind carbo-paclitaxel; 60 in 30Ind carbo-paclitaxel; Conc paclitaxel; 60 in 30.html",  dir = "both"  color="blue"];
"Ind carbo-paclitaxel; Conc carbo-paclitaxel; 60 in 30"->"RT alone; 60 in 30" [label = "GoudaJENCI2006 StageII" labelURL = "./Ind carbo-paclitaxel; Conc carbo-paclitaxel; 60 in 30RT alone; 60 in 30.html",  dir = "both"  color="blue"];
"Ind carbo; 60 in 30"->"RT alone; 60 in 30" [label = "BallRTOnc1999 StageII" labelURL = "./Ind carbo; 60 in 30RT alone; 60 in 30.html",  dir = "both"  color="blue"];
"Ind carbo; 60 in 30"->"RT alone; 60 in 30 (BD)" [label = "BallRTOnc1999 StageII" labelURL = "./Ind carbo; 60 in 30RT alone; 60 in 30 (BD).html",  dir = "both"  color="blue"];
"Ind carbo; 60 in 30 (BD)"->"Ind carbo; 60 in 30" [label = "BallRTOnc1999 StageII" labelURL = "./Ind carbo; 60 in 30 (BD)Ind carbo; 60 in 30.html",  dir = "both"  color="blue"];
"Ind carbo; 60 in 30 (BD)"->"RT alone; 60 in 30" [label = "BallRTOnc1999 StageII" labelURL = "./Ind carbo; 60 in 30 (BD)RT alone; 60 in 30.html",  dir = "both"  color="blue"];
"Ind carbo; 60 in 30 (BD)"->"RT alone; 60 in 30 (BD)" [label = "BallRTOnc1999 StageII" labelURL = "./Ind carbo; 60 in 30 (BD)RT alone; 60 in 30 (BD).html",  dir = "both"  color="blue"];
"Ind cis-docetaxel; Conc docetaxel; 60 in 30"->"Ind cis-docetaxel; 60 in 30" [label = "ScagliottiBJC2006 StageII" labelURL = "./Ind cis-docetaxel; Conc docetaxel; 60 in 30Ind cis-docetaxel; 60 in 30.html",  dir = "both"  color="blue"];
"Ind cis-vin; 60 in 30"->"RT alone 69.6 in 58 (BD)" [label = "SauseChest2000 " labelURL = "./Ind cis-vin; 60 in 30RT alone 69.6 in 58 (BD).html",  color="red"];
"Ind cis-vin; 60 in 30"->"RT alone; 60 in 30" [label = "SauseChest2000 " labelURL = "./Ind cis-vin; 60 in 30RT alone; 60 in 30.html",  color="red"];
"Ind cis-vinB; 60 in 30"->"Ind cis-vinB; Conc carbo; 60 in 30" [label = "ClamonJCO1999 StageII" labelURL = "./Ind cis-vinB; 60 in 30Ind cis-vinB; Conc carbo; 60 in 30.html",  dir = "both"  color="blue"];
"RT alone 54 in 36 TDS"->"RT alone; 60 in 30" [label = "CHART StageII" labelURL = "./RT alone 54 in 36 TDSRT alone; 60 in 30.html",  dir = "both"  color="blue"];
"RT alone 69.6 in 58 (BD)"->"RT alone; 60 in 30" [label = "SauseChest2000 " labelURL = "./RT alone 69.6 in 58 (BD)RT alone; 60 in 30.html",  color="red"];
"RT alone 72 in 40 5 days a week"->"RT alone 72 in 40; 7days a week" [label = "Zajusz et al. StageII" labelURL = "./RT alone 72 in 40 5 days a weekRT alone 72 in 40; 7days a week.html",  dir = "both"  color="blue"];
"RT alone; 60 in 30"->"RT alone; 60 in 30 (BD)" [label = "BallRTOnc1999 StageII" labelURL = "./RT alone; 60 in 30RT alone; 60 in 30 (BD).html",  dir = "both"  color="blue"];
"RT alone; 60 in 30"->"RT alone; 60 in 40 (BD)" [label = "BonnerCancer1998 StageII" labelURL = "./RT alone; 60 in 30RT alone; 60 in 40 (BD).html",  dir = "both"  color="blue"];
"RT alone; 60 in 40 TID (not weekend)"->"RT alone; 66 in 33" [label = "BaumannGreenJ2011 StageII" labelURL = "./RT alone; 60 in 40 TID (not weekend)RT alone; 66 in 33.html",  dir = "both"  color="blue"];

}
